+ REPOS=page-table-vas-pt page-table-vas-pt-alt
+ EPOCH=.44
+ TRIALS=3
+ USE_CLANG=false
+ USE_MARCH=false
+ USE_ALIGN=true
+ REINSTALL=true
+ BENCH_REINSTALL=false
+ BENCH_GALLINA_DEV=false
+ BENCH_GALLINA_OPAM=false
+ BENCH_MATHCOMP=true
+ BENCH_MATHCOMP_HEAVY=false
+ DRY=
+ J=2
+ THROTTLE_CMD=cpufreqctl --throttle
+ TIME=time
+ GALLINA_C=coq coq-core coqide coqide-server coq-stdlib
+ GALLINA_PKGS=coq-mathcomp-character coq-mathcomp-field
              coq-mathcomp-solvable coq-mathcomp-algebra
              coq-mathcomp-fingroup coq-mathcomp-ssreflect
+ GALLINA_HEAVY_PKGS=coq-mathcomp-odd-order
+ export OPAMVAR_ocamlas=as -mbranches-within-32B
+ MARCH=
+ false
+ false
+ ALIGN=
+ false
+ true
+ ALIGN=-falign-functions=16 -falign-loops=16 -falign-jumps=16
+ export OPAMVAR_ocamlcc=gcc -Wa,-mbranches-within-32B  -falign-functions=16 -falign-loops=16 -falign-jumps=16
+ unset OPAMSWITCH
+ rm /tmp/ocaml-stats-page-table-vas-pt-alt.log
+ cd repo-page-table-vas-pt
+ opam env --switch=. --set-switch
+ eval OPAMSWITCH='/home/gm/Travail/github/ocaml/ocaml-large-pages-experiment/real_perfs/repo-page-table-vas-pt'; export OPAMSWITCH; OPAM_SWITCH_PREFIX='/home/gm/Travail/github/ocaml/ocaml-large-pages-experiment/real_perfs/repo-page-table-vas-pt/_opam'; export OPAM_SWITCH_PREFIX; CAML_LD_LIBRARY_PATH='/home/gm/Travail/github/ocaml/ocaml-large-pages-experiment/real_perfs/repo-page-table-vas-pt/_opam/lib/stublibs:/home/gm/Travail/github/ocaml/ocaml-large-pages-experiment/real_perfs/repo-page-table-vas-pt/_opam/lib/ocaml/stublibs:/home/gm/Travail/github/ocaml/ocaml-large-pages-experiment/real_perfs/repo-page-table-vas-pt/_opam/lib/ocaml'; export CAML_LD_LIBRARY_PATH; OCAML_TOPLEVEL_PATH='/home/gm/Travail/github/ocaml/ocaml-large-pages-experiment/real_perfs/repo-page-table-vas-pt/_opam/lib/toplevel'; export OCAML_TOPLEVEL_PATH; PKG_CONFIG_PATH='/home/gm/Travail/github/ocaml/ocaml-large-pages-experiment/real_perfs/repo-page-table-vas-pt/_opam/lib/pkgconfig'; export PKG_CONFIG_PATH; MANPATH=':/home/gm/Travail/github/ocaml/ocaml-large-pages-experiment/real_perfs/repo-page-table-vas-pt/_opam/man'; export MANPATH; PATH='/home/gm/Travail/github/ocaml/ocaml-large-pages-experiment/real_perfs/repo-page-table-vas-pt/_opam/bin:/home/gm/.cargo/bin:/home/gm/.local/bin:/usr/lib/ccache:/usr/local/sbin:/usr/local/bin:/usr/sbin:/usr/bin:/sbin:/bin:/usr/games:/usr/local/games:/snap/bin:/usr/lib/jvm/java-8-oracle/bin:/usr/lib/jvm/java-8-oracle/db/bin:/usr/lib/jvm/java-8-oracle/jre/bin'; export PATH;
+ OPAMSWITCH=/home/gm/Travail/github/ocaml/ocaml-large-pages-experiment/real_perfs/repo-page-table-vas-pt
+ export OPAMSWITCH
+ OPAM_SWITCH_PREFIX=/home/gm/Travail/github/ocaml/ocaml-large-pages-experiment/real_perfs/repo-page-table-vas-pt/_opam
+ export OPAM_SWITCH_PREFIX
+ CAML_LD_LIBRARY_PATH=/home/gm/Travail/github/ocaml/ocaml-large-pages-experiment/real_perfs/repo-page-table-vas-pt/_opam/lib/stublibs:/home/gm/Travail/github/ocaml/ocaml-large-pages-experiment/real_perfs/repo-page-table-vas-pt/_opam/lib/ocaml/stublibs:/home/gm/Travail/github/ocaml/ocaml-large-pages-experiment/real_perfs/repo-page-table-vas-pt/_opam/lib/ocaml
+ export CAML_LD_LIBRARY_PATH
+ OCAML_TOPLEVEL_PATH=/home/gm/Travail/github/ocaml/ocaml-large-pages-experiment/real_perfs/repo-page-table-vas-pt/_opam/lib/toplevel
+ export OCAML_TOPLEVEL_PATH
+ PKG_CONFIG_PATH=/home/gm/Travail/github/ocaml/ocaml-large-pages-experiment/real_perfs/repo-page-table-vas-pt/_opam/lib/pkgconfig
+ export PKG_CONFIG_PATH
+ MANPATH=:/home/gm/Travail/github/ocaml/ocaml-large-pages-experiment/real_perfs/repo-page-table-vas-pt/_opam/man
+ export MANPATH
+ PATH=/home/gm/Travail/github/ocaml/ocaml-large-pages-experiment/real_perfs/repo-page-table-vas-pt/_opam/bin:/home/gm/.cargo/bin:/home/gm/.local/bin:/usr/lib/ccache:/usr/local/sbin:/usr/local/bin:/usr/sbin:/usr/bin:/sbin:/bin:/usr/games:/usr/local/games:/snap/bin:/usr/lib/jvm/java-8-oracle/bin:/usr/lib/jvm/java-8-oracle/db/bin:/usr/lib/jvm/java-8-oracle/jre/bin
+ export PATH
+ opam list
# Packages matching: installed
# Name                 # Installed # Synopsis
base-bigarray          base
base-threads           base
base-unix              base
cairo2                 0.6.2       Binding to Cairo, a 2D Vector Graphics Library
conf-cairo             1           Virtual package relying on a Cairo system installation
conf-findutils         1           Virtual package relying on findutils
conf-gmp               3           Virtual package relying on a GMP lib system installation
conf-gtk3              18          Virtual package relying on GTK+ 3
conf-gtksourceview3    0+2         Virtual package relying on a GtkSourceView-3 system installation
conf-pkg-config        2           Check if pkg-config is installed and create an opam switch local pkgconfig folder
conf-python-3          1.0.0       Virtual package relying on Python-3 installation
coq                    dev         pinned to version dev at git+https://github.com/gadmm/coq.git#nnp
coq-core               dev         pinned to version dev at git+https://github.com/gadmm/coq.git#nnp
coq-mathcomp-algebra   1.12.0      Mathematical Components Library on Algebra
coq-mathcomp-character 1.12.0      Mathematical Components Library on character theory
coq-mathcomp-field     1.12.0      Mathematical Components Library on Fields
coq-mathcomp-fingroup  1.12.0      Mathematical Components Library on finite groups
coq-mathcomp-odd-order 1.12.0      The formal proof of the Feit-Thompson theorem
coq-mathcomp-solvable  1.12.0      Mathematical Components Library on finite groups (II)
coq-mathcomp-ssreflect 1.12.0      Small Scale Reflection
coq-stdlib             dev         pinned to version dev at git+https://github.com/gadmm/coq.git#nnp
coqide                 dev         pinned to version dev at git+https://github.com/gadmm/coq.git#nnp
coqide-server          dev         pinned to version dev at git+https://github.com/gadmm/coq.git#nnp
csexp                  1.5.1       Parsing and printing of S-expressions in Canonical form
dune                   2.9.0       Fast, portable, and opinionated build system
dune-configurator      2.9.0       Helper library for gathering system configuration
lablgtk3               3.1.1       OCaml interface to GTK+3
lablgtk3-sourceview3   3.1.1       OCaml interface to GTK+ gtksourceview library
ocaml                  4.12.0      The OCaml compiler (virtual package)
ocaml-config           2           OCaml Switch Configuration
ocaml-variants         4.12.0      pinned to version 4.12.0 at git+file:///home/gm/Travail/github/ocaml#page-table-412-stats
ocamlfind              1.9.1       A library manager for OCaml
result                 1.5         Compatibility Result module
zarith                 1.12        Implements arithmetic and logical operations over arbitrary-precision integers
+ opam remove -y coq num zarith
[NOTE] num is not installed.

The following actions will be performed:
  ⊘ remove coqide                 dev*   [uses coqide-server]
  ⊘ remove coq-mathcomp-odd-order 1.12.0 [uses coq-mathcomp-ssreflect]
  ⊘ remove coqide-server          dev*   [uses coq-core]
  ⊘ remove coq-mathcomp-character 1.12.0 [uses coq-mathcomp-field]
  ⊘ remove coq-mathcomp-field     1.12.0 [uses coq-mathcomp-solvable]
  ⊘ remove coq-mathcomp-solvable  1.12.0 [uses coq-mathcomp-algebra]
  ⊘ remove coq-mathcomp-algebra   1.12.0 [uses coq-mathcomp-fingroup]
  ⊘ remove coq-mathcomp-fingroup  1.12.0 [uses coq-mathcomp-ssreflect]
  ⊘ remove coq-mathcomp-ssreflect 1.12.0 [uses coq]
  ⊘ remove coq                    dev*
  ⊘ remove coq-stdlib             dev*   [uses coq-core]
  ⊘ remove coq-core               dev*   [uses zarith]
  ⊘ remove zarith                 1.12
===== ⊘ 13 =====

<><> Processing actions <><><><><><><><><><><><><><><><><><><><><><><><><><><><>
⊘ removed   coq-mathcomp-odd-order.1.12.0
⊘ removed   coq-mathcomp-character.1.12.0
⊘ removed   coq-mathcomp-field.1.12.0
⊘ removed   coq-mathcomp-solvable.1.12.0
⊘ removed   coq-mathcomp-algebra.1.12.0
⊘ removed   coq-mathcomp-fingroup.1.12.0
⊘ removed   coq-mathcomp-ssreflect.1.12.0
⊘ removed   coq.dev
⊘ removed   coq-stdlib.dev
⊘ removed   coqide.dev
⊘ removed   coqide-server.dev
⊘ removed   coq-core.dev
⊘ removed   zarith.1.12
Done.
+ rm -rf _opam/lib/zarith
+ rm -rf _opam/lib/stublibs/dllzarith.so*
+ true
+ c=reinstall
+ opam reinstall -y ocaml-variants zarith lablgtk3-sourceview3 dune

<><> Synchronising pinned packages ><><><><><><><><><><><><><><><><><><><><><><>
[ocaml-variants.4.12.0] no changes from git+file:///home/gm/Travail/github/ocaml#page-table-412-stats

zarith is not installed. Install it? [Y/n] y
The following actions will be performed:
  ↻ recompile ocaml-variants       4.12.0*
  ↻ recompile ocaml-config         2       [uses ocaml-variants]
  ↻ recompile ocaml                4.12.0  [uses ocaml-variants]
  ↻ recompile ocamlfind            1.9.1   [uses ocaml]
  ↻ recompile dune                 2.9.0
  ∗ install   zarith               1.12
  ↻ recompile result               1.5     [uses dune]
  ↻ recompile csexp                1.5.1   [uses dune]
  ↻ recompile dune-configurator    2.9.0   [uses dune]
  ↻ recompile cairo2               0.6.2   [uses dune]
  ↻ recompile lablgtk3             3.1.1   [uses dune]
  ↻ recompile lablgtk3-sourceview3 3.1.1
===== ∗ 1   ↻ 11 =====

<><> Gathering sources ><><><><><><><><><><><><><><><><><><><><><><><><><><><><>
[cairo2.0.6.2] found in cache
[csexp.1.5.1] found in cache
[dune.2.9.0] found in cache
[dune-configurator.2.9.0] found in cache
[lablgtk3.3.1.1] found in cache
[lablgtk3-sourceview3.3.1.1] found in cache
[ocamlfind.1.9.1] found in cache
[result.1.5] found in cache
[zarith.1.12] found in cache

<><> Processing actions <><><><><><><><><><><><><><><><><><><><><><><><><><><><>
⊘ removed   lablgtk3-sourceview3.3.1.1
⊘ removed   lablgtk3.3.1.1
⊘ removed   cairo2.0.6.2
⊘ removed   dune-configurator.2.9.0
⊘ removed   csexp.1.5.1
⊘ removed   ocamlfind.1.9.1
⊘ removed   result.1.5
⊘ removed   dune.2.9.0
⊘ removed   ocaml.4.12.0
⊘ removed   ocaml-config.2
⊘ removed   ocaml-variants.4.12.0
∗ installed ocaml-variants.4.12.0
∗ installed ocaml-config.2
∗ installed ocaml.4.12.0
∗ installed ocamlfind.1.9.1
∗ installed zarith.1.12
∗ installed dune.2.9.0
∗ installed csexp.1.5.1
∗ installed result.1.5
∗ installed dune-configurator.2.9.0
∗ installed cairo2.0.6.2
∗ installed lablgtk3.3.1.1
∗ installed lablgtk3-sourceview3.3.1.1
Done.
+ rm /tmp/ocaml-stats-page-table-vas-pt.log
+ cd ..
+ cd repo-page-table-vas-pt-alt
+ opam env --switch=. --set-switch
+ eval OPAMSWITCH='/home/gm/Travail/github/ocaml/ocaml-large-pages-experiment/real_perfs/repo-page-table-vas-pt-alt'; export OPAMSWITCH; OPAM_SWITCH_PREFIX='/home/gm/Travail/github/ocaml/ocaml-large-pages-experiment/real_perfs/repo-page-table-vas-pt-alt/_opam'; export OPAM_SWITCH_PREFIX; CAML_LD_LIBRARY_PATH='/home/gm/Travail/github/ocaml/ocaml-large-pages-experiment/real_perfs/repo-page-table-vas-pt-alt/_opam/lib/stublibs:/home/gm/Travail/github/ocaml/ocaml-large-pages-experiment/real_perfs/repo-page-table-vas-pt-alt/_opam/lib/ocaml/stublibs:/home/gm/Travail/github/ocaml/ocaml-large-pages-experiment/real_perfs/repo-page-table-vas-pt-alt/_opam/lib/ocaml'; export CAML_LD_LIBRARY_PATH; OCAML_TOPLEVEL_PATH='/home/gm/Travail/github/ocaml/ocaml-large-pages-experiment/real_perfs/repo-page-table-vas-pt-alt/_opam/lib/toplevel'; export OCAML_TOPLEVEL_PATH; PKG_CONFIG_PATH='/home/gm/Travail/github/ocaml/ocaml-large-pages-experiment/real_perfs/repo-page-table-vas-pt-alt/_opam/lib/pkgconfig'; export PKG_CONFIG_PATH; MANPATH=':/home/gm/Travail/github/ocaml/ocaml-large-pages-experiment/real_perfs/repo-page-table-vas-pt-alt/_opam/man'; export MANPATH; PATH='/home/gm/Travail/github/ocaml/ocaml-large-pages-experiment/real_perfs/repo-page-table-vas-pt-alt/_opam/bin:/home/gm/.cargo/bin:/home/gm/.local/bin:/usr/lib/ccache:/usr/local/sbin:/usr/local/bin:/usr/sbin:/usr/bin:/sbin:/bin:/usr/games:/usr/local/games:/snap/bin:/usr/lib/jvm/java-8-oracle/bin:/usr/lib/jvm/java-8-oracle/db/bin:/usr/lib/jvm/java-8-oracle/jre/bin'; export PATH;
+ OPAMSWITCH=/home/gm/Travail/github/ocaml/ocaml-large-pages-experiment/real_perfs/repo-page-table-vas-pt-alt
+ export OPAMSWITCH
+ OPAM_SWITCH_PREFIX=/home/gm/Travail/github/ocaml/ocaml-large-pages-experiment/real_perfs/repo-page-table-vas-pt-alt/_opam
+ export OPAM_SWITCH_PREFIX
+ CAML_LD_LIBRARY_PATH=/home/gm/Travail/github/ocaml/ocaml-large-pages-experiment/real_perfs/repo-page-table-vas-pt-alt/_opam/lib/stublibs:/home/gm/Travail/github/ocaml/ocaml-large-pages-experiment/real_perfs/repo-page-table-vas-pt-alt/_opam/lib/ocaml/stublibs:/home/gm/Travail/github/ocaml/ocaml-large-pages-experiment/real_perfs/repo-page-table-vas-pt-alt/_opam/lib/ocaml
+ export CAML_LD_LIBRARY_PATH
+ OCAML_TOPLEVEL_PATH=/home/gm/Travail/github/ocaml/ocaml-large-pages-experiment/real_perfs/repo-page-table-vas-pt-alt/_opam/lib/toplevel
+ export OCAML_TOPLEVEL_PATH
+ PKG_CONFIG_PATH=/home/gm/Travail/github/ocaml/ocaml-large-pages-experiment/real_perfs/repo-page-table-vas-pt-alt/_opam/lib/pkgconfig
+ export PKG_CONFIG_PATH
+ MANPATH=:/home/gm/Travail/github/ocaml/ocaml-large-pages-experiment/real_perfs/repo-page-table-vas-pt-alt/_opam/man
+ export MANPATH
+ PATH=/home/gm/Travail/github/ocaml/ocaml-large-pages-experiment/real_perfs/repo-page-table-vas-pt-alt/_opam/bin:/home/gm/.cargo/bin:/home/gm/.local/bin:/usr/lib/ccache:/usr/local/sbin:/usr/local/bin:/usr/sbin:/usr/bin:/sbin:/bin:/usr/games:/usr/local/games:/snap/bin:/usr/lib/jvm/java-8-oracle/bin:/usr/lib/jvm/java-8-oracle/db/bin:/usr/lib/jvm/java-8-oracle/jre/bin
+ export PATH
+ opam list
# Packages matching: installed
# Name                 # Installed # Synopsis
base-bigarray          base
base-threads           base
base-unix              base
cairo2                 0.6.2       Binding to Cairo, a 2D Vector Graphics Library
conf-cairo             1           Virtual package relying on a Cairo system installation
conf-gmp               3           Virtual package relying on a GMP lib system installation
conf-gtk3              18          Virtual package relying on GTK+ 3
conf-gtksourceview3    0+2         Virtual package relying on a GtkSourceView-3 system installation
conf-pkg-config        2           Check if pkg-config is installed and create an opam switch local pkgconfig folder
coq                    dev         pinned to version dev at git+https://github.com/gadmm/coq.git#nnp
coq-core               dev         pinned to version dev at git+https://github.com/gadmm/coq.git#nnp
coq-mathcomp-algebra   1.12.0      Mathematical Components Library on Algebra
coq-mathcomp-character 1.12.0      Mathematical Components Library on character theory
coq-mathcomp-field     1.12.0      Mathematical Components Library on Fields
coq-mathcomp-fingroup  1.12.0      Mathematical Components Library on finite groups
coq-mathcomp-odd-order 1.12.0      The formal proof of the Feit-Thompson theorem
coq-mathcomp-solvable  1.12.0      Mathematical Components Library on finite groups (II)
coq-mathcomp-ssreflect 1.12.0      Small Scale Reflection
coq-stdlib             dev         pinned to version dev at git+https://github.com/gadmm/coq.git#nnp
coqide                 dev         pinned to version dev at git+https://github.com/gadmm/coq.git#nnp
coqide-server          dev         pinned to version dev at git+https://github.com/gadmm/coq.git#nnp
csexp                  1.5.1       Parsing and printing of S-expressions in Canonical form
dune                   2.9.0       Fast, portable, and opinionated build system
dune-configurator      2.9.0       Helper library for gathering system configuration
lablgtk3               3.1.1       OCaml interface to GTK+3
lablgtk3-sourceview3   3.1.1       OCaml interface to GTK+ gtksourceview library
ocaml                  4.12.0      The OCaml compiler (virtual package)
ocaml-config           2           OCaml Switch Configuration
ocaml-variants         4.12.0      pinned to version 4.12.0 at git+file:///home/gm/Travail/github/ocaml#page-table-412-stats-alt
ocamlfind              1.9.1       A library manager for OCaml
result                 1.5         Compatibility Result module
zarith                 1.12        Implements arithmetic and logical operations over arbitrary-precision integers
+ opam remove -y coq num zarith
[NOTE] num is not installed.

The following actions will be performed:
  ⊘ remove coqide                 dev*   [uses coqide-server]
  ⊘ remove coq-mathcomp-odd-order 1.12.0 [uses coq-mathcomp-ssreflect]
  ⊘ remove coqide-server          dev*   [uses coq-core]
  ⊘ remove coq-mathcomp-character 1.12.0 [uses coq-mathcomp-field]
  ⊘ remove coq-mathcomp-field     1.12.0 [uses coq-mathcomp-solvable]
  ⊘ remove coq-mathcomp-solvable  1.12.0 [uses coq-mathcomp-algebra]
  ⊘ remove coq-mathcomp-algebra   1.12.0 [uses coq-mathcomp-fingroup]
  ⊘ remove coq-mathcomp-fingroup  1.12.0 [uses coq-mathcomp-ssreflect]
  ⊘ remove coq-mathcomp-ssreflect 1.12.0 [uses coq]
  ⊘ remove coq                    dev*
  ⊘ remove coq-stdlib             dev*   [uses coq-core]
  ⊘ remove coq-core               dev*   [uses zarith]
  ⊘ remove zarith                 1.12
===== ⊘ 13 =====

<><> Processing actions <><><><><><><><><><><><><><><><><><><><><><><><><><><><>
⊘ removed   coq-mathcomp-odd-order.1.12.0
⊘ removed   coq-mathcomp-character.1.12.0
⊘ removed   coq-mathcomp-field.1.12.0
⊘ removed   coq-mathcomp-solvable.1.12.0
⊘ removed   coq-mathcomp-algebra.1.12.0
⊘ removed   coq-mathcomp-fingroup.1.12.0
⊘ removed   coq-mathcomp-ssreflect.1.12.0
⊘ removed   coq.dev
⊘ removed   coq-stdlib.dev
⊘ removed   coqide.dev
⊘ removed   coqide-server.dev
⊘ removed   coq-core.dev
⊘ removed   zarith.1.12
Done.
+ rm -rf _opam/lib/zarith
+ rm -rf _opam/lib/stublibs/dllzarith.so*
+ true
+ c=reinstall
+ opam reinstall -y ocaml-variants zarith lablgtk3-sourceview3 dune

<><> Synchronising pinned packages ><><><><><><><><><><><><><><><><><><><><><><>
[ocaml-variants.4.12.0] synchronised from git+file:///home/gm/Travail/github/ocaml#page-table-412-stats-alt

zarith is not installed. Install it? [Y/n] y
The following actions will be performed:
  ↻ recompile ocaml-variants       4.12.0*
  ↻ recompile ocaml-config         2       [uses ocaml-variants]
  ↻ recompile ocaml                4.12.0  [uses ocaml-variants]
  ↻ recompile ocamlfind            1.9.1   [uses ocaml]
  ↻ recompile dune                 2.9.0
  ∗ install   zarith               1.12
  ↻ recompile result               1.5     [uses dune]
  ↻ recompile csexp                1.5.1   [uses dune]
  ↻ recompile dune-configurator    2.9.0   [uses dune]
  ↻ recompile cairo2               0.6.2   [uses dune]
  ↻ recompile lablgtk3             3.1.1   [uses dune]
  ↻ recompile lablgtk3-sourceview3 3.1.1
===== ∗ 1   ↻ 11 =====

<><> Gathering sources ><><><><><><><><><><><><><><><><><><><><><><><><><><><><>
[cairo2.0.6.2] found in cache
[csexp.1.5.1] found in cache
[dune.2.9.0] found in cache
[dune-configurator.2.9.0] found in cache
[lablgtk3.3.1.1] found in cache
[lablgtk3-sourceview3.3.1.1] found in cache
[ocamlfind.1.9.1] found in cache
[result.1.5] found in cache
[zarith.1.12] found in cache

<><> Processing actions <><><><><><><><><><><><><><><><><><><><><><><><><><><><>
⊘ removed   lablgtk3-sourceview3.3.1.1
⊘ removed   lablgtk3.3.1.1
⊘ removed   cairo2.0.6.2
⊘ removed   dune-configurator.2.9.0
⊘ removed   csexp.1.5.1
⊘ removed   ocamlfind.1.9.1
⊘ removed   result.1.5
⊘ removed   dune.2.9.0
⊘ removed   ocaml.4.12.0
⊘ removed   ocaml-config.2
⊘ removed   ocaml-variants.4.12.0
∗ installed ocaml-variants.4.12.0
∗ installed ocaml-config.2
∗ installed ocaml.4.12.0
∗ installed ocamlfind.1.9.1
∗ installed zarith.1.12
∗ installed dune.2.9.0
∗ installed csexp.1.5.1
∗ installed result.1.5
∗ installed dune-configurator.2.9.0
∗ installed cairo2.0.6.2
∗ installed lablgtk3.3.1.1
∗ installed lablgtk3-sourceview3.3.1.1
Done.
+ rm /tmp/ocaml-stats-page-table-vas-pt-alt.log
+ cd ..
+ seq 0 2
+ TRIAL=-0
+ echo Iteration 0
Iteration 0
+ date -R
Tue, 03 Aug 2021 15:14:09 +0200
+ false
+ false
+ false
+ true
+ throttle_control_begin
+ IS_THROTTLED=
+ cpufreqctl --throttle
+ THROTTLE=0
+ cd repo-page-table-vas-pt
+ opam env --switch=. --set-switch
+ eval OPAMSWITCH='/home/gm/Travail/github/ocaml/ocaml-large-pages-experiment/real_perfs/repo-page-table-vas-pt'; export OPAMSWITCH; OPAM_SWITCH_PREFIX='/home/gm/Travail/github/ocaml/ocaml-large-pages-experiment/real_perfs/repo-page-table-vas-pt/_opam'; export OPAM_SWITCH_PREFIX; CAML_LD_LIBRARY_PATH='/home/gm/Travail/github/ocaml/ocaml-large-pages-experiment/real_perfs/repo-page-table-vas-pt/_opam/lib/stublibs:/home/gm/Travail/github/ocaml/ocaml-large-pages-experiment/real_perfs/repo-page-table-vas-pt/_opam/lib/ocaml/stublibs:/home/gm/Travail/github/ocaml/ocaml-large-pages-experiment/real_perfs/repo-page-table-vas-pt/_opam/lib/ocaml'; export CAML_LD_LIBRARY_PATH; OCAML_TOPLEVEL_PATH='/home/gm/Travail/github/ocaml/ocaml-large-pages-experiment/real_perfs/repo-page-table-vas-pt/_opam/lib/toplevel'; export OCAML_TOPLEVEL_PATH; PKG_CONFIG_PATH='/home/gm/Travail/github/ocaml/ocaml-large-pages-experiment/real_perfs/repo-page-table-vas-pt/_opam/lib/pkgconfig'; export PKG_CONFIG_PATH; MANPATH=':/home/gm/Travail/github/ocaml/ocaml-large-pages-experiment/real_perfs/repo-page-table-vas-pt/_opam/man'; export MANPATH; PATH='/home/gm/Travail/github/ocaml/ocaml-large-pages-experiment/real_perfs/repo-page-table-vas-pt/_opam/bin:/home/gm/.cargo/bin:/home/gm/.local/bin:/usr/lib/ccache:/usr/local/sbin:/usr/local/bin:/usr/sbin:/usr/bin:/sbin:/bin:/usr/games:/usr/local/games:/snap/bin:/usr/lib/jvm/java-8-oracle/bin:/usr/lib/jvm/java-8-oracle/db/bin:/usr/lib/jvm/java-8-oracle/jre/bin'; export PATH;
+ OPAMSWITCH=/home/gm/Travail/github/ocaml/ocaml-large-pages-experiment/real_perfs/repo-page-table-vas-pt
+ export OPAMSWITCH
+ OPAM_SWITCH_PREFIX=/home/gm/Travail/github/ocaml/ocaml-large-pages-experiment/real_perfs/repo-page-table-vas-pt/_opam
+ export OPAM_SWITCH_PREFIX
+ CAML_LD_LIBRARY_PATH=/home/gm/Travail/github/ocaml/ocaml-large-pages-experiment/real_perfs/repo-page-table-vas-pt/_opam/lib/stublibs:/home/gm/Travail/github/ocaml/ocaml-large-pages-experiment/real_perfs/repo-page-table-vas-pt/_opam/lib/ocaml/stublibs:/home/gm/Travail/github/ocaml/ocaml-large-pages-experiment/real_perfs/repo-page-table-vas-pt/_opam/lib/ocaml
+ export CAML_LD_LIBRARY_PATH
+ OCAML_TOPLEVEL_PATH=/home/gm/Travail/github/ocaml/ocaml-large-pages-experiment/real_perfs/repo-page-table-vas-pt/_opam/lib/toplevel
+ export OCAML_TOPLEVEL_PATH
+ PKG_CONFIG_PATH=/home/gm/Travail/github/ocaml/ocaml-large-pages-experiment/real_perfs/repo-page-table-vas-pt/_opam/lib/pkgconfig
+ export PKG_CONFIG_PATH
+ MANPATH=:/home/gm/Travail/github/ocaml/ocaml-large-pages-experiment/real_perfs/repo-page-table-vas-pt/_opam/man
+ export MANPATH
+ PATH=/home/gm/Travail/github/ocaml/ocaml-large-pages-experiment/real_perfs/repo-page-table-vas-pt/_opam/bin:/home/gm/.cargo/bin:/home/gm/.local/bin:/usr/lib/ccache:/usr/local/sbin:/usr/local/bin:/usr/sbin:/usr/bin:/sbin:/bin:/usr/games:/usr/local/games:/snap/bin:/usr/lib/jvm/java-8-oracle/bin:/usr/lib/jvm/java-8-oracle/db/bin:/usr/lib/jvm/java-8-oracle/jre/bin
+ export PATH
+ opam list
# Packages matching: installed
# Name               # Installed # Synopsis
base-bigarray        base
base-threads         base
base-unix            base
cairo2               0.6.2       Binding to Cairo, a 2D Vector Graphics Library
conf-cairo           1           Virtual package relying on a Cairo system installation
conf-findutils       1           Virtual package relying on findutils
conf-gmp             3           Virtual package relying on a GMP lib system installation
conf-gtk3            18          Virtual package relying on GTK+ 3
conf-gtksourceview3  0+2         Virtual package relying on a GtkSourceView-3 system installation
conf-pkg-config      2           Check if pkg-config is installed and create an opam switch local pkgconfig folder
conf-python-3        1.0.0       Virtual package relying on Python-3 installation
csexp                1.5.1       Parsing and printing of S-expressions in Canonical form
dune                 2.9.0       Fast, portable, and opinionated build system
dune-configurator    2.9.0       Helper library for gathering system configuration
lablgtk3             3.1.1       OCaml interface to GTK+3
lablgtk3-sourceview3 3.1.1       OCaml interface to GTK+ gtksourceview library
ocaml                4.12.0      The OCaml compiler (virtual package)
ocaml-config         2           OCaml Switch Configuration
ocaml-variants       4.12.0      pinned to version 4.12.0 at git+file:///home/gm/Travail/github/ocaml#page-table-412-stats
ocamlfind            1.9.1       A library manager for OCaml
result               1.5         Compatibility Result module
zarith               1.12        Implements arithmetic and logical operations over arbitrary-precision integers
+ false
+ c=install
+ time opam install --skip-updates -j 2 -y coq coq-core coqide coqide-server coq-stdlib
The following actions will be performed:
  ∗ install coq-core      dev*
  ∗ install coqide-server dev*
  ∗ install coq-stdlib    dev*
  ∗ install coqide        dev*
  ∗ install coq           dev*
===== ∗ 5 =====

<><> Processing actions <><><><><><><><><><><><><><><><><><><><><><><><><><><><>
∗ installed coq-core.dev
∗ installed coqide-server.dev
∗ installed coqide.dev
∗ installed coq-stdlib.dev
∗ installed coq.dev
Done.
587.53user 228.54system 8:07.62elapsed 167%CPU (0avgtext+0avgdata 608424maxresident)k
478936inputs+4174000outputs (212major+54514125minor)pagefaults 0swaps
+ throttle_control_end
+ cpufreqctl --throttle
+ [ 0 -eq 0 ]
+ IS_THROTTLED=
+ mv /tmp/ocaml-stats-page-table-vas-pt.log coq-opam.log.44-0
+ cd ..
+ throttle_control_begin
+ IS_THROTTLED=
+ cpufreqctl --throttle
+ THROTTLE=0
+ cd repo-page-table-vas-pt-alt
+ opam env --switch=. --set-switch
+ eval OPAMSWITCH='/home/gm/Travail/github/ocaml/ocaml-large-pages-experiment/real_perfs/repo-page-table-vas-pt-alt'; export OPAMSWITCH; OPAM_SWITCH_PREFIX='/home/gm/Travail/github/ocaml/ocaml-large-pages-experiment/real_perfs/repo-page-table-vas-pt-alt/_opam'; export OPAM_SWITCH_PREFIX; CAML_LD_LIBRARY_PATH='/home/gm/Travail/github/ocaml/ocaml-large-pages-experiment/real_perfs/repo-page-table-vas-pt-alt/_opam/lib/stublibs:/home/gm/Travail/github/ocaml/ocaml-large-pages-experiment/real_perfs/repo-page-table-vas-pt-alt/_opam/lib/ocaml/stublibs:/home/gm/Travail/github/ocaml/ocaml-large-pages-experiment/real_perfs/repo-page-table-vas-pt-alt/_opam/lib/ocaml'; export CAML_LD_LIBRARY_PATH; OCAML_TOPLEVEL_PATH='/home/gm/Travail/github/ocaml/ocaml-large-pages-experiment/real_perfs/repo-page-table-vas-pt-alt/_opam/lib/toplevel'; export OCAML_TOPLEVEL_PATH; PKG_CONFIG_PATH='/home/gm/Travail/github/ocaml/ocaml-large-pages-experiment/real_perfs/repo-page-table-vas-pt-alt/_opam/lib/pkgconfig'; export PKG_CONFIG_PATH; MANPATH=':/home/gm/Travail/github/ocaml/ocaml-large-pages-experiment/real_perfs/repo-page-table-vas-pt-alt/_opam/man'; export MANPATH; PATH='/home/gm/Travail/github/ocaml/ocaml-large-pages-experiment/real_perfs/repo-page-table-vas-pt-alt/_opam/bin:/home/gm/.cargo/bin:/home/gm/.local/bin:/usr/lib/ccache:/usr/local/sbin:/usr/local/bin:/usr/sbin:/usr/bin:/sbin:/bin:/usr/games:/usr/local/games:/snap/bin:/usr/lib/jvm/java-8-oracle/bin:/usr/lib/jvm/java-8-oracle/db/bin:/usr/lib/jvm/java-8-oracle/jre/bin'; export PATH;
+ OPAMSWITCH=/home/gm/Travail/github/ocaml/ocaml-large-pages-experiment/real_perfs/repo-page-table-vas-pt-alt
+ export OPAMSWITCH
+ OPAM_SWITCH_PREFIX=/home/gm/Travail/github/ocaml/ocaml-large-pages-experiment/real_perfs/repo-page-table-vas-pt-alt/_opam
+ export OPAM_SWITCH_PREFIX
+ CAML_LD_LIBRARY_PATH=/home/gm/Travail/github/ocaml/ocaml-large-pages-experiment/real_perfs/repo-page-table-vas-pt-alt/_opam/lib/stublibs:/home/gm/Travail/github/ocaml/ocaml-large-pages-experiment/real_perfs/repo-page-table-vas-pt-alt/_opam/lib/ocaml/stublibs:/home/gm/Travail/github/ocaml/ocaml-large-pages-experiment/real_perfs/repo-page-table-vas-pt-alt/_opam/lib/ocaml
+ export CAML_LD_LIBRARY_PATH
+ OCAML_TOPLEVEL_PATH=/home/gm/Travail/github/ocaml/ocaml-large-pages-experiment/real_perfs/repo-page-table-vas-pt-alt/_opam/lib/toplevel
+ export OCAML_TOPLEVEL_PATH
+ PKG_CONFIG_PATH=/home/gm/Travail/github/ocaml/ocaml-large-pages-experiment/real_perfs/repo-page-table-vas-pt-alt/_opam/lib/pkgconfig
+ export PKG_CONFIG_PATH
+ MANPATH=:/home/gm/Travail/github/ocaml/ocaml-large-pages-experiment/real_perfs/repo-page-table-vas-pt-alt/_opam/man
+ export MANPATH
+ PATH=/home/gm/Travail/github/ocaml/ocaml-large-pages-experiment/real_perfs/repo-page-table-vas-pt-alt/_opam/bin:/home/gm/.cargo/bin:/home/gm/.local/bin:/usr/lib/ccache:/usr/local/sbin:/usr/local/bin:/usr/sbin:/usr/bin:/sbin:/bin:/usr/games:/usr/local/games:/snap/bin:/usr/lib/jvm/java-8-oracle/bin:/usr/lib/jvm/java-8-oracle/db/bin:/usr/lib/jvm/java-8-oracle/jre/bin
+ export PATH
+ opam list
# Packages matching: installed
# Name               # Installed # Synopsis
base-bigarray        base
base-threads         base
base-unix            base
cairo2               0.6.2       Binding to Cairo, a 2D Vector Graphics Library
conf-cairo           1           Virtual package relying on a Cairo system installation
conf-gmp             3           Virtual package relying on a GMP lib system installation
conf-gtk3            18          Virtual package relying on GTK+ 3
conf-gtksourceview3  0+2         Virtual package relying on a GtkSourceView-3 system installation
conf-pkg-config      2           Check if pkg-config is installed and create an opam switch local pkgconfig folder
csexp                1.5.1       Parsing and printing of S-expressions in Canonical form
dune                 2.9.0       Fast, portable, and opinionated build system
dune-configurator    2.9.0       Helper library for gathering system configuration
lablgtk3             3.1.1       OCaml interface to GTK+3
lablgtk3-sourceview3 3.1.1       OCaml interface to GTK+ gtksourceview library
ocaml                4.12.0      The OCaml compiler (virtual package)
ocaml-config         2           OCaml Switch Configuration
ocaml-variants       4.12.0      pinned to version 4.12.0 at git+file:///home/gm/Travail/github/ocaml#page-table-412-stats-alt
ocamlfind            1.9.1       A library manager for OCaml
result               1.5         Compatibility Result module
zarith               1.12        Implements arithmetic and logical operations over arbitrary-precision integers
+ false
+ c=install
+ time opam install --skip-updates -j 2 -y coq coq-core coqide coqide-server coq-stdlib
The following actions will be performed:
  ∗ install coq-core      dev*
  ∗ install coqide-server dev*
  ∗ install coq-stdlib    dev*
  ∗ install coqide        dev*
  ∗ install coq           dev*
===== ∗ 5 =====

<><> Processing actions <><><><><><><><><><><><><><><><><><><><><><><><><><><><>
∗ installed coq-core.dev
∗ installed coqide-server.dev
∗ installed coqide.dev
∗ installed coq-stdlib.dev
∗ installed coq.dev
Done.
589.17user 228.19system 8:07.88elapsed 167%CPU (0avgtext+0avgdata 613684maxresident)k
423560inputs+4176704outputs (1major+54479698minor)pagefaults 0swaps
+ throttle_control_end
+ cpufreqctl --throttle
+ [ 0 -eq 0 ]
+ IS_THROTTLED=
+ mv /tmp/ocaml-stats-page-table-vas-pt-alt.log coq-opam.log.44-0
+ cd ..
+ date -R
Tue, 03 Aug 2021 15:30:25 +0200
+ true
+ throttle_control_begin
+ IS_THROTTLED=
+ cpufreqctl --throttle
+ THROTTLE=0
+ cd repo-page-table-vas-pt
+ opam env --switch=. --set-switch
+ eval OPAMSWITCH='/home/gm/Travail/github/ocaml/ocaml-large-pages-experiment/real_perfs/repo-page-table-vas-pt'; export OPAMSWITCH; OPAM_SWITCH_PREFIX='/home/gm/Travail/github/ocaml/ocaml-large-pages-experiment/real_perfs/repo-page-table-vas-pt/_opam'; export OPAM_SWITCH_PREFIX; CAML_LD_LIBRARY_PATH='/home/gm/Travail/github/ocaml/ocaml-large-pages-experiment/real_perfs/repo-page-table-vas-pt/_opam/lib/stublibs:/home/gm/Travail/github/ocaml/ocaml-large-pages-experiment/real_perfs/repo-page-table-vas-pt/_opam/lib/ocaml/stublibs:/home/gm/Travail/github/ocaml/ocaml-large-pages-experiment/real_perfs/repo-page-table-vas-pt/_opam/lib/ocaml'; export CAML_LD_LIBRARY_PATH; OCAML_TOPLEVEL_PATH='/home/gm/Travail/github/ocaml/ocaml-large-pages-experiment/real_perfs/repo-page-table-vas-pt/_opam/lib/toplevel'; export OCAML_TOPLEVEL_PATH; PKG_CONFIG_PATH='/home/gm/Travail/github/ocaml/ocaml-large-pages-experiment/real_perfs/repo-page-table-vas-pt/_opam/lib/pkgconfig'; export PKG_CONFIG_PATH; MANPATH=':/home/gm/Travail/github/ocaml/ocaml-large-pages-experiment/real_perfs/repo-page-table-vas-pt/_opam/man'; export MANPATH; PATH='/home/gm/Travail/github/ocaml/ocaml-large-pages-experiment/real_perfs/repo-page-table-vas-pt/_opam/bin:/home/gm/.cargo/bin:/home/gm/.local/bin:/usr/lib/ccache:/usr/local/sbin:/usr/local/bin:/usr/sbin:/usr/bin:/sbin:/bin:/usr/games:/usr/local/games:/snap/bin:/usr/lib/jvm/java-8-oracle/bin:/usr/lib/jvm/java-8-oracle/db/bin:/usr/lib/jvm/java-8-oracle/jre/bin'; export PATH;
+ OPAMSWITCH=/home/gm/Travail/github/ocaml/ocaml-large-pages-experiment/real_perfs/repo-page-table-vas-pt
+ export OPAMSWITCH
+ OPAM_SWITCH_PREFIX=/home/gm/Travail/github/ocaml/ocaml-large-pages-experiment/real_perfs/repo-page-table-vas-pt/_opam
+ export OPAM_SWITCH_PREFIX
+ CAML_LD_LIBRARY_PATH=/home/gm/Travail/github/ocaml/ocaml-large-pages-experiment/real_perfs/repo-page-table-vas-pt/_opam/lib/stublibs:/home/gm/Travail/github/ocaml/ocaml-large-pages-experiment/real_perfs/repo-page-table-vas-pt/_opam/lib/ocaml/stublibs:/home/gm/Travail/github/ocaml/ocaml-large-pages-experiment/real_perfs/repo-page-table-vas-pt/_opam/lib/ocaml
+ export CAML_LD_LIBRARY_PATH
+ OCAML_TOPLEVEL_PATH=/home/gm/Travail/github/ocaml/ocaml-large-pages-experiment/real_perfs/repo-page-table-vas-pt/_opam/lib/toplevel
+ export OCAML_TOPLEVEL_PATH
+ PKG_CONFIG_PATH=/home/gm/Travail/github/ocaml/ocaml-large-pages-experiment/real_perfs/repo-page-table-vas-pt/_opam/lib/pkgconfig
+ export PKG_CONFIG_PATH
+ MANPATH=:/home/gm/Travail/github/ocaml/ocaml-large-pages-experiment/real_perfs/repo-page-table-vas-pt/_opam/man
+ export MANPATH
+ PATH=/home/gm/Travail/github/ocaml/ocaml-large-pages-experiment/real_perfs/repo-page-table-vas-pt/_opam/bin:/home/gm/.cargo/bin:/home/gm/.local/bin:/usr/lib/ccache:/usr/local/sbin:/usr/local/bin:/usr/sbin:/usr/bin:/sbin:/bin:/usr/games:/usr/local/games:/snap/bin:/usr/lib/jvm/java-8-oracle/bin:/usr/lib/jvm/java-8-oracle/db/bin:/usr/lib/jvm/java-8-oracle/jre/bin
+ export PATH
+ opam list
# Packages matching: installed
# Name               # Installed # Synopsis
base-bigarray        base
base-threads         base
base-unix            base
cairo2               0.6.2       Binding to Cairo, a 2D Vector Graphics Library
conf-cairo           1           Virtual package relying on a Cairo system installation
conf-findutils       1           Virtual package relying on findutils
conf-gmp             3           Virtual package relying on a GMP lib system installation
conf-gtk3            18          Virtual package relying on GTK+ 3
conf-gtksourceview3  0+2         Virtual package relying on a GtkSourceView-3 system installation
conf-pkg-config      2           Check if pkg-config is installed and create an opam switch local pkgconfig folder
conf-python-3        1.0.0       Virtual package relying on Python-3 installation
coq                  dev         pinned to version dev at git+https://github.com/gadmm/coq.git#nnp
coq-core             dev         pinned to version dev at git+https://github.com/gadmm/coq.git#nnp
coq-stdlib           dev         pinned to version dev at git+https://github.com/gadmm/coq.git#nnp
coqide               dev         pinned to version dev at git+https://github.com/gadmm/coq.git#nnp
coqide-server        dev         pinned to version dev at git+https://github.com/gadmm/coq.git#nnp
csexp                1.5.1       Parsing and printing of S-expressions in Canonical form
dune                 2.9.0       Fast, portable, and opinionated build system
dune-configurator    2.9.0       Helper library for gathering system configuration
lablgtk3             3.1.1       OCaml interface to GTK+3
lablgtk3-sourceview3 3.1.1       OCaml interface to GTK+ gtksourceview library
ocaml                4.12.0      The OCaml compiler (virtual package)
ocaml-config         2           OCaml Switch Configuration
ocaml-variants       4.12.0      pinned to version 4.12.0 at git+file:///home/gm/Travail/github/ocaml#page-table-412-stats
ocamlfind            1.9.1       A library manager for OCaml
result               1.5         Compatibility Result module
zarith               1.12        Implements arithmetic and logical operations over arbitrary-precision integers
+ opam remove -y coq-mathcomp-odd-order
[NOTE] coq-mathcomp-odd-order is not installed.

Nothing to do.
+ time opam reinstall --skip-updates -j 2 -y coq-mathcomp-character coq-mathcomp-field coq-mathcomp-solvable coq-mathcomp-algebra coq-mathcomp-fingroup coq-mathcomp-ssreflect
coq-mathcomp-character, coq-mathcomp-field, coq-mathcomp-solvable, coq-mathcomp-algebra, coq-mathcomp-fingroup and coq-mathcomp-ssreflect are not installed. Install them? [Y/n] y
The following actions will be performed:
  ∗ install coq-mathcomp-ssreflect 1.12.0
  ∗ install coq-mathcomp-fingroup  1.12.0
  ∗ install coq-mathcomp-algebra   1.12.0
  ∗ install coq-mathcomp-solvable  1.12.0
  ∗ install coq-mathcomp-field     1.12.0
  ∗ install coq-mathcomp-character 1.12.0
===== ∗ 6 =====

<><> Gathering sources ><><><><><><><><><><><><><><><><><><><><><><><><><><><><>
[coq-mathcomp-algebra.1.12.0] found in cache
[coq-mathcomp-character.1.12.0] found in cache
[coq-mathcomp-field.1.12.0] found in cache
[coq-mathcomp-fingroup.1.12.0] found in cache
[coq-mathcomp-solvable.1.12.0] found in cache
[coq-mathcomp-ssreflect.1.12.0] found in cache

<><> Processing actions <><><><><><><><><><><><><><><><><><><><><><><><><><><><>
∗ installed coq-mathcomp-ssreflect.1.12.0
∗ installed coq-mathcomp-fingroup.1.12.0
∗ installed coq-mathcomp-algebra.1.12.0
∗ installed coq-mathcomp-solvable.1.12.0
∗ installed coq-mathcomp-field.1.12.0
∗ installed coq-mathcomp-character.1.12.0
Done.
750.31user 19.78system 9:22.39elapsed 136%CPU (0avgtext+0avgdata 738244maxresident)k
2904inputs+547408outputs (9major+11203783minor)pagefaults 0swaps
+ throttle_control_end
+ cpufreqctl --throttle
+ [ 0 -eq 0 ]
+ IS_THROTTLED=
+ mv /tmp/ocaml-stats-page-table-vas-pt.log coq-mathcomp.log.44-0
+ cd ..
+ throttle_control_begin
+ IS_THROTTLED=
+ cpufreqctl --throttle
+ THROTTLE=0
+ cd repo-page-table-vas-pt-alt
+ opam env --switch=. --set-switch
+ eval OPAMSWITCH='/home/gm/Travail/github/ocaml/ocaml-large-pages-experiment/real_perfs/repo-page-table-vas-pt-alt'; export OPAMSWITCH; OPAM_SWITCH_PREFIX='/home/gm/Travail/github/ocaml/ocaml-large-pages-experiment/real_perfs/repo-page-table-vas-pt-alt/_opam'; export OPAM_SWITCH_PREFIX; CAML_LD_LIBRARY_PATH='/home/gm/Travail/github/ocaml/ocaml-large-pages-experiment/real_perfs/repo-page-table-vas-pt-alt/_opam/lib/stublibs:/home/gm/Travail/github/ocaml/ocaml-large-pages-experiment/real_perfs/repo-page-table-vas-pt-alt/_opam/lib/ocaml/stublibs:/home/gm/Travail/github/ocaml/ocaml-large-pages-experiment/real_perfs/repo-page-table-vas-pt-alt/_opam/lib/ocaml'; export CAML_LD_LIBRARY_PATH; OCAML_TOPLEVEL_PATH='/home/gm/Travail/github/ocaml/ocaml-large-pages-experiment/real_perfs/repo-page-table-vas-pt-alt/_opam/lib/toplevel'; export OCAML_TOPLEVEL_PATH; PKG_CONFIG_PATH='/home/gm/Travail/github/ocaml/ocaml-large-pages-experiment/real_perfs/repo-page-table-vas-pt-alt/_opam/lib/pkgconfig'; export PKG_CONFIG_PATH; MANPATH=':/home/gm/Travail/github/ocaml/ocaml-large-pages-experiment/real_perfs/repo-page-table-vas-pt-alt/_opam/man'; export MANPATH; PATH='/home/gm/Travail/github/ocaml/ocaml-large-pages-experiment/real_perfs/repo-page-table-vas-pt-alt/_opam/bin:/home/gm/.cargo/bin:/home/gm/.local/bin:/usr/lib/ccache:/usr/local/sbin:/usr/local/bin:/usr/sbin:/usr/bin:/sbin:/bin:/usr/games:/usr/local/games:/snap/bin:/usr/lib/jvm/java-8-oracle/bin:/usr/lib/jvm/java-8-oracle/db/bin:/usr/lib/jvm/java-8-oracle/jre/bin'; export PATH;
+ OPAMSWITCH=/home/gm/Travail/github/ocaml/ocaml-large-pages-experiment/real_perfs/repo-page-table-vas-pt-alt
+ export OPAMSWITCH
+ OPAM_SWITCH_PREFIX=/home/gm/Travail/github/ocaml/ocaml-large-pages-experiment/real_perfs/repo-page-table-vas-pt-alt/_opam
+ export OPAM_SWITCH_PREFIX
+ CAML_LD_LIBRARY_PATH=/home/gm/Travail/github/ocaml/ocaml-large-pages-experiment/real_perfs/repo-page-table-vas-pt-alt/_opam/lib/stublibs:/home/gm/Travail/github/ocaml/ocaml-large-pages-experiment/real_perfs/repo-page-table-vas-pt-alt/_opam/lib/ocaml/stublibs:/home/gm/Travail/github/ocaml/ocaml-large-pages-experiment/real_perfs/repo-page-table-vas-pt-alt/_opam/lib/ocaml
+ export CAML_LD_LIBRARY_PATH
+ OCAML_TOPLEVEL_PATH=/home/gm/Travail/github/ocaml/ocaml-large-pages-experiment/real_perfs/repo-page-table-vas-pt-alt/_opam/lib/toplevel
+ export OCAML_TOPLEVEL_PATH
+ PKG_CONFIG_PATH=/home/gm/Travail/github/ocaml/ocaml-large-pages-experiment/real_perfs/repo-page-table-vas-pt-alt/_opam/lib/pkgconfig
+ export PKG_CONFIG_PATH
+ MANPATH=:/home/gm/Travail/github/ocaml/ocaml-large-pages-experiment/real_perfs/repo-page-table-vas-pt-alt/_opam/man
+ export MANPATH
+ PATH=/home/gm/Travail/github/ocaml/ocaml-large-pages-experiment/real_perfs/repo-page-table-vas-pt-alt/_opam/bin:/home/gm/.cargo/bin:/home/gm/.local/bin:/usr/lib/ccache:/usr/local/sbin:/usr/local/bin:/usr/sbin:/usr/bin:/sbin:/bin:/usr/games:/usr/local/games:/snap/bin:/usr/lib/jvm/java-8-oracle/bin:/usr/lib/jvm/java-8-oracle/db/bin:/usr/lib/jvm/java-8-oracle/jre/bin
+ export PATH
+ opam list
# Packages matching: installed
# Name               # Installed # Synopsis
base-bigarray        base
base-threads         base
base-unix            base
cairo2               0.6.2       Binding to Cairo, a 2D Vector Graphics Library
conf-cairo           1           Virtual package relying on a Cairo system installation
conf-gmp             3           Virtual package relying on a GMP lib system installation
conf-gtk3            18          Virtual package relying on GTK+ 3
conf-gtksourceview3  0+2         Virtual package relying on a GtkSourceView-3 system installation
conf-pkg-config      2           Check if pkg-config is installed and create an opam switch local pkgconfig folder
coq                  dev         pinned to version dev at git+https://github.com/gadmm/coq.git#nnp
coq-core             dev         pinned to version dev at git+https://github.com/gadmm/coq.git#nnp
coq-stdlib           dev         pinned to version dev at git+https://github.com/gadmm/coq.git#nnp
coqide               dev         pinned to version dev at git+https://github.com/gadmm/coq.git#nnp
coqide-server        dev         pinned to version dev at git+https://github.com/gadmm/coq.git#nnp
csexp                1.5.1       Parsing and printing of S-expressions in Canonical form
dune                 2.9.0       Fast, portable, and opinionated build system
dune-configurator    2.9.0       Helper library for gathering system configuration
lablgtk3             3.1.1       OCaml interface to GTK+3
lablgtk3-sourceview3 3.1.1       OCaml interface to GTK+ gtksourceview library
ocaml                4.12.0      The OCaml compiler (virtual package)
ocaml-config         2           OCaml Switch Configuration
ocaml-variants       4.12.0      pinned to version 4.12.0 at git+file:///home/gm/Travail/github/ocaml#page-table-412-stats-alt
ocamlfind            1.9.1       A library manager for OCaml
result               1.5         Compatibility Result module
zarith               1.12        Implements arithmetic and logical operations over arbitrary-precision integers
+ opam remove -y coq-mathcomp-odd-order
[NOTE] coq-mathcomp-odd-order is not installed.

Nothing to do.
+ time opam reinstall --skip-updates -j 2 -y coq-mathcomp-character coq-mathcomp-field coq-mathcomp-solvable coq-mathcomp-algebra coq-mathcomp-fingroup coq-mathcomp-ssreflect
coq-mathcomp-character, coq-mathcomp-field, coq-mathcomp-solvable, coq-mathcomp-algebra, coq-mathcomp-fingroup and coq-mathcomp-ssreflect are not installed. Install them? [Y/n] y
The following actions will be performed:
  ∗ install coq-mathcomp-ssreflect 1.12.0
  ∗ install coq-mathcomp-fingroup  1.12.0
  ∗ install coq-mathcomp-algebra   1.12.0
  ∗ install coq-mathcomp-solvable  1.12.0
  ∗ install coq-mathcomp-field     1.12.0
  ∗ install coq-mathcomp-character 1.12.0
===== ∗ 6 =====

<><> Gathering sources ><><><><><><><><><><><><><><><><><><><><><><><><><><><><>
[coq-mathcomp-algebra.1.12.0] found in cache
[coq-mathcomp-character.1.12.0] found in cache
[coq-mathcomp-field.1.12.0] found in cache
[coq-mathcomp-fingroup.1.12.0] found in cache
[coq-mathcomp-solvable.1.12.0] found in cache
[coq-mathcomp-ssreflect.1.12.0] found in cache

<><> Processing actions <><><><><><><><><><><><><><><><><><><><><><><><><><><><>
∗ installed coq-mathcomp-ssreflect.1.12.0
∗ installed coq-mathcomp-fingroup.1.12.0
∗ installed coq-mathcomp-algebra.1.12.0
∗ installed coq-mathcomp-solvable.1.12.0
∗ installed coq-mathcomp-field.1.12.0
∗ installed coq-mathcomp-character.1.12.0
Done.
752.98user 19.23system 9:23.63elapsed 137%CPU (0avgtext+0avgdata 738172maxresident)k
0inputs+547416outputs (0major+11197195minor)pagefaults 0swaps
+ throttle_control_end
+ cpufreqctl --throttle
+ [ 0 -eq 0 ]
+ IS_THROTTLED=
+ mv /tmp/ocaml-stats-page-table-vas-pt-alt.log coq-mathcomp.log.44-0
+ cd ..
+ date -R
Tue, 03 Aug 2021 15:49:15 +0200
+ false
+ TRIAL=-1
+ echo Iteration 1
Iteration 1
+ date -R
Tue, 03 Aug 2021 15:49:15 +0200
+ false
+ false
+ false
+ true
+ throttle_control_begin
+ IS_THROTTLED=
+ cpufreqctl --throttle
+ THROTTLE=0
+ cd repo-page-table-vas-pt
+ opam env --switch=. --set-switch
+ eval OPAMSWITCH='/home/gm/Travail/github/ocaml/ocaml-large-pages-experiment/real_perfs/repo-page-table-vas-pt'; export OPAMSWITCH; OPAM_SWITCH_PREFIX='/home/gm/Travail/github/ocaml/ocaml-large-pages-experiment/real_perfs/repo-page-table-vas-pt/_opam'; export OPAM_SWITCH_PREFIX; CAML_LD_LIBRARY_PATH='/home/gm/Travail/github/ocaml/ocaml-large-pages-experiment/real_perfs/repo-page-table-vas-pt/_opam/lib/stublibs:/home/gm/Travail/github/ocaml/ocaml-large-pages-experiment/real_perfs/repo-page-table-vas-pt/_opam/lib/ocaml/stublibs:/home/gm/Travail/github/ocaml/ocaml-large-pages-experiment/real_perfs/repo-page-table-vas-pt/_opam/lib/ocaml'; export CAML_LD_LIBRARY_PATH; OCAML_TOPLEVEL_PATH='/home/gm/Travail/github/ocaml/ocaml-large-pages-experiment/real_perfs/repo-page-table-vas-pt/_opam/lib/toplevel'; export OCAML_TOPLEVEL_PATH; PKG_CONFIG_PATH='/home/gm/Travail/github/ocaml/ocaml-large-pages-experiment/real_perfs/repo-page-table-vas-pt/_opam/lib/pkgconfig'; export PKG_CONFIG_PATH; MANPATH=':/home/gm/Travail/github/ocaml/ocaml-large-pages-experiment/real_perfs/repo-page-table-vas-pt/_opam/man'; export MANPATH; PATH='/home/gm/Travail/github/ocaml/ocaml-large-pages-experiment/real_perfs/repo-page-table-vas-pt/_opam/bin:/home/gm/.cargo/bin:/home/gm/.local/bin:/usr/lib/ccache:/usr/local/sbin:/usr/local/bin:/usr/sbin:/usr/bin:/sbin:/bin:/usr/games:/usr/local/games:/snap/bin:/usr/lib/jvm/java-8-oracle/bin:/usr/lib/jvm/java-8-oracle/db/bin:/usr/lib/jvm/java-8-oracle/jre/bin'; export PATH;
+ OPAMSWITCH=/home/gm/Travail/github/ocaml/ocaml-large-pages-experiment/real_perfs/repo-page-table-vas-pt
+ export OPAMSWITCH
+ OPAM_SWITCH_PREFIX=/home/gm/Travail/github/ocaml/ocaml-large-pages-experiment/real_perfs/repo-page-table-vas-pt/_opam
+ export OPAM_SWITCH_PREFIX
+ CAML_LD_LIBRARY_PATH=/home/gm/Travail/github/ocaml/ocaml-large-pages-experiment/real_perfs/repo-page-table-vas-pt/_opam/lib/stublibs:/home/gm/Travail/github/ocaml/ocaml-large-pages-experiment/real_perfs/repo-page-table-vas-pt/_opam/lib/ocaml/stublibs:/home/gm/Travail/github/ocaml/ocaml-large-pages-experiment/real_perfs/repo-page-table-vas-pt/_opam/lib/ocaml
+ export CAML_LD_LIBRARY_PATH
+ OCAML_TOPLEVEL_PATH=/home/gm/Travail/github/ocaml/ocaml-large-pages-experiment/real_perfs/repo-page-table-vas-pt/_opam/lib/toplevel
+ export OCAML_TOPLEVEL_PATH
+ PKG_CONFIG_PATH=/home/gm/Travail/github/ocaml/ocaml-large-pages-experiment/real_perfs/repo-page-table-vas-pt/_opam/lib/pkgconfig
+ export PKG_CONFIG_PATH
+ MANPATH=:/home/gm/Travail/github/ocaml/ocaml-large-pages-experiment/real_perfs/repo-page-table-vas-pt/_opam/man
+ export MANPATH
+ PATH=/home/gm/Travail/github/ocaml/ocaml-large-pages-experiment/real_perfs/repo-page-table-vas-pt/_opam/bin:/home/gm/.cargo/bin:/home/gm/.local/bin:/usr/lib/ccache:/usr/local/sbin:/usr/local/bin:/usr/sbin:/usr/bin:/sbin:/bin:/usr/games:/usr/local/games:/snap/bin:/usr/lib/jvm/java-8-oracle/bin:/usr/lib/jvm/java-8-oracle/db/bin:/usr/lib/jvm/java-8-oracle/jre/bin
+ export PATH
+ opam list
# Packages matching: installed
# Name                 # Installed # Synopsis
base-bigarray          base
base-threads           base
base-unix              base
cairo2                 0.6.2       Binding to Cairo, a 2D Vector Graphics Library
conf-cairo             1           Virtual package relying on a Cairo system installation
conf-findutils         1           Virtual package relying on findutils
conf-gmp               3           Virtual package relying on a GMP lib system installation
conf-gtk3              18          Virtual package relying on GTK+ 3
conf-gtksourceview3    0+2         Virtual package relying on a GtkSourceView-3 system installation
conf-pkg-config        2           Check if pkg-config is installed and create an opam switch local pkgconfig folder
conf-python-3          1.0.0       Virtual package relying on Python-3 installation
coq                    dev         pinned to version dev at git+https://github.com/gadmm/coq.git#nnp
coq-core               dev         pinned to version dev at git+https://github.com/gadmm/coq.git#nnp
coq-mathcomp-algebra   1.12.0      Mathematical Components Library on Algebra
coq-mathcomp-character 1.12.0      Mathematical Components Library on character theory
coq-mathcomp-field     1.12.0      Mathematical Components Library on Fields
coq-mathcomp-fingroup  1.12.0      Mathematical Components Library on finite groups
coq-mathcomp-solvable  1.12.0      Mathematical Components Library on finite groups (II)
coq-mathcomp-ssreflect 1.12.0      Small Scale Reflection
coq-stdlib             dev         pinned to version dev at git+https://github.com/gadmm/coq.git#nnp
coqide                 dev         pinned to version dev at git+https://github.com/gadmm/coq.git#nnp
coqide-server          dev         pinned to version dev at git+https://github.com/gadmm/coq.git#nnp
csexp                  1.5.1       Parsing and printing of S-expressions in Canonical form
dune                   2.9.0       Fast, portable, and opinionated build system
dune-configurator      2.9.0       Helper library for gathering system configuration
lablgtk3               3.1.1       OCaml interface to GTK+3
lablgtk3-sourceview3   3.1.1       OCaml interface to GTK+ gtksourceview library
ocaml                  4.12.0      The OCaml compiler (virtual package)
ocaml-config           2           OCaml Switch Configuration
ocaml-variants         4.12.0      pinned to version 4.12.0 at git+file:///home/gm/Travail/github/ocaml#page-table-412-stats
ocamlfind              1.9.1       A library manager for OCaml
result                 1.5         Compatibility Result module
zarith                 1.12        Implements arithmetic and logical operations over arbitrary-precision integers
+ false
+ c=install
+ time opam install --skip-updates -j 2 -y coq coq-core coqide coqide-server coq-stdlib
[NOTE] Package coq-stdlib is already installed (current version is dev).
[NOTE] Package coqide-server is already installed (current version is dev).
[NOTE] Package coqide is already installed (current version is dev).
[NOTE] Package coq-core is already installed (current version is dev).
[NOTE] Package coq is already installed (current version is dev).
1.20user 0.12system 0:01.34elapsed 99%CPU (0avgtext+0avgdata 141680maxresident)k
488inputs+120outputs (0major+71575minor)pagefaults 0swaps
+ throttle_control_end
+ cpufreqctl --throttle
+ [ 0 -eq 0 ]
+ IS_THROTTLED=
+ mv /tmp/ocaml-stats-page-table-vas-pt.log coq-opam.log.44-1
mv: impossible d'évaluer '/tmp/ocaml-stats-page-table-vas-pt.log': Aucun fichier ou dossier de ce type
+ cd ..
+ throttle_control_begin
+ IS_THROTTLED=
+ cpufreqctl --throttle
+ THROTTLE=0
+ cd repo-page-table-vas-pt-alt
+ opam env --switch=. --set-switch
+ eval OPAMSWITCH='/home/gm/Travail/github/ocaml/ocaml-large-pages-experiment/real_perfs/repo-page-table-vas-pt-alt'; export OPAMSWITCH; OPAM_SWITCH_PREFIX='/home/gm/Travail/github/ocaml/ocaml-large-pages-experiment/real_perfs/repo-page-table-vas-pt-alt/_opam'; export OPAM_SWITCH_PREFIX; CAML_LD_LIBRARY_PATH='/home/gm/Travail/github/ocaml/ocaml-large-pages-experiment/real_perfs/repo-page-table-vas-pt-alt/_opam/lib/stublibs:/home/gm/Travail/github/ocaml/ocaml-large-pages-experiment/real_perfs/repo-page-table-vas-pt-alt/_opam/lib/ocaml/stublibs:/home/gm/Travail/github/ocaml/ocaml-large-pages-experiment/real_perfs/repo-page-table-vas-pt-alt/_opam/lib/ocaml'; export CAML_LD_LIBRARY_PATH; OCAML_TOPLEVEL_PATH='/home/gm/Travail/github/ocaml/ocaml-large-pages-experiment/real_perfs/repo-page-table-vas-pt-alt/_opam/lib/toplevel'; export OCAML_TOPLEVEL_PATH; PKG_CONFIG_PATH='/home/gm/Travail/github/ocaml/ocaml-large-pages-experiment/real_perfs/repo-page-table-vas-pt-alt/_opam/lib/pkgconfig'; export PKG_CONFIG_PATH; MANPATH=':/home/gm/Travail/github/ocaml/ocaml-large-pages-experiment/real_perfs/repo-page-table-vas-pt-alt/_opam/man'; export MANPATH; PATH='/home/gm/Travail/github/ocaml/ocaml-large-pages-experiment/real_perfs/repo-page-table-vas-pt-alt/_opam/bin:/home/gm/.cargo/bin:/home/gm/.local/bin:/usr/lib/ccache:/usr/local/sbin:/usr/local/bin:/usr/sbin:/usr/bin:/sbin:/bin:/usr/games:/usr/local/games:/snap/bin:/usr/lib/jvm/java-8-oracle/bin:/usr/lib/jvm/java-8-oracle/db/bin:/usr/lib/jvm/java-8-oracle/jre/bin'; export PATH;
+ OPAMSWITCH=/home/gm/Travail/github/ocaml/ocaml-large-pages-experiment/real_perfs/repo-page-table-vas-pt-alt
+ export OPAMSWITCH
+ OPAM_SWITCH_PREFIX=/home/gm/Travail/github/ocaml/ocaml-large-pages-experiment/real_perfs/repo-page-table-vas-pt-alt/_opam
+ export OPAM_SWITCH_PREFIX
+ CAML_LD_LIBRARY_PATH=/home/gm/Travail/github/ocaml/ocaml-large-pages-experiment/real_perfs/repo-page-table-vas-pt-alt/_opam/lib/stublibs:/home/gm/Travail/github/ocaml/ocaml-large-pages-experiment/real_perfs/repo-page-table-vas-pt-alt/_opam/lib/ocaml/stublibs:/home/gm/Travail/github/ocaml/ocaml-large-pages-experiment/real_perfs/repo-page-table-vas-pt-alt/_opam/lib/ocaml
+ export CAML_LD_LIBRARY_PATH
+ OCAML_TOPLEVEL_PATH=/home/gm/Travail/github/ocaml/ocaml-large-pages-experiment/real_perfs/repo-page-table-vas-pt-alt/_opam/lib/toplevel
+ export OCAML_TOPLEVEL_PATH
+ PKG_CONFIG_PATH=/home/gm/Travail/github/ocaml/ocaml-large-pages-experiment/real_perfs/repo-page-table-vas-pt-alt/_opam/lib/pkgconfig
+ export PKG_CONFIG_PATH
+ MANPATH=:/home/gm/Travail/github/ocaml/ocaml-large-pages-experiment/real_perfs/repo-page-table-vas-pt-alt/_opam/man
+ export MANPATH
+ PATH=/home/gm/Travail/github/ocaml/ocaml-large-pages-experiment/real_perfs/repo-page-table-vas-pt-alt/_opam/bin:/home/gm/.cargo/bin:/home/gm/.local/bin:/usr/lib/ccache:/usr/local/sbin:/usr/local/bin:/usr/sbin:/usr/bin:/sbin:/bin:/usr/games:/usr/local/games:/snap/bin:/usr/lib/jvm/java-8-oracle/bin:/usr/lib/jvm/java-8-oracle/db/bin:/usr/lib/jvm/java-8-oracle/jre/bin
+ export PATH
+ opam list
# Packages matching: installed
# Name                 # Installed # Synopsis
base-bigarray          base
base-threads           base
base-unix              base
cairo2                 0.6.2       Binding to Cairo, a 2D Vector Graphics Library
conf-cairo             1           Virtual package relying on a Cairo system installation
conf-gmp               3           Virtual package relying on a GMP lib system installation
conf-gtk3              18          Virtual package relying on GTK+ 3
conf-gtksourceview3    0+2         Virtual package relying on a GtkSourceView-3 system installation
conf-pkg-config        2           Check if pkg-config is installed and create an opam switch local pkgconfig folder
coq                    dev         pinned to version dev at git+https://github.com/gadmm/coq.git#nnp
coq-core               dev         pinned to version dev at git+https://github.com/gadmm/coq.git#nnp
coq-mathcomp-algebra   1.12.0      Mathematical Components Library on Algebra
coq-mathcomp-character 1.12.0      Mathematical Components Library on character theory
coq-mathcomp-field     1.12.0      Mathematical Components Library on Fields
coq-mathcomp-fingroup  1.12.0      Mathematical Components Library on finite groups
coq-mathcomp-solvable  1.12.0      Mathematical Components Library on finite groups (II)
coq-mathcomp-ssreflect 1.12.0      Small Scale Reflection
coq-stdlib             dev         pinned to version dev at git+https://github.com/gadmm/coq.git#nnp
coqide                 dev         pinned to version dev at git+https://github.com/gadmm/coq.git#nnp
coqide-server          dev         pinned to version dev at git+https://github.com/gadmm/coq.git#nnp
csexp                  1.5.1       Parsing and printing of S-expressions in Canonical form
dune                   2.9.0       Fast, portable, and opinionated build system
dune-configurator      2.9.0       Helper library for gathering system configuration
lablgtk3               3.1.1       OCaml interface to GTK+3
lablgtk3-sourceview3   3.1.1       OCaml interface to GTK+ gtksourceview library
ocaml                  4.12.0      The OCaml compiler (virtual package)
ocaml-config           2           OCaml Switch Configuration
ocaml-variants         4.12.0      pinned to version 4.12.0 at git+file:///home/gm/Travail/github/ocaml#page-table-412-stats-alt
ocamlfind              1.9.1       A library manager for OCaml
result                 1.5         Compatibility Result module
zarith                 1.12        Implements arithmetic and logical operations over arbitrary-precision integers
+ false
+ c=install
+ time opam install --skip-updates -j 2 -y coq coq-core coqide coqide-server coq-stdlib
[NOTE] Package coq-stdlib is already installed (current version is dev).
[NOTE] Package coqide-server is already installed (current version is dev).
[NOTE] Package coqide is already installed (current version is dev).
[NOTE] Package coq-core is already installed (current version is dev).
[NOTE] Package coq is already installed (current version is dev).
1.19user 0.14system 0:01.33elapsed 100%CPU (0avgtext+0avgdata 141704maxresident)k
0inputs+120outputs (0major+71829minor)pagefaults 0swaps
+ throttle_control_end
+ cpufreqctl --throttle
+ [ 0 -eq 0 ]
+ IS_THROTTLED=
+ mv /tmp/ocaml-stats-page-table-vas-pt-alt.log coq-opam.log.44-1
mv: impossible d'évaluer '/tmp/ocaml-stats-page-table-vas-pt-alt.log': Aucun fichier ou dossier de ce type
+ cd ..
+ date -R
Tue, 03 Aug 2021 15:49:18 +0200
+ true
+ throttle_control_begin
+ IS_THROTTLED=
+ cpufreqctl --throttle
+ THROTTLE=0
+ cd repo-page-table-vas-pt
+ opam env --switch=. --set-switch
+ eval OPAMSWITCH='/home/gm/Travail/github/ocaml/ocaml-large-pages-experiment/real_perfs/repo-page-table-vas-pt'; export OPAMSWITCH; OPAM_SWITCH_PREFIX='/home/gm/Travail/github/ocaml/ocaml-large-pages-experiment/real_perfs/repo-page-table-vas-pt/_opam'; export OPAM_SWITCH_PREFIX; CAML_LD_LIBRARY_PATH='/home/gm/Travail/github/ocaml/ocaml-large-pages-experiment/real_perfs/repo-page-table-vas-pt/_opam/lib/stublibs:/home/gm/Travail/github/ocaml/ocaml-large-pages-experiment/real_perfs/repo-page-table-vas-pt/_opam/lib/ocaml/stublibs:/home/gm/Travail/github/ocaml/ocaml-large-pages-experiment/real_perfs/repo-page-table-vas-pt/_opam/lib/ocaml'; export CAML_LD_LIBRARY_PATH; OCAML_TOPLEVEL_PATH='/home/gm/Travail/github/ocaml/ocaml-large-pages-experiment/real_perfs/repo-page-table-vas-pt/_opam/lib/toplevel'; export OCAML_TOPLEVEL_PATH; PKG_CONFIG_PATH='/home/gm/Travail/github/ocaml/ocaml-large-pages-experiment/real_perfs/repo-page-table-vas-pt/_opam/lib/pkgconfig'; export PKG_CONFIG_PATH; MANPATH=':/home/gm/Travail/github/ocaml/ocaml-large-pages-experiment/real_perfs/repo-page-table-vas-pt/_opam/man'; export MANPATH; PATH='/home/gm/Travail/github/ocaml/ocaml-large-pages-experiment/real_perfs/repo-page-table-vas-pt/_opam/bin:/home/gm/.cargo/bin:/home/gm/.local/bin:/usr/lib/ccache:/usr/local/sbin:/usr/local/bin:/usr/sbin:/usr/bin:/sbin:/bin:/usr/games:/usr/local/games:/snap/bin:/usr/lib/jvm/java-8-oracle/bin:/usr/lib/jvm/java-8-oracle/db/bin:/usr/lib/jvm/java-8-oracle/jre/bin'; export PATH;
+ OPAMSWITCH=/home/gm/Travail/github/ocaml/ocaml-large-pages-experiment/real_perfs/repo-page-table-vas-pt
+ export OPAMSWITCH
+ OPAM_SWITCH_PREFIX=/home/gm/Travail/github/ocaml/ocaml-large-pages-experiment/real_perfs/repo-page-table-vas-pt/_opam
+ export OPAM_SWITCH_PREFIX
+ CAML_LD_LIBRARY_PATH=/home/gm/Travail/github/ocaml/ocaml-large-pages-experiment/real_perfs/repo-page-table-vas-pt/_opam/lib/stublibs:/home/gm/Travail/github/ocaml/ocaml-large-pages-experiment/real_perfs/repo-page-table-vas-pt/_opam/lib/ocaml/stublibs:/home/gm/Travail/github/ocaml/ocaml-large-pages-experiment/real_perfs/repo-page-table-vas-pt/_opam/lib/ocaml
+ export CAML_LD_LIBRARY_PATH
+ OCAML_TOPLEVEL_PATH=/home/gm/Travail/github/ocaml/ocaml-large-pages-experiment/real_perfs/repo-page-table-vas-pt/_opam/lib/toplevel
+ export OCAML_TOPLEVEL_PATH
+ PKG_CONFIG_PATH=/home/gm/Travail/github/ocaml/ocaml-large-pages-experiment/real_perfs/repo-page-table-vas-pt/_opam/lib/pkgconfig
+ export PKG_CONFIG_PATH
+ MANPATH=:/home/gm/Travail/github/ocaml/ocaml-large-pages-experiment/real_perfs/repo-page-table-vas-pt/_opam/man
+ export MANPATH
+ PATH=/home/gm/Travail/github/ocaml/ocaml-large-pages-experiment/real_perfs/repo-page-table-vas-pt/_opam/bin:/home/gm/.cargo/bin:/home/gm/.local/bin:/usr/lib/ccache:/usr/local/sbin:/usr/local/bin:/usr/sbin:/usr/bin:/sbin:/bin:/usr/games:/usr/local/games:/snap/bin:/usr/lib/jvm/java-8-oracle/bin:/usr/lib/jvm/java-8-oracle/db/bin:/usr/lib/jvm/java-8-oracle/jre/bin
+ export PATH
+ opam list
# Packages matching: installed
# Name                 # Installed # Synopsis
base-bigarray          base
base-threads           base
base-unix              base
cairo2                 0.6.2       Binding to Cairo, a 2D Vector Graphics Library
conf-cairo             1           Virtual package relying on a Cairo system installation
conf-findutils         1           Virtual package relying on findutils
conf-gmp               3           Virtual package relying on a GMP lib system installation
conf-gtk3              18          Virtual package relying on GTK+ 3
conf-gtksourceview3    0+2         Virtual package relying on a GtkSourceView-3 system installation
conf-pkg-config        2           Check if pkg-config is installed and create an opam switch local pkgconfig folder
conf-python-3          1.0.0       Virtual package relying on Python-3 installation
coq                    dev         pinned to version dev at git+https://github.com/gadmm/coq.git#nnp
coq-core               dev         pinned to version dev at git+https://github.com/gadmm/coq.git#nnp
coq-mathcomp-algebra   1.12.0      Mathematical Components Library on Algebra
coq-mathcomp-character 1.12.0      Mathematical Components Library on character theory
coq-mathcomp-field     1.12.0      Mathematical Components Library on Fields
coq-mathcomp-fingroup  1.12.0      Mathematical Components Library on finite groups
coq-mathcomp-solvable  1.12.0      Mathematical Components Library on finite groups (II)
coq-mathcomp-ssreflect 1.12.0      Small Scale Reflection
coq-stdlib             dev         pinned to version dev at git+https://github.com/gadmm/coq.git#nnp
coqide                 dev         pinned to version dev at git+https://github.com/gadmm/coq.git#nnp
coqide-server          dev         pinned to version dev at git+https://github.com/gadmm/coq.git#nnp
csexp                  1.5.1       Parsing and printing of S-expressions in Canonical form
dune                   2.9.0       Fast, portable, and opinionated build system
dune-configurator      2.9.0       Helper library for gathering system configuration
lablgtk3               3.1.1       OCaml interface to GTK+3
lablgtk3-sourceview3   3.1.1       OCaml interface to GTK+ gtksourceview library
ocaml                  4.12.0      The OCaml compiler (virtual package)
ocaml-config           2           OCaml Switch Configuration
ocaml-variants         4.12.0      pinned to version 4.12.0 at git+file:///home/gm/Travail/github/ocaml#page-table-412-stats
ocamlfind              1.9.1       A library manager for OCaml
result                 1.5         Compatibility Result module
zarith                 1.12        Implements arithmetic and logical operations over arbitrary-precision integers
+ opam remove -y coq-mathcomp-odd-order
[NOTE] coq-mathcomp-odd-order is not installed.

Nothing to do.
+ time opam reinstall --skip-updates -j 2 -y coq-mathcomp-character coq-mathcomp-field coq-mathcomp-solvable coq-mathcomp-algebra coq-mathcomp-fingroup coq-mathcomp-ssreflect
The following actions will be performed:
  ↻ recompile coq-mathcomp-ssreflect 1.12.0
  ↻ recompile coq-mathcomp-fingroup  1.12.0
  ↻ recompile coq-mathcomp-algebra   1.12.0
  ↻ recompile coq-mathcomp-solvable  1.12.0
  ↻ recompile coq-mathcomp-field     1.12.0
  ↻ recompile coq-mathcomp-character 1.12.0
===== ↻ 6 =====

<><> Gathering sources ><><><><><><><><><><><><><><><><><><><><><><><><><><><><>
[coq-mathcomp-algebra.1.12.0] found in cache
[coq-mathcomp-character.1.12.0] found in cache
[coq-mathcomp-field.1.12.0] found in cache
[coq-mathcomp-fingroup.1.12.0] found in cache
[coq-mathcomp-solvable.1.12.0] found in cache
[coq-mathcomp-ssreflect.1.12.0] found in cache

<><> Processing actions <><><><><><><><><><><><><><><><><><><><><><><><><><><><>
⊘ removed   coq-mathcomp-character.1.12.0
⊘ removed   coq-mathcomp-field.1.12.0
⊘ removed   coq-mathcomp-solvable.1.12.0
⊘ removed   coq-mathcomp-algebra.1.12.0
⊘ removed   coq-mathcomp-fingroup.1.12.0
⊘ removed   coq-mathcomp-ssreflect.1.12.0
∗ installed coq-mathcomp-ssreflect.1.12.0
∗ installed coq-mathcomp-fingroup.1.12.0
∗ installed coq-mathcomp-algebra.1.12.0
∗ installed coq-mathcomp-solvable.1.12.0
∗ installed coq-mathcomp-field.1.12.0
∗ installed coq-mathcomp-character.1.12.0
Done.
750.87user 19.98system 9:22.99elapsed 136%CPU (0avgtext+0avgdata 738200maxresident)k
0inputs+547504outputs (0major+11199148minor)pagefaults 0swaps
+ throttle_control_end
+ cpufreqctl --throttle
+ [ 0 -eq 0 ]
+ IS_THROTTLED=
+ mv /tmp/ocaml-stats-page-table-vas-pt.log coq-mathcomp.log.44-1
+ cd ..
+ throttle_control_begin
+ IS_THROTTLED=
+ cpufreqctl --throttle
+ THROTTLE=0
+ cd repo-page-table-vas-pt-alt
+ opam env --switch=. --set-switch
+ eval OPAMSWITCH='/home/gm/Travail/github/ocaml/ocaml-large-pages-experiment/real_perfs/repo-page-table-vas-pt-alt'; export OPAMSWITCH; OPAM_SWITCH_PREFIX='/home/gm/Travail/github/ocaml/ocaml-large-pages-experiment/real_perfs/repo-page-table-vas-pt-alt/_opam'; export OPAM_SWITCH_PREFIX; CAML_LD_LIBRARY_PATH='/home/gm/Travail/github/ocaml/ocaml-large-pages-experiment/real_perfs/repo-page-table-vas-pt-alt/_opam/lib/stublibs:/home/gm/Travail/github/ocaml/ocaml-large-pages-experiment/real_perfs/repo-page-table-vas-pt-alt/_opam/lib/ocaml/stublibs:/home/gm/Travail/github/ocaml/ocaml-large-pages-experiment/real_perfs/repo-page-table-vas-pt-alt/_opam/lib/ocaml'; export CAML_LD_LIBRARY_PATH; OCAML_TOPLEVEL_PATH='/home/gm/Travail/github/ocaml/ocaml-large-pages-experiment/real_perfs/repo-page-table-vas-pt-alt/_opam/lib/toplevel'; export OCAML_TOPLEVEL_PATH; PKG_CONFIG_PATH='/home/gm/Travail/github/ocaml/ocaml-large-pages-experiment/real_perfs/repo-page-table-vas-pt-alt/_opam/lib/pkgconfig'; export PKG_CONFIG_PATH; MANPATH=':/home/gm/Travail/github/ocaml/ocaml-large-pages-experiment/real_perfs/repo-page-table-vas-pt-alt/_opam/man'; export MANPATH; PATH='/home/gm/Travail/github/ocaml/ocaml-large-pages-experiment/real_perfs/repo-page-table-vas-pt-alt/_opam/bin:/home/gm/.cargo/bin:/home/gm/.local/bin:/usr/lib/ccache:/usr/local/sbin:/usr/local/bin:/usr/sbin:/usr/bin:/sbin:/bin:/usr/games:/usr/local/games:/snap/bin:/usr/lib/jvm/java-8-oracle/bin:/usr/lib/jvm/java-8-oracle/db/bin:/usr/lib/jvm/java-8-oracle/jre/bin'; export PATH;
+ OPAMSWITCH=/home/gm/Travail/github/ocaml/ocaml-large-pages-experiment/real_perfs/repo-page-table-vas-pt-alt
+ export OPAMSWITCH
+ OPAM_SWITCH_PREFIX=/home/gm/Travail/github/ocaml/ocaml-large-pages-experiment/real_perfs/repo-page-table-vas-pt-alt/_opam
+ export OPAM_SWITCH_PREFIX
+ CAML_LD_LIBRARY_PATH=/home/gm/Travail/github/ocaml/ocaml-large-pages-experiment/real_perfs/repo-page-table-vas-pt-alt/_opam/lib/stublibs:/home/gm/Travail/github/ocaml/ocaml-large-pages-experiment/real_perfs/repo-page-table-vas-pt-alt/_opam/lib/ocaml/stublibs:/home/gm/Travail/github/ocaml/ocaml-large-pages-experiment/real_perfs/repo-page-table-vas-pt-alt/_opam/lib/ocaml
+ export CAML_LD_LIBRARY_PATH
+ OCAML_TOPLEVEL_PATH=/home/gm/Travail/github/ocaml/ocaml-large-pages-experiment/real_perfs/repo-page-table-vas-pt-alt/_opam/lib/toplevel
+ export OCAML_TOPLEVEL_PATH
+ PKG_CONFIG_PATH=/home/gm/Travail/github/ocaml/ocaml-large-pages-experiment/real_perfs/repo-page-table-vas-pt-alt/_opam/lib/pkgconfig
+ export PKG_CONFIG_PATH
+ MANPATH=:/home/gm/Travail/github/ocaml/ocaml-large-pages-experiment/real_perfs/repo-page-table-vas-pt-alt/_opam/man
+ export MANPATH
+ PATH=/home/gm/Travail/github/ocaml/ocaml-large-pages-experiment/real_perfs/repo-page-table-vas-pt-alt/_opam/bin:/home/gm/.cargo/bin:/home/gm/.local/bin:/usr/lib/ccache:/usr/local/sbin:/usr/local/bin:/usr/sbin:/usr/bin:/sbin:/bin:/usr/games:/usr/local/games:/snap/bin:/usr/lib/jvm/java-8-oracle/bin:/usr/lib/jvm/java-8-oracle/db/bin:/usr/lib/jvm/java-8-oracle/jre/bin
+ export PATH
+ opam list
# Packages matching: installed
# Name                 # Installed # Synopsis
base-bigarray          base
base-threads           base
base-unix              base
cairo2                 0.6.2       Binding to Cairo, a 2D Vector Graphics Library
conf-cairo             1           Virtual package relying on a Cairo system installation
conf-gmp               3           Virtual package relying on a GMP lib system installation
conf-gtk3              18          Virtual package relying on GTK+ 3
conf-gtksourceview3    0+2         Virtual package relying on a GtkSourceView-3 system installation
conf-pkg-config        2           Check if pkg-config is installed and create an opam switch local pkgconfig folder
coq                    dev         pinned to version dev at git+https://github.com/gadmm/coq.git#nnp
coq-core               dev         pinned to version dev at git+https://github.com/gadmm/coq.git#nnp
coq-mathcomp-algebra   1.12.0      Mathematical Components Library on Algebra
coq-mathcomp-character 1.12.0      Mathematical Components Library on character theory
coq-mathcomp-field     1.12.0      Mathematical Components Library on Fields
coq-mathcomp-fingroup  1.12.0      Mathematical Components Library on finite groups
coq-mathcomp-solvable  1.12.0      Mathematical Components Library on finite groups (II)
coq-mathcomp-ssreflect 1.12.0      Small Scale Reflection
coq-stdlib             dev         pinned to version dev at git+https://github.com/gadmm/coq.git#nnp
coqide                 dev         pinned to version dev at git+https://github.com/gadmm/coq.git#nnp
coqide-server          dev         pinned to version dev at git+https://github.com/gadmm/coq.git#nnp
csexp                  1.5.1       Parsing and printing of S-expressions in Canonical form
dune                   2.9.0       Fast, portable, and opinionated build system
dune-configurator      2.9.0       Helper library for gathering system configuration
lablgtk3               3.1.1       OCaml interface to GTK+3
lablgtk3-sourceview3   3.1.1       OCaml interface to GTK+ gtksourceview library
ocaml                  4.12.0      The OCaml compiler (virtual package)
ocaml-config           2           OCaml Switch Configuration
ocaml-variants         4.12.0      pinned to version 4.12.0 at git+file:///home/gm/Travail/github/ocaml#page-table-412-stats-alt
ocamlfind              1.9.1       A library manager for OCaml
result                 1.5         Compatibility Result module
zarith                 1.12        Implements arithmetic and logical operations over arbitrary-precision integers
+ opam remove -y coq-mathcomp-odd-order
[NOTE] coq-mathcomp-odd-order is not installed.

Nothing to do.
+ time opam reinstall --skip-updates -j 2 -y coq-mathcomp-character coq-mathcomp-field coq-mathcomp-solvable coq-mathcomp-algebra coq-mathcomp-fingroup coq-mathcomp-ssreflect
The following actions will be performed:
  ↻ recompile coq-mathcomp-ssreflect 1.12.0
  ↻ recompile coq-mathcomp-fingroup  1.12.0
  ↻ recompile coq-mathcomp-algebra   1.12.0
  ↻ recompile coq-mathcomp-solvable  1.12.0
  ↻ recompile coq-mathcomp-field     1.12.0
  ↻ recompile coq-mathcomp-character 1.12.0
===== ↻ 6 =====

<><> Gathering sources ><><><><><><><><><><><><><><><><><><><><><><><><><><><><>
[coq-mathcomp-algebra.1.12.0] found in cache
[coq-mathcomp-character.1.12.0] found in cache
[coq-mathcomp-field.1.12.0] found in cache
[coq-mathcomp-fingroup.1.12.0] found in cache
[coq-mathcomp-solvable.1.12.0] found in cache
[coq-mathcomp-ssreflect.1.12.0] found in cache

<><> Processing actions <><><><><><><><><><><><><><><><><><><><><><><><><><><><>
⊘ removed   coq-mathcomp-character.1.12.0
⊘ removed   coq-mathcomp-field.1.12.0
⊘ removed   coq-mathcomp-solvable.1.12.0
⊘ removed   coq-mathcomp-algebra.1.12.0
⊘ removed   coq-mathcomp-fingroup.1.12.0
⊘ removed   coq-mathcomp-ssreflect.1.12.0
∗ installed coq-mathcomp-ssreflect.1.12.0
∗ installed coq-mathcomp-fingroup.1.12.0
∗ installed coq-mathcomp-algebra.1.12.0
∗ installed coq-mathcomp-solvable.1.12.0
∗ installed coq-mathcomp-field.1.12.0
∗ installed coq-mathcomp-character.1.12.0
Done.
751.54user 20.07system 9:23.84elapsed 136%CPU (0avgtext+0avgdata 738036maxresident)k
0inputs+547536outputs (0major+11205983minor)pagefaults 0swaps
+ throttle_control_end
+ cpufreqctl --throttle
+ [ 0 -eq 0 ]
+ IS_THROTTLED=
+ mv /tmp/ocaml-stats-page-table-vas-pt-alt.log coq-mathcomp.log.44-1
+ cd ..
+ date -R
Tue, 03 Aug 2021 16:08:08 +0200
+ false
+ TRIAL=-2
+ echo Iteration 2
Iteration 2
+ date -R
Tue, 03 Aug 2021 16:08:08 +0200
+ false
+ false
+ false
+ true
+ throttle_control_begin
+ IS_THROTTLED=
+ cpufreqctl --throttle
+ THROTTLE=0
+ cd repo-page-table-vas-pt
+ opam env --switch=. --set-switch
+ eval OPAMSWITCH='/home/gm/Travail/github/ocaml/ocaml-large-pages-experiment/real_perfs/repo-page-table-vas-pt'; export OPAMSWITCH; OPAM_SWITCH_PREFIX='/home/gm/Travail/github/ocaml/ocaml-large-pages-experiment/real_perfs/repo-page-table-vas-pt/_opam'; export OPAM_SWITCH_PREFIX; CAML_LD_LIBRARY_PATH='/home/gm/Travail/github/ocaml/ocaml-large-pages-experiment/real_perfs/repo-page-table-vas-pt/_opam/lib/stublibs:/home/gm/Travail/github/ocaml/ocaml-large-pages-experiment/real_perfs/repo-page-table-vas-pt/_opam/lib/ocaml/stublibs:/home/gm/Travail/github/ocaml/ocaml-large-pages-experiment/real_perfs/repo-page-table-vas-pt/_opam/lib/ocaml'; export CAML_LD_LIBRARY_PATH; OCAML_TOPLEVEL_PATH='/home/gm/Travail/github/ocaml/ocaml-large-pages-experiment/real_perfs/repo-page-table-vas-pt/_opam/lib/toplevel'; export OCAML_TOPLEVEL_PATH; PKG_CONFIG_PATH='/home/gm/Travail/github/ocaml/ocaml-large-pages-experiment/real_perfs/repo-page-table-vas-pt/_opam/lib/pkgconfig'; export PKG_CONFIG_PATH; MANPATH=':/home/gm/Travail/github/ocaml/ocaml-large-pages-experiment/real_perfs/repo-page-table-vas-pt/_opam/man'; export MANPATH; PATH='/home/gm/Travail/github/ocaml/ocaml-large-pages-experiment/real_perfs/repo-page-table-vas-pt/_opam/bin:/home/gm/.cargo/bin:/home/gm/.local/bin:/usr/lib/ccache:/usr/local/sbin:/usr/local/bin:/usr/sbin:/usr/bin:/sbin:/bin:/usr/games:/usr/local/games:/snap/bin:/usr/lib/jvm/java-8-oracle/bin:/usr/lib/jvm/java-8-oracle/db/bin:/usr/lib/jvm/java-8-oracle/jre/bin'; export PATH;
+ OPAMSWITCH=/home/gm/Travail/github/ocaml/ocaml-large-pages-experiment/real_perfs/repo-page-table-vas-pt
+ export OPAMSWITCH
+ OPAM_SWITCH_PREFIX=/home/gm/Travail/github/ocaml/ocaml-large-pages-experiment/real_perfs/repo-page-table-vas-pt/_opam
+ export OPAM_SWITCH_PREFIX
+ CAML_LD_LIBRARY_PATH=/home/gm/Travail/github/ocaml/ocaml-large-pages-experiment/real_perfs/repo-page-table-vas-pt/_opam/lib/stublibs:/home/gm/Travail/github/ocaml/ocaml-large-pages-experiment/real_perfs/repo-page-table-vas-pt/_opam/lib/ocaml/stublibs:/home/gm/Travail/github/ocaml/ocaml-large-pages-experiment/real_perfs/repo-page-table-vas-pt/_opam/lib/ocaml
+ export CAML_LD_LIBRARY_PATH
+ OCAML_TOPLEVEL_PATH=/home/gm/Travail/github/ocaml/ocaml-large-pages-experiment/real_perfs/repo-page-table-vas-pt/_opam/lib/toplevel
+ export OCAML_TOPLEVEL_PATH
+ PKG_CONFIG_PATH=/home/gm/Travail/github/ocaml/ocaml-large-pages-experiment/real_perfs/repo-page-table-vas-pt/_opam/lib/pkgconfig
+ export PKG_CONFIG_PATH
+ MANPATH=:/home/gm/Travail/github/ocaml/ocaml-large-pages-experiment/real_perfs/repo-page-table-vas-pt/_opam/man
+ export MANPATH
+ PATH=/home/gm/Travail/github/ocaml/ocaml-large-pages-experiment/real_perfs/repo-page-table-vas-pt/_opam/bin:/home/gm/.cargo/bin:/home/gm/.local/bin:/usr/lib/ccache:/usr/local/sbin:/usr/local/bin:/usr/sbin:/usr/bin:/sbin:/bin:/usr/games:/usr/local/games:/snap/bin:/usr/lib/jvm/java-8-oracle/bin:/usr/lib/jvm/java-8-oracle/db/bin:/usr/lib/jvm/java-8-oracle/jre/bin
+ export PATH
+ opam list
# Packages matching: installed
# Name                 # Installed # Synopsis
base-bigarray          base
base-threads           base
base-unix              base
cairo2                 0.6.2       Binding to Cairo, a 2D Vector Graphics Library
conf-cairo             1           Virtual package relying on a Cairo system installation
conf-findutils         1           Virtual package relying on findutils
conf-gmp               3           Virtual package relying on a GMP lib system installation
conf-gtk3              18          Virtual package relying on GTK+ 3
conf-gtksourceview3    0+2         Virtual package relying on a GtkSourceView-3 system installation
conf-pkg-config        2           Check if pkg-config is installed and create an opam switch local pkgconfig folder
conf-python-3          1.0.0       Virtual package relying on Python-3 installation
coq                    dev         pinned to version dev at git+https://github.com/gadmm/coq.git#nnp
coq-core               dev         pinned to version dev at git+https://github.com/gadmm/coq.git#nnp
coq-mathcomp-algebra   1.12.0      Mathematical Components Library on Algebra
coq-mathcomp-character 1.12.0      Mathematical Components Library on character theory
coq-mathcomp-field     1.12.0      Mathematical Components Library on Fields
coq-mathcomp-fingroup  1.12.0      Mathematical Components Library on finite groups
coq-mathcomp-solvable  1.12.0      Mathematical Components Library on finite groups (II)
coq-mathcomp-ssreflect 1.12.0      Small Scale Reflection
coq-stdlib             dev         pinned to version dev at git+https://github.com/gadmm/coq.git#nnp
coqide                 dev         pinned to version dev at git+https://github.com/gadmm/coq.git#nnp
coqide-server          dev         pinned to version dev at git+https://github.com/gadmm/coq.git#nnp
csexp                  1.5.1       Parsing and printing of S-expressions in Canonical form
dune                   2.9.0       Fast, portable, and opinionated build system
dune-configurator      2.9.0       Helper library for gathering system configuration
lablgtk3               3.1.1       OCaml interface to GTK+3
lablgtk3-sourceview3   3.1.1       OCaml interface to GTK+ gtksourceview library
ocaml                  4.12.0      The OCaml compiler (virtual package)
ocaml-config           2           OCaml Switch Configuration
ocaml-variants         4.12.0      pinned to version 4.12.0 at git+file:///home/gm/Travail/github/ocaml#page-table-412-stats
ocamlfind              1.9.1       A library manager for OCaml
result                 1.5         Compatibility Result module
zarith                 1.12        Implements arithmetic and logical operations over arbitrary-precision integers
+ false
+ c=install
+ time opam install --skip-updates -j 2 -y coq coq-core coqide coqide-server coq-stdlib
[NOTE] Package coq-stdlib is already installed (current version is dev).
[NOTE] Package coqide-server is already installed (current version is dev).
[NOTE] Package coqide is already installed (current version is dev).
[NOTE] Package coq-core is already installed (current version is dev).
[NOTE] Package coq is already installed (current version is dev).
1.24user 0.09system 0:01.34elapsed 99%CPU (0avgtext+0avgdata 141808maxresident)k
0inputs+120outputs (0major+71584minor)pagefaults 0swaps
+ throttle_control_end
+ cpufreqctl --throttle
+ [ 0 -eq 0 ]
+ IS_THROTTLED=
+ mv /tmp/ocaml-stats-page-table-vas-pt.log coq-opam.log.44-2
mv: impossible d'évaluer '/tmp/ocaml-stats-page-table-vas-pt.log': Aucun fichier ou dossier de ce type
+ cd ..
+ throttle_control_begin
+ IS_THROTTLED=
+ cpufreqctl --throttle
+ THROTTLE=0
+ cd repo-page-table-vas-pt-alt
+ opam env --switch=. --set-switch
+ eval OPAMSWITCH='/home/gm/Travail/github/ocaml/ocaml-large-pages-experiment/real_perfs/repo-page-table-vas-pt-alt'; export OPAMSWITCH; OPAM_SWITCH_PREFIX='/home/gm/Travail/github/ocaml/ocaml-large-pages-experiment/real_perfs/repo-page-table-vas-pt-alt/_opam'; export OPAM_SWITCH_PREFIX; CAML_LD_LIBRARY_PATH='/home/gm/Travail/github/ocaml/ocaml-large-pages-experiment/real_perfs/repo-page-table-vas-pt-alt/_opam/lib/stublibs:/home/gm/Travail/github/ocaml/ocaml-large-pages-experiment/real_perfs/repo-page-table-vas-pt-alt/_opam/lib/ocaml/stublibs:/home/gm/Travail/github/ocaml/ocaml-large-pages-experiment/real_perfs/repo-page-table-vas-pt-alt/_opam/lib/ocaml'; export CAML_LD_LIBRARY_PATH; OCAML_TOPLEVEL_PATH='/home/gm/Travail/github/ocaml/ocaml-large-pages-experiment/real_perfs/repo-page-table-vas-pt-alt/_opam/lib/toplevel'; export OCAML_TOPLEVEL_PATH; PKG_CONFIG_PATH='/home/gm/Travail/github/ocaml/ocaml-large-pages-experiment/real_perfs/repo-page-table-vas-pt-alt/_opam/lib/pkgconfig'; export PKG_CONFIG_PATH; MANPATH=':/home/gm/Travail/github/ocaml/ocaml-large-pages-experiment/real_perfs/repo-page-table-vas-pt-alt/_opam/man'; export MANPATH; PATH='/home/gm/Travail/github/ocaml/ocaml-large-pages-experiment/real_perfs/repo-page-table-vas-pt-alt/_opam/bin:/home/gm/.cargo/bin:/home/gm/.local/bin:/usr/lib/ccache:/usr/local/sbin:/usr/local/bin:/usr/sbin:/usr/bin:/sbin:/bin:/usr/games:/usr/local/games:/snap/bin:/usr/lib/jvm/java-8-oracle/bin:/usr/lib/jvm/java-8-oracle/db/bin:/usr/lib/jvm/java-8-oracle/jre/bin'; export PATH;
+ OPAMSWITCH=/home/gm/Travail/github/ocaml/ocaml-large-pages-experiment/real_perfs/repo-page-table-vas-pt-alt
+ export OPAMSWITCH
+ OPAM_SWITCH_PREFIX=/home/gm/Travail/github/ocaml/ocaml-large-pages-experiment/real_perfs/repo-page-table-vas-pt-alt/_opam
+ export OPAM_SWITCH_PREFIX
+ CAML_LD_LIBRARY_PATH=/home/gm/Travail/github/ocaml/ocaml-large-pages-experiment/real_perfs/repo-page-table-vas-pt-alt/_opam/lib/stublibs:/home/gm/Travail/github/ocaml/ocaml-large-pages-experiment/real_perfs/repo-page-table-vas-pt-alt/_opam/lib/ocaml/stublibs:/home/gm/Travail/github/ocaml/ocaml-large-pages-experiment/real_perfs/repo-page-table-vas-pt-alt/_opam/lib/ocaml
+ export CAML_LD_LIBRARY_PATH
+ OCAML_TOPLEVEL_PATH=/home/gm/Travail/github/ocaml/ocaml-large-pages-experiment/real_perfs/repo-page-table-vas-pt-alt/_opam/lib/toplevel
+ export OCAML_TOPLEVEL_PATH
+ PKG_CONFIG_PATH=/home/gm/Travail/github/ocaml/ocaml-large-pages-experiment/real_perfs/repo-page-table-vas-pt-alt/_opam/lib/pkgconfig
+ export PKG_CONFIG_PATH
+ MANPATH=:/home/gm/Travail/github/ocaml/ocaml-large-pages-experiment/real_perfs/repo-page-table-vas-pt-alt/_opam/man
+ export MANPATH
+ PATH=/home/gm/Travail/github/ocaml/ocaml-large-pages-experiment/real_perfs/repo-page-table-vas-pt-alt/_opam/bin:/home/gm/.cargo/bin:/home/gm/.local/bin:/usr/lib/ccache:/usr/local/sbin:/usr/local/bin:/usr/sbin:/usr/bin:/sbin:/bin:/usr/games:/usr/local/games:/snap/bin:/usr/lib/jvm/java-8-oracle/bin:/usr/lib/jvm/java-8-oracle/db/bin:/usr/lib/jvm/java-8-oracle/jre/bin
+ export PATH
+ opam list
# Packages matching: installed
# Name                 # Installed # Synopsis
base-bigarray          base
base-threads           base
base-unix              base
cairo2                 0.6.2       Binding to Cairo, a 2D Vector Graphics Library
conf-cairo             1           Virtual package relying on a Cairo system installation
conf-gmp               3           Virtual package relying on a GMP lib system installation
conf-gtk3              18          Virtual package relying on GTK+ 3
conf-gtksourceview3    0+2         Virtual package relying on a GtkSourceView-3 system installation
conf-pkg-config        2           Check if pkg-config is installed and create an opam switch local pkgconfig folder
coq                    dev         pinned to version dev at git+https://github.com/gadmm/coq.git#nnp
coq-core               dev         pinned to version dev at git+https://github.com/gadmm/coq.git#nnp
coq-mathcomp-algebra   1.12.0      Mathematical Components Library on Algebra
coq-mathcomp-character 1.12.0      Mathematical Components Library on character theory
coq-mathcomp-field     1.12.0      Mathematical Components Library on Fields
coq-mathcomp-fingroup  1.12.0      Mathematical Components Library on finite groups
coq-mathcomp-solvable  1.12.0      Mathematical Components Library on finite groups (II)
coq-mathcomp-ssreflect 1.12.0      Small Scale Reflection
coq-stdlib             dev         pinned to version dev at git+https://github.com/gadmm/coq.git#nnp
coqide                 dev         pinned to version dev at git+https://github.com/gadmm/coq.git#nnp
coqide-server          dev         pinned to version dev at git+https://github.com/gadmm/coq.git#nnp
csexp                  1.5.1       Parsing and printing of S-expressions in Canonical form
dune                   2.9.0       Fast, portable, and opinionated build system
dune-configurator      2.9.0       Helper library for gathering system configuration
lablgtk3               3.1.1       OCaml interface to GTK+3
lablgtk3-sourceview3   3.1.1       OCaml interface to GTK+ gtksourceview library
ocaml                  4.12.0      The OCaml compiler (virtual package)
ocaml-config           2           OCaml Switch Configuration
ocaml-variants         4.12.0      pinned to version 4.12.0 at git+file:///home/gm/Travail/github/ocaml#page-table-412-stats-alt
ocamlfind              1.9.1       A library manager for OCaml
result                 1.5         Compatibility Result module
zarith                 1.12        Implements arithmetic and logical operations over arbitrary-precision integers
+ false
+ c=install
+ time opam install --skip-updates -j 2 -y coq coq-core coqide coqide-server coq-stdlib
[NOTE] Package coq-stdlib is already installed (current version is dev).
[NOTE] Package coqide-server is already installed (current version is dev).
[NOTE] Package coqide is already installed (current version is dev).
[NOTE] Package coq-core is already installed (current version is dev).
[NOTE] Package coq is already installed (current version is dev).
1.21user 0.12system 0:01.33elapsed 99%CPU (0avgtext+0avgdata 141508maxresident)k
0inputs+120outputs (0major+71838minor)pagefaults 0swaps
+ throttle_control_end
+ cpufreqctl --throttle
+ [ 0 -eq 0 ]
+ IS_THROTTLED=
+ mv /tmp/ocaml-stats-page-table-vas-pt-alt.log coq-opam.log.44-2
mv: impossible d'évaluer '/tmp/ocaml-stats-page-table-vas-pt-alt.log': Aucun fichier ou dossier de ce type
+ cd ..
+ date -R
Tue, 03 Aug 2021 16:08:12 +0200
+ true
+ throttle_control_begin
+ IS_THROTTLED=
+ cpufreqctl --throttle
+ THROTTLE=0
+ cd repo-page-table-vas-pt
+ opam env --switch=. --set-switch
+ eval OPAMSWITCH='/home/gm/Travail/github/ocaml/ocaml-large-pages-experiment/real_perfs/repo-page-table-vas-pt'; export OPAMSWITCH; OPAM_SWITCH_PREFIX='/home/gm/Travail/github/ocaml/ocaml-large-pages-experiment/real_perfs/repo-page-table-vas-pt/_opam'; export OPAM_SWITCH_PREFIX; CAML_LD_LIBRARY_PATH='/home/gm/Travail/github/ocaml/ocaml-large-pages-experiment/real_perfs/repo-page-table-vas-pt/_opam/lib/stublibs:/home/gm/Travail/github/ocaml/ocaml-large-pages-experiment/real_perfs/repo-page-table-vas-pt/_opam/lib/ocaml/stublibs:/home/gm/Travail/github/ocaml/ocaml-large-pages-experiment/real_perfs/repo-page-table-vas-pt/_opam/lib/ocaml'; export CAML_LD_LIBRARY_PATH; OCAML_TOPLEVEL_PATH='/home/gm/Travail/github/ocaml/ocaml-large-pages-experiment/real_perfs/repo-page-table-vas-pt/_opam/lib/toplevel'; export OCAML_TOPLEVEL_PATH; PKG_CONFIG_PATH='/home/gm/Travail/github/ocaml/ocaml-large-pages-experiment/real_perfs/repo-page-table-vas-pt/_opam/lib/pkgconfig'; export PKG_CONFIG_PATH; MANPATH=':/home/gm/Travail/github/ocaml/ocaml-large-pages-experiment/real_perfs/repo-page-table-vas-pt/_opam/man'; export MANPATH; PATH='/home/gm/Travail/github/ocaml/ocaml-large-pages-experiment/real_perfs/repo-page-table-vas-pt/_opam/bin:/home/gm/.cargo/bin:/home/gm/.local/bin:/usr/lib/ccache:/usr/local/sbin:/usr/local/bin:/usr/sbin:/usr/bin:/sbin:/bin:/usr/games:/usr/local/games:/snap/bin:/usr/lib/jvm/java-8-oracle/bin:/usr/lib/jvm/java-8-oracle/db/bin:/usr/lib/jvm/java-8-oracle/jre/bin'; export PATH;
+ OPAMSWITCH=/home/gm/Travail/github/ocaml/ocaml-large-pages-experiment/real_perfs/repo-page-table-vas-pt
+ export OPAMSWITCH
+ OPAM_SWITCH_PREFIX=/home/gm/Travail/github/ocaml/ocaml-large-pages-experiment/real_perfs/repo-page-table-vas-pt/_opam
+ export OPAM_SWITCH_PREFIX
+ CAML_LD_LIBRARY_PATH=/home/gm/Travail/github/ocaml/ocaml-large-pages-experiment/real_perfs/repo-page-table-vas-pt/_opam/lib/stublibs:/home/gm/Travail/github/ocaml/ocaml-large-pages-experiment/real_perfs/repo-page-table-vas-pt/_opam/lib/ocaml/stublibs:/home/gm/Travail/github/ocaml/ocaml-large-pages-experiment/real_perfs/repo-page-table-vas-pt/_opam/lib/ocaml
+ export CAML_LD_LIBRARY_PATH
+ OCAML_TOPLEVEL_PATH=/home/gm/Travail/github/ocaml/ocaml-large-pages-experiment/real_perfs/repo-page-table-vas-pt/_opam/lib/toplevel
+ export OCAML_TOPLEVEL_PATH
+ PKG_CONFIG_PATH=/home/gm/Travail/github/ocaml/ocaml-large-pages-experiment/real_perfs/repo-page-table-vas-pt/_opam/lib/pkgconfig
+ export PKG_CONFIG_PATH
+ MANPATH=:/home/gm/Travail/github/ocaml/ocaml-large-pages-experiment/real_perfs/repo-page-table-vas-pt/_opam/man
+ export MANPATH
+ PATH=/home/gm/Travail/github/ocaml/ocaml-large-pages-experiment/real_perfs/repo-page-table-vas-pt/_opam/bin:/home/gm/.cargo/bin:/home/gm/.local/bin:/usr/lib/ccache:/usr/local/sbin:/usr/local/bin:/usr/sbin:/usr/bin:/sbin:/bin:/usr/games:/usr/local/games:/snap/bin:/usr/lib/jvm/java-8-oracle/bin:/usr/lib/jvm/java-8-oracle/db/bin:/usr/lib/jvm/java-8-oracle/jre/bin
+ export PATH
+ opam list
# Packages matching: installed
# Name                 # Installed # Synopsis
base-bigarray          base
base-threads           base
base-unix              base
cairo2                 0.6.2       Binding to Cairo, a 2D Vector Graphics Library
conf-cairo             1           Virtual package relying on a Cairo system installation
conf-findutils         1           Virtual package relying on findutils
conf-gmp               3           Virtual package relying on a GMP lib system installation
conf-gtk3              18          Virtual package relying on GTK+ 3
conf-gtksourceview3    0+2         Virtual package relying on a GtkSourceView-3 system installation
conf-pkg-config        2           Check if pkg-config is installed and create an opam switch local pkgconfig folder
conf-python-3          1.0.0       Virtual package relying on Python-3 installation
coq                    dev         pinned to version dev at git+https://github.com/gadmm/coq.git#nnp
coq-core               dev         pinned to version dev at git+https://github.com/gadmm/coq.git#nnp
coq-mathcomp-algebra   1.12.0      Mathematical Components Library on Algebra
coq-mathcomp-character 1.12.0      Mathematical Components Library on character theory
coq-mathcomp-field     1.12.0      Mathematical Components Library on Fields
coq-mathcomp-fingroup  1.12.0      Mathematical Components Library on finite groups
coq-mathcomp-solvable  1.12.0      Mathematical Components Library on finite groups (II)
coq-mathcomp-ssreflect 1.12.0      Small Scale Reflection
coq-stdlib             dev         pinned to version dev at git+https://github.com/gadmm/coq.git#nnp
coqide                 dev         pinned to version dev at git+https://github.com/gadmm/coq.git#nnp
coqide-server          dev         pinned to version dev at git+https://github.com/gadmm/coq.git#nnp
csexp                  1.5.1       Parsing and printing of S-expressions in Canonical form
dune                   2.9.0       Fast, portable, and opinionated build system
dune-configurator      2.9.0       Helper library for gathering system configuration
lablgtk3               3.1.1       OCaml interface to GTK+3
lablgtk3-sourceview3   3.1.1       OCaml interface to GTK+ gtksourceview library
ocaml                  4.12.0      The OCaml compiler (virtual package)
ocaml-config           2           OCaml Switch Configuration
ocaml-variants         4.12.0      pinned to version 4.12.0 at git+file:///home/gm/Travail/github/ocaml#page-table-412-stats
ocamlfind              1.9.1       A library manager for OCaml
result                 1.5         Compatibility Result module
zarith                 1.12        Implements arithmetic and logical operations over arbitrary-precision integers
+ opam remove -y coq-mathcomp-odd-order
[NOTE] coq-mathcomp-odd-order is not installed.

Nothing to do.
+ time opam reinstall --skip-updates -j 2 -y coq-mathcomp-character coq-mathcomp-field coq-mathcomp-solvable coq-mathcomp-algebra coq-mathcomp-fingroup coq-mathcomp-ssreflect
The following actions will be performed:
  ↻ recompile coq-mathcomp-ssreflect 1.12.0
  ↻ recompile coq-mathcomp-fingroup  1.12.0
  ↻ recompile coq-mathcomp-algebra   1.12.0
  ↻ recompile coq-mathcomp-solvable  1.12.0
  ↻ recompile coq-mathcomp-field     1.12.0
  ↻ recompile coq-mathcomp-character 1.12.0
===== ↻ 6 =====

<><> Gathering sources ><><><><><><><><><><><><><><><><><><><><><><><><><><><><>
[coq-mathcomp-algebra.1.12.0] found in cache
[coq-mathcomp-character.1.12.0] found in cache
[coq-mathcomp-field.1.12.0] found in cache
[coq-mathcomp-fingroup.1.12.0] found in cache
[coq-mathcomp-solvable.1.12.0] found in cache
[coq-mathcomp-ssreflect.1.12.0] found in cache

<><> Processing actions <><><><><><><><><><><><><><><><><><><><><><><><><><><><>
⊘ removed   coq-mathcomp-character.1.12.0
⊘ removed   coq-mathcomp-field.1.12.0
⊘ removed   coq-mathcomp-solvable.1.12.0
⊘ removed   coq-mathcomp-algebra.1.12.0
⊘ removed   coq-mathcomp-fingroup.1.12.0
⊘ removed   coq-mathcomp-ssreflect.1.12.0
∗ installed coq-mathcomp-ssreflect.1.12.0
∗ installed coq-mathcomp-fingroup.1.12.0
[ERROR] User interruption


<><> Error report <><><><><><><><><><><><><><><><><><><><><><><><><><><><><><><>
┌─ The following actions failed
│ λ build coq-mathcomp-algebra 1.12.0
└─ 
┌─ The following changes have been performed (the rest was aborted)
│ ⊘ remove    coq-mathcomp-algebra   1.12.0
│ ⊘ remove    coq-mathcomp-character 1.12.0
│ ⊘ remove    coq-mathcomp-field     1.12.0
│ ⊘ remove    coq-mathcomp-solvable  1.12.0
│ ↻ recompile coq-mathcomp-fingroup  1.12.0
│ ↻ recompile coq-mathcomp-ssreflect 1.12.0
└─ 

The former state can be restored with:
    opam switch import "/home/gm/Travail/github/ocaml/ocaml-large-pages-experiment/real_perfs/repo-page-table-vas-pt/_opam/.opam-switch/backup/state-20210803140813.export"
Or you can retry to install your package selection with:
    opam install --restore
Command exited with non-zero status 31
93.77user 6.34system 2:09.91elapsed 77%CPU (0avgtext+0avgdata 528680maxresident)k
0inputs+255408outputs (0major+3322774minor)pagefaults 0swaps
