+ REPOS=mark-prefetching-nnp page-table-vas-pt
+ EPOCH=.11
+ TRIALS=4
+ USE_CLANG=false
+ USE_MARCH=false
+ REINSTALL=true
+ BENCH_REINSTALL=true
+ BENCH_GALLINA_DEV=false
+ BENCH_GALLINA_OPAM=false
+ BENCH_MATHCOMP=false
+ DRY=
+ J=2
+ THROTTLE_CMD=cpufreqctl --throttle
+ GALLINA_C=coq coq-core coqide coqide-server coq-stdlib
+ GALLINA_PKGS=coq-mathcomp-character coq-mathcomp-field
              coq-mathcomp-solvable coq-mathcomp-algebra
              coq-mathcomp-fingroup coq-mathcomp-ssreflect
+ export OPAMVAR_ocamlas=as -mbranches-within-32B
+ false
+ MARCH=
+ false
+ export OPAMVAR_ocamlcc=gcc -Wa,-mbranches-within-32B 
+ unset OPAMSWITCH
+ rm /tmp/ocaml-stats-mark-prefetching-nnp.log /tmp/ocaml-stats-page-table-vas-pt.log
+ cd repo-mark-prefetching-nnp
+ opam env --switch=. --set-switch
+ eval OPAMSWITCH='/home/gm/Travail/github/ocaml/ocaml-large-pages-experiment/real_perfs/repo-mark-prefetching-nnp'; export OPAMSWITCH; OPAM_SWITCH_PREFIX='/home/gm/Travail/github/ocaml/ocaml-large-pages-experiment/real_perfs/repo-mark-prefetching-nnp/_opam'; export OPAM_SWITCH_PREFIX; CAML_LD_LIBRARY_PATH='/home/gm/Travail/github/ocaml/ocaml-large-pages-experiment/real_perfs/repo-mark-prefetching-nnp/_opam/lib/stublibs:/home/gm/Travail/github/ocaml/ocaml-large-pages-experiment/real_perfs/repo-mark-prefetching-nnp/_opam/lib/ocaml/stublibs:/home/gm/Travail/github/ocaml/ocaml-large-pages-experiment/real_perfs/repo-mark-prefetching-nnp/_opam/lib/ocaml'; export CAML_LD_LIBRARY_PATH; OCAML_TOPLEVEL_PATH='/home/gm/Travail/github/ocaml/ocaml-large-pages-experiment/real_perfs/repo-mark-prefetching-nnp/_opam/lib/toplevel'; export OCAML_TOPLEVEL_PATH; PKG_CONFIG_PATH='/home/gm/Travail/github/ocaml/ocaml-large-pages-experiment/real_perfs/repo-mark-prefetching-nnp/_opam/lib/pkgconfig'; export PKG_CONFIG_PATH; MANPATH=':/home/gm/Travail/github/ocaml/ocaml-large-pages-experiment/real_perfs/repo-mark-prefetching-nnp/_opam/man'; export MANPATH; PATH='/home/gm/Travail/github/ocaml/ocaml-large-pages-experiment/real_perfs/repo-mark-prefetching-nnp/_opam/bin:/home/gm/.cargo/bin:/home/gm/.local/bin:/usr/lib/ccache:/usr/local/sbin:/usr/local/bin:/usr/sbin:/usr/bin:/sbin:/bin:/usr/games:/usr/local/games:/snap/bin:/usr/lib/jvm/java-8-oracle/bin:/usr/lib/jvm/java-8-oracle/db/bin:/usr/lib/jvm/java-8-oracle/jre/bin'; export PATH;
+ OPAMSWITCH=/home/gm/Travail/github/ocaml/ocaml-large-pages-experiment/real_perfs/repo-mark-prefetching-nnp
+ export OPAMSWITCH
+ OPAM_SWITCH_PREFIX=/home/gm/Travail/github/ocaml/ocaml-large-pages-experiment/real_perfs/repo-mark-prefetching-nnp/_opam
+ export OPAM_SWITCH_PREFIX
+ CAML_LD_LIBRARY_PATH=/home/gm/Travail/github/ocaml/ocaml-large-pages-experiment/real_perfs/repo-mark-prefetching-nnp/_opam/lib/stublibs:/home/gm/Travail/github/ocaml/ocaml-large-pages-experiment/real_perfs/repo-mark-prefetching-nnp/_opam/lib/ocaml/stublibs:/home/gm/Travail/github/ocaml/ocaml-large-pages-experiment/real_perfs/repo-mark-prefetching-nnp/_opam/lib/ocaml
+ export CAML_LD_LIBRARY_PATH
+ OCAML_TOPLEVEL_PATH=/home/gm/Travail/github/ocaml/ocaml-large-pages-experiment/real_perfs/repo-mark-prefetching-nnp/_opam/lib/toplevel
+ export OCAML_TOPLEVEL_PATH
+ PKG_CONFIG_PATH=/home/gm/Travail/github/ocaml/ocaml-large-pages-experiment/real_perfs/repo-mark-prefetching-nnp/_opam/lib/pkgconfig
+ export PKG_CONFIG_PATH
+ MANPATH=:/home/gm/Travail/github/ocaml/ocaml-large-pages-experiment/real_perfs/repo-mark-prefetching-nnp/_opam/man
+ export MANPATH
+ PATH=/home/gm/Travail/github/ocaml/ocaml-large-pages-experiment/real_perfs/repo-mark-prefetching-nnp/_opam/bin:/home/gm/.cargo/bin:/home/gm/.local/bin:/usr/lib/ccache:/usr/local/sbin:/usr/local/bin:/usr/sbin:/usr/bin:/sbin:/bin:/usr/games:/usr/local/games:/snap/bin:/usr/lib/jvm/java-8-oracle/bin:/usr/lib/jvm/java-8-oracle/db/bin:/usr/lib/jvm/java-8-oracle/jre/bin
+ export PATH
+ opam list
# Packages matching: installed
# Name               # Installed # Synopsis
base-bigarray        base
base-threads         base
base-unix            base
cairo2               0.6.2       Binding to Cairo, a 2D Vector Graphics Library
conf-cairo           1           Virtual package relying on a Cairo system installation
conf-findutils       1           Virtual package relying on findutils
conf-gmp             3           Virtual package relying on a GMP lib system installation
conf-gtk3            18          Virtual package relying on GTK+ 3
conf-gtksourceview3  0+2         Virtual package relying on a GtkSourceView-3 system installation
conf-pkg-config      2           Check if pkg-config is installed and create an opam switch local pkgconfig folder
conf-python-3        1.0.0       Virtual package relying on Python-3 installation
csexp                1.5.1       Parsing and printing of S-expressions in Canonical form
dune                 2.9.0       Fast, portable, and opinionated build system
dune-configurator    2.9.0       Helper library for gathering system configuration
lablgtk3             3.1.1       OCaml interface to GTK+3
lablgtk3-sourceview3 3.1.1       OCaml interface to GTK+ gtksourceview library
ocaml                4.12.0      The OCaml compiler (virtual package)
ocaml-config         2           OCaml Switch Configuration
ocaml-variants       4.12.0      pinned to version 4.12.0 at git+file:///home/gm/Travail/github/ocaml#mark-prefetching-412-stats+nnp
ocamlfind            1.9.1       A library manager for OCaml
result               1.5         Compatibility Result module
+ opam remove -y coq num zarith
[NOTE] zarith, num and coq are not installed.

Nothing to do.
+ rm -rf _opam/lib/zarith
+ rm -rf _opam/lib/stublibs/dllzarith.so*
+ true
+ c=reinstall
+ opam reinstall -y ocaml-variants zarith lablgtk3-sourceview3 dune

<><> Synchronising pinned packages ><><><><><><><><><><><><><><><><><><><><><><>
[ocaml-variants.4.12.0] no changes from git+file:///home/gm/Travail/github/ocaml#mark-prefetching-412-stats+nnp

zarith is not installed. Install it? [Y/n] y
The following actions will be performed:
  ↻ recompile ocaml-variants       4.12.0*
  ↻ recompile ocaml-config         2       [uses ocaml-variants]
  ↻ recompile ocaml                4.12.0  [uses ocaml-variants]
  ↻ recompile ocamlfind            1.9.1   [uses ocaml]
  ↻ recompile dune                 2.9.0
  ∗ install   zarith               1.12
  ↻ recompile result               1.5     [uses dune]
  ↻ recompile csexp                1.5.1   [uses dune]
  ↻ recompile dune-configurator    2.9.0   [uses dune]
  ↻ recompile cairo2               0.6.2   [uses dune]
  ↻ recompile lablgtk3             3.1.1   [uses dune]
  ↻ recompile lablgtk3-sourceview3 3.1.1
===== ∗ 1   ↻ 11 =====

<><> Gathering sources ><><><><><><><><><><><><><><><><><><><><><><><><><><><><>
[cairo2.0.6.2] found in cache
[csexp.1.5.1] found in cache
[dune.2.9.0] found in cache
[dune-configurator.2.9.0] found in cache
[lablgtk3.3.1.1] found in cache
[lablgtk3-sourceview3.3.1.1] found in cache
[ocamlfind.1.9.1] found in cache
[result.1.5] found in cache
[zarith.1.12] found in cache

<><> Processing actions <><><><><><><><><><><><><><><><><><><><><><><><><><><><>
⊘ removed   lablgtk3-sourceview3.3.1.1
⊘ removed   lablgtk3.3.1.1
⊘ removed   cairo2.0.6.2
⊘ removed   dune-configurator.2.9.0
⊘ removed   csexp.1.5.1
⊘ removed   ocamlfind.1.9.1
⊘ removed   result.1.5
⊘ removed   dune.2.9.0
⊘ removed   ocaml.4.12.0
⊘ removed   ocaml-config.2
⊘ removed   ocaml-variants.4.12.0
∗ installed ocaml-variants.4.12.0
∗ installed ocaml-config.2
∗ installed ocaml.4.12.0
∗ installed ocamlfind.1.9.1
∗ installed zarith.1.12
∗ installed dune.2.9.0
∗ installed csexp.1.5.1
∗ installed result.1.5
∗ installed dune-configurator.2.9.0
∗ installed cairo2.0.6.2
∗ installed lablgtk3.3.1.1
∗ installed lablgtk3-sourceview3.3.1.1
Done.
+ rm /tmp/ocaml-stats-mark-prefetching-nnp.log
+ cd ..
+ cd repo-page-table-vas-pt
+ opam env --switch=. --set-switch
+ eval OPAMSWITCH='/home/gm/Travail/github/ocaml/ocaml-large-pages-experiment/real_perfs/repo-page-table-vas-pt'; export OPAMSWITCH; OPAM_SWITCH_PREFIX='/home/gm/Travail/github/ocaml/ocaml-large-pages-experiment/real_perfs/repo-page-table-vas-pt/_opam'; export OPAM_SWITCH_PREFIX; CAML_LD_LIBRARY_PATH='/home/gm/Travail/github/ocaml/ocaml-large-pages-experiment/real_perfs/repo-page-table-vas-pt/_opam/lib/stublibs:/home/gm/Travail/github/ocaml/ocaml-large-pages-experiment/real_perfs/repo-page-table-vas-pt/_opam/lib/ocaml/stublibs:/home/gm/Travail/github/ocaml/ocaml-large-pages-experiment/real_perfs/repo-page-table-vas-pt/_opam/lib/ocaml'; export CAML_LD_LIBRARY_PATH; OCAML_TOPLEVEL_PATH='/home/gm/Travail/github/ocaml/ocaml-large-pages-experiment/real_perfs/repo-page-table-vas-pt/_opam/lib/toplevel'; export OCAML_TOPLEVEL_PATH; PKG_CONFIG_PATH='/home/gm/Travail/github/ocaml/ocaml-large-pages-experiment/real_perfs/repo-page-table-vas-pt/_opam/lib/pkgconfig'; export PKG_CONFIG_PATH; MANPATH=':/home/gm/Travail/github/ocaml/ocaml-large-pages-experiment/real_perfs/repo-page-table-vas-pt/_opam/man'; export MANPATH; PATH='/home/gm/Travail/github/ocaml/ocaml-large-pages-experiment/real_perfs/repo-page-table-vas-pt/_opam/bin:/home/gm/.cargo/bin:/home/gm/.local/bin:/usr/lib/ccache:/usr/local/sbin:/usr/local/bin:/usr/sbin:/usr/bin:/sbin:/bin:/usr/games:/usr/local/games:/snap/bin:/usr/lib/jvm/java-8-oracle/bin:/usr/lib/jvm/java-8-oracle/db/bin:/usr/lib/jvm/java-8-oracle/jre/bin'; export PATH;
+ OPAMSWITCH=/home/gm/Travail/github/ocaml/ocaml-large-pages-experiment/real_perfs/repo-page-table-vas-pt
+ export OPAMSWITCH
+ OPAM_SWITCH_PREFIX=/home/gm/Travail/github/ocaml/ocaml-large-pages-experiment/real_perfs/repo-page-table-vas-pt/_opam
+ export OPAM_SWITCH_PREFIX
+ CAML_LD_LIBRARY_PATH=/home/gm/Travail/github/ocaml/ocaml-large-pages-experiment/real_perfs/repo-page-table-vas-pt/_opam/lib/stublibs:/home/gm/Travail/github/ocaml/ocaml-large-pages-experiment/real_perfs/repo-page-table-vas-pt/_opam/lib/ocaml/stublibs:/home/gm/Travail/github/ocaml/ocaml-large-pages-experiment/real_perfs/repo-page-table-vas-pt/_opam/lib/ocaml
+ export CAML_LD_LIBRARY_PATH
+ OCAML_TOPLEVEL_PATH=/home/gm/Travail/github/ocaml/ocaml-large-pages-experiment/real_perfs/repo-page-table-vas-pt/_opam/lib/toplevel
+ export OCAML_TOPLEVEL_PATH
+ PKG_CONFIG_PATH=/home/gm/Travail/github/ocaml/ocaml-large-pages-experiment/real_perfs/repo-page-table-vas-pt/_opam/lib/pkgconfig
+ export PKG_CONFIG_PATH
+ MANPATH=:/home/gm/Travail/github/ocaml/ocaml-large-pages-experiment/real_perfs/repo-page-table-vas-pt/_opam/man
+ export MANPATH
+ PATH=/home/gm/Travail/github/ocaml/ocaml-large-pages-experiment/real_perfs/repo-page-table-vas-pt/_opam/bin:/home/gm/.cargo/bin:/home/gm/.local/bin:/usr/lib/ccache:/usr/local/sbin:/usr/local/bin:/usr/sbin:/usr/bin:/sbin:/bin:/usr/games:/usr/local/games:/snap/bin:/usr/lib/jvm/java-8-oracle/bin:/usr/lib/jvm/java-8-oracle/db/bin:/usr/lib/jvm/java-8-oracle/jre/bin
+ export PATH
+ opam list
# Packages matching: installed
# Name               # Installed # Synopsis
base-bigarray        base
base-threads         base
base-unix            base
cairo2               0.6.2       Binding to Cairo, a 2D Vector Graphics Library
conf-cairo           1           Virtual package relying on a Cairo system installation
conf-findutils       1           Virtual package relying on findutils
conf-gmp             3           Virtual package relying on a GMP lib system installation
conf-gtk3            18          Virtual package relying on GTK+ 3
conf-gtksourceview3  0+2         Virtual package relying on a GtkSourceView-3 system installation
conf-pkg-config      2           Check if pkg-config is installed and create an opam switch local pkgconfig folder
conf-python-3        1.0.0       Virtual package relying on Python-3 installation
dune                 2.9.0       Fast, portable, and opinionated build system
dune-configurator    2.7.0       Helper library for gathering system configuration
lablgtk3             3.1.1       OCaml interface to GTK+3
lablgtk3-sourceview3 3.1.1       OCaml interface to GTK+ gtksourceview library
ocaml                4.12.0      The OCaml compiler (virtual package)
ocaml-config         2           OCaml Switch Configuration
ocaml-variants       4.12.0      pinned to version 4.12.0 at git+file:///home/gm/Travail/github/ocaml#page-table-412-stats
ocamlfind            1.9.1       A library manager for OCaml
zarith               1.12        Implements arithmetic and logical operations over arbitrary-precision integers
+ opam remove -y coq num zarith
[NOTE] num and coq are not installed.

The following actions will be performed:
  ⊘ remove zarith 1.12

<><> Processing actions <><><><><><><><><><><><><><><><><><><><><><><><><><><><>
⊘ removed   zarith.1.12
Done.
+ rm -rf _opam/lib/zarith
+ rm -rf _opam/lib/stublibs/dllzarith.so*
+ true
+ c=reinstall
+ opam reinstall -y ocaml-variants zarith lablgtk3-sourceview3 dune

<><> Synchronising pinned packages ><><><><><><><><><><><><><><><><><><><><><><>
[ocaml-variants.4.12.0] synchronised from git+file:///home/gm/Travail/github/ocaml#page-table-412-stats

zarith is not installed. Install it? [Y/n] y
The following actions will be performed:
  ↻ recompile ocaml-variants       4.12.0*
  ↻ recompile ocaml-config         2       [uses ocaml-variants]
  ↻ recompile ocaml                4.12.0  [uses ocaml-variants]
  ↻ recompile ocamlfind            1.9.1   [uses ocaml]
  ↻ recompile dune                 2.9.0
  ∗ install   zarith               1.12
  ↻ recompile dune-configurator    2.7.0   [uses dune]
  ↻ recompile cairo2               0.6.2   [uses dune]
  ↻ recompile lablgtk3             3.1.1   [uses dune]
  ↻ recompile lablgtk3-sourceview3 3.1.1
===== ∗ 1   ↻ 9 =====

<><> Gathering sources ><><><><><><><><><><><><><><><><><><><><><><><><><><><><>
[cairo2.0.6.2] found in cache
[dune.2.9.0] found in cache
[dune-configurator.2.7.0] found in cache
[lablgtk3.3.1.1] found in cache
[lablgtk3-sourceview3.3.1.1] found in cache
[ocamlfind.1.9.1] found in cache
[zarith.1.12] found in cache

<><> Processing actions <><><><><><><><><><><><><><><><><><><><><><><><><><><><>
⊘ removed   lablgtk3-sourceview3.3.1.1
⊘ removed   lablgtk3.3.1.1
⊘ removed   cairo2.0.6.2
⊘ removed   dune-configurator.2.7.0
⊘ removed   dune.2.9.0
⊘ removed   ocamlfind.1.9.1
⊘ removed   ocaml.4.12.0
⊘ removed   ocaml-config.2
⊘ removed   ocaml-variants.4.12.0
∗ installed ocaml-variants.4.12.0
∗ installed ocaml-config.2
∗ installed ocaml.4.12.0
∗ installed ocamlfind.1.9.1
∗ installed zarith.1.12
∗ installed dune.2.9.0
∗ installed dune-configurator.2.7.0
∗ installed cairo2.0.6.2
∗ installed lablgtk3.3.1.1
∗ installed lablgtk3-sourceview3.3.1.1
Done.
+ rm /tmp/ocaml-stats-page-table-vas-pt.log
+ cd ..
+ seq 0 3
+ TRIAL=-0
+ echo Iteration 0
Iteration 0
+ date -R
Sun, 25 Jul 2021 07:55:26 +0200
+ true
+ throttle_control_begin
+ IS_THROTTLED=
+ cpufreqctl --throttle
+ THROTTLE=343050
+ cd repo-mark-prefetching-nnp
+ opam env --switch=. --set-switch
+ eval OPAMSWITCH='/home/gm/Travail/github/ocaml/ocaml-large-pages-experiment/real_perfs/repo-mark-prefetching-nnp'; export OPAMSWITCH; OPAM_SWITCH_PREFIX='/home/gm/Travail/github/ocaml/ocaml-large-pages-experiment/real_perfs/repo-mark-prefetching-nnp/_opam'; export OPAM_SWITCH_PREFIX; CAML_LD_LIBRARY_PATH='/home/gm/Travail/github/ocaml/ocaml-large-pages-experiment/real_perfs/repo-mark-prefetching-nnp/_opam/lib/stublibs:/home/gm/Travail/github/ocaml/ocaml-large-pages-experiment/real_perfs/repo-mark-prefetching-nnp/_opam/lib/ocaml/stublibs:/home/gm/Travail/github/ocaml/ocaml-large-pages-experiment/real_perfs/repo-mark-prefetching-nnp/_opam/lib/ocaml'; export CAML_LD_LIBRARY_PATH; OCAML_TOPLEVEL_PATH='/home/gm/Travail/github/ocaml/ocaml-large-pages-experiment/real_perfs/repo-mark-prefetching-nnp/_opam/lib/toplevel'; export OCAML_TOPLEVEL_PATH; PKG_CONFIG_PATH='/home/gm/Travail/github/ocaml/ocaml-large-pages-experiment/real_perfs/repo-mark-prefetching-nnp/_opam/lib/pkgconfig'; export PKG_CONFIG_PATH; MANPATH=':/home/gm/Travail/github/ocaml/ocaml-large-pages-experiment/real_perfs/repo-mark-prefetching-nnp/_opam/man'; export MANPATH; PATH='/home/gm/Travail/github/ocaml/ocaml-large-pages-experiment/real_perfs/repo-mark-prefetching-nnp/_opam/bin:/home/gm/.cargo/bin:/home/gm/.local/bin:/usr/lib/ccache:/usr/local/sbin:/usr/local/bin:/usr/sbin:/usr/bin:/sbin:/bin:/usr/games:/usr/local/games:/snap/bin:/usr/lib/jvm/java-8-oracle/bin:/usr/lib/jvm/java-8-oracle/db/bin:/usr/lib/jvm/java-8-oracle/jre/bin'; export PATH;
+ OPAMSWITCH=/home/gm/Travail/github/ocaml/ocaml-large-pages-experiment/real_perfs/repo-mark-prefetching-nnp
+ export OPAMSWITCH
+ OPAM_SWITCH_PREFIX=/home/gm/Travail/github/ocaml/ocaml-large-pages-experiment/real_perfs/repo-mark-prefetching-nnp/_opam
+ export OPAM_SWITCH_PREFIX
+ CAML_LD_LIBRARY_PATH=/home/gm/Travail/github/ocaml/ocaml-large-pages-experiment/real_perfs/repo-mark-prefetching-nnp/_opam/lib/stublibs:/home/gm/Travail/github/ocaml/ocaml-large-pages-experiment/real_perfs/repo-mark-prefetching-nnp/_opam/lib/ocaml/stublibs:/home/gm/Travail/github/ocaml/ocaml-large-pages-experiment/real_perfs/repo-mark-prefetching-nnp/_opam/lib/ocaml
+ export CAML_LD_LIBRARY_PATH
+ OCAML_TOPLEVEL_PATH=/home/gm/Travail/github/ocaml/ocaml-large-pages-experiment/real_perfs/repo-mark-prefetching-nnp/_opam/lib/toplevel
+ export OCAML_TOPLEVEL_PATH
+ PKG_CONFIG_PATH=/home/gm/Travail/github/ocaml/ocaml-large-pages-experiment/real_perfs/repo-mark-prefetching-nnp/_opam/lib/pkgconfig
+ export PKG_CONFIG_PATH
+ MANPATH=:/home/gm/Travail/github/ocaml/ocaml-large-pages-experiment/real_perfs/repo-mark-prefetching-nnp/_opam/man
+ export MANPATH
+ PATH=/home/gm/Travail/github/ocaml/ocaml-large-pages-experiment/real_perfs/repo-mark-prefetching-nnp/_opam/bin:/home/gm/.cargo/bin:/home/gm/.local/bin:/usr/lib/ccache:/usr/local/sbin:/usr/local/bin:/usr/sbin:/usr/bin:/sbin:/bin:/usr/games:/usr/local/games:/snap/bin:/usr/lib/jvm/java-8-oracle/bin:/usr/lib/jvm/java-8-oracle/db/bin:/usr/lib/jvm/java-8-oracle/jre/bin
+ export PATH
+ opam list
# Packages matching: installed
# Name               # Installed # Synopsis
base-bigarray        base
base-threads         base
base-unix            base
cairo2               0.6.2       Binding to Cairo, a 2D Vector Graphics Library
conf-cairo           1           Virtual package relying on a Cairo system installation
conf-findutils       1           Virtual package relying on findutils
conf-gmp             3           Virtual package relying on a GMP lib system installation
conf-gtk3            18          Virtual package relying on GTK+ 3
conf-gtksourceview3  0+2         Virtual package relying on a GtkSourceView-3 system installation
conf-pkg-config      2           Check if pkg-config is installed and create an opam switch local pkgconfig folder
conf-python-3        1.0.0       Virtual package relying on Python-3 installation
csexp                1.5.1       Parsing and printing of S-expressions in Canonical form
dune                 2.9.0       Fast, portable, and opinionated build system
dune-configurator    2.9.0       Helper library for gathering system configuration
lablgtk3             3.1.1       OCaml interface to GTK+3
lablgtk3-sourceview3 3.1.1       OCaml interface to GTK+ gtksourceview library
ocaml                4.12.0      The OCaml compiler (virtual package)
ocaml-config         2           OCaml Switch Configuration
ocaml-variants       4.12.0      pinned to version 4.12.0 at git+file:///home/gm/Travail/github/ocaml#mark-prefetching-412-stats+nnp
ocamlfind            1.9.1       A library manager for OCaml
result               1.5         Compatibility Result module
zarith               1.12        Implements arithmetic and logical operations over arbitrary-precision integers
+ opam remove -y coq num zarith
[NOTE] num and coq are not installed.

The following actions will be performed:
  ⊘ remove zarith 1.12

<><> Processing actions <><><><><><><><><><><><><><><><><><><><><><><><><><><><>
⊘ removed   zarith.1.12
Done.
+ rm -rf _opam/lib/zarith
+ rm -rf _opam/lib/stublibs/dllzarith.so*
+ opam reinstall -j 2 -y ocaml-variants zarith

<><> Synchronising pinned packages ><><><><><><><><><><><><><><><><><><><><><><>
[ocaml-variants.4.12.0] no changes from git+file:///home/gm/Travail/github/ocaml#mark-prefetching-412-stats+nnp

zarith is not installed. Install it? [Y/n] y
The following actions will be performed:
  ↻ recompile ocaml-variants       4.12.0*
  ↻ recompile ocaml-config         2       [uses ocaml-variants]
  ↻ recompile ocaml                4.12.0  [uses ocaml-variants]
  ↻ recompile ocamlfind            1.9.1   [uses ocaml]
  ↻ recompile dune                 2.9.0   [uses ocaml]
  ∗ install   zarith               1.12
  ↻ recompile result               1.5     [uses ocaml]
  ↻ recompile csexp                1.5.1   [uses ocaml]
  ↻ recompile dune-configurator    2.9.0   [uses ocaml]
  ↻ recompile cairo2               0.6.2   [uses ocaml]
  ↻ recompile lablgtk3             3.1.1   [uses ocaml]
  ↻ recompile lablgtk3-sourceview3 3.1.1   [uses ocaml]
===== ∗ 1   ↻ 11 =====

<><> Gathering sources ><><><><><><><><><><><><><><><><><><><><><><><><><><><><>
[cairo2.0.6.2] found in cache
[csexp.1.5.1] found in cache
[dune.2.9.0] found in cache
[dune-configurator.2.9.0] found in cache
[lablgtk3.3.1.1] found in cache
[lablgtk3-sourceview3.3.1.1] found in cache
[ocamlfind.1.9.1] found in cache
[result.1.5] found in cache
[zarith.1.12] found in cache

<><> Processing actions <><><><><><><><><><><><><><><><><><><><><><><><><><><><>
⊘ removed   lablgtk3-sourceview3.3.1.1
⊘ removed   lablgtk3.3.1.1
⊘ removed   cairo2.0.6.2
⊘ removed   dune-configurator.2.9.0
⊘ removed   csexp.1.5.1
⊘ removed   ocamlfind.1.9.1
⊘ removed   result.1.5
⊘ removed   dune.2.9.0
⊘ removed   ocaml.4.12.0
⊘ removed   ocaml-config.2
⊘ removed   ocaml-variants.4.12.0
∗ installed ocaml-variants.4.12.0
∗ installed ocaml-config.2
∗ installed ocaml.4.12.0
∗ installed ocamlfind.1.9.1
∗ installed zarith.1.12
∗ installed dune.2.9.0
∗ installed csexp.1.5.1
∗ installed result.1.5
∗ installed dune-configurator.2.9.0
∗ installed cairo2.0.6.2
∗ installed lablgtk3.3.1.1
∗ installed lablgtk3-sourceview3.3.1.1
Done.
+ throttle_control_end
+ cpufreqctl --throttle
+ [ 343050 -eq 343050 ]
+ IS_THROTTLED=
+ mv /tmp/ocaml-stats-mark-prefetching-nnp.log reinstall-ocaml-variants.log.11-0
+ cd ..
+ throttle_control_begin
+ IS_THROTTLED=
+ cpufreqctl --throttle
+ THROTTLE=343050
+ cd repo-page-table-vas-pt
+ opam env --switch=. --set-switch
+ eval OPAMSWITCH='/home/gm/Travail/github/ocaml/ocaml-large-pages-experiment/real_perfs/repo-page-table-vas-pt'; export OPAMSWITCH; OPAM_SWITCH_PREFIX='/home/gm/Travail/github/ocaml/ocaml-large-pages-experiment/real_perfs/repo-page-table-vas-pt/_opam'; export OPAM_SWITCH_PREFIX; CAML_LD_LIBRARY_PATH='/home/gm/Travail/github/ocaml/ocaml-large-pages-experiment/real_perfs/repo-page-table-vas-pt/_opam/lib/stublibs:/home/gm/Travail/github/ocaml/ocaml-large-pages-experiment/real_perfs/repo-page-table-vas-pt/_opam/lib/ocaml/stublibs:/home/gm/Travail/github/ocaml/ocaml-large-pages-experiment/real_perfs/repo-page-table-vas-pt/_opam/lib/ocaml'; export CAML_LD_LIBRARY_PATH; OCAML_TOPLEVEL_PATH='/home/gm/Travail/github/ocaml/ocaml-large-pages-experiment/real_perfs/repo-page-table-vas-pt/_opam/lib/toplevel'; export OCAML_TOPLEVEL_PATH; PKG_CONFIG_PATH='/home/gm/Travail/github/ocaml/ocaml-large-pages-experiment/real_perfs/repo-page-table-vas-pt/_opam/lib/pkgconfig'; export PKG_CONFIG_PATH; MANPATH=':/home/gm/Travail/github/ocaml/ocaml-large-pages-experiment/real_perfs/repo-page-table-vas-pt/_opam/man'; export MANPATH; PATH='/home/gm/Travail/github/ocaml/ocaml-large-pages-experiment/real_perfs/repo-page-table-vas-pt/_opam/bin:/home/gm/.cargo/bin:/home/gm/.local/bin:/usr/lib/ccache:/usr/local/sbin:/usr/local/bin:/usr/sbin:/usr/bin:/sbin:/bin:/usr/games:/usr/local/games:/snap/bin:/usr/lib/jvm/java-8-oracle/bin:/usr/lib/jvm/java-8-oracle/db/bin:/usr/lib/jvm/java-8-oracle/jre/bin'; export PATH;
+ OPAMSWITCH=/home/gm/Travail/github/ocaml/ocaml-large-pages-experiment/real_perfs/repo-page-table-vas-pt
+ export OPAMSWITCH
+ OPAM_SWITCH_PREFIX=/home/gm/Travail/github/ocaml/ocaml-large-pages-experiment/real_perfs/repo-page-table-vas-pt/_opam
+ export OPAM_SWITCH_PREFIX
+ CAML_LD_LIBRARY_PATH=/home/gm/Travail/github/ocaml/ocaml-large-pages-experiment/real_perfs/repo-page-table-vas-pt/_opam/lib/stublibs:/home/gm/Travail/github/ocaml/ocaml-large-pages-experiment/real_perfs/repo-page-table-vas-pt/_opam/lib/ocaml/stublibs:/home/gm/Travail/github/ocaml/ocaml-large-pages-experiment/real_perfs/repo-page-table-vas-pt/_opam/lib/ocaml
+ export CAML_LD_LIBRARY_PATH
+ OCAML_TOPLEVEL_PATH=/home/gm/Travail/github/ocaml/ocaml-large-pages-experiment/real_perfs/repo-page-table-vas-pt/_opam/lib/toplevel
+ export OCAML_TOPLEVEL_PATH
+ PKG_CONFIG_PATH=/home/gm/Travail/github/ocaml/ocaml-large-pages-experiment/real_perfs/repo-page-table-vas-pt/_opam/lib/pkgconfig
+ export PKG_CONFIG_PATH
+ MANPATH=:/home/gm/Travail/github/ocaml/ocaml-large-pages-experiment/real_perfs/repo-page-table-vas-pt/_opam/man
+ export MANPATH
+ PATH=/home/gm/Travail/github/ocaml/ocaml-large-pages-experiment/real_perfs/repo-page-table-vas-pt/_opam/bin:/home/gm/.cargo/bin:/home/gm/.local/bin:/usr/lib/ccache:/usr/local/sbin:/usr/local/bin:/usr/sbin:/usr/bin:/sbin:/bin:/usr/games:/usr/local/games:/snap/bin:/usr/lib/jvm/java-8-oracle/bin:/usr/lib/jvm/java-8-oracle/db/bin:/usr/lib/jvm/java-8-oracle/jre/bin
+ export PATH
+ opam list
# Packages matching: installed
# Name               # Installed # Synopsis
base-bigarray        base
base-threads         base
base-unix            base
cairo2               0.6.2       Binding to Cairo, a 2D Vector Graphics Library
conf-cairo           1           Virtual package relying on a Cairo system installation
conf-findutils       1           Virtual package relying on findutils
conf-gmp             3           Virtual package relying on a GMP lib system installation
conf-gtk3            18          Virtual package relying on GTK+ 3
conf-gtksourceview3  0+2         Virtual package relying on a GtkSourceView-3 system installation
conf-pkg-config      2           Check if pkg-config is installed and create an opam switch local pkgconfig folder
conf-python-3        1.0.0       Virtual package relying on Python-3 installation
dune                 2.9.0       Fast, portable, and opinionated build system
dune-configurator    2.7.0       Helper library for gathering system configuration
lablgtk3             3.1.1       OCaml interface to GTK+3
lablgtk3-sourceview3 3.1.1       OCaml interface to GTK+ gtksourceview library
ocaml                4.12.0      The OCaml compiler (virtual package)
ocaml-config         2           OCaml Switch Configuration
ocaml-variants       4.12.0      pinned to version 4.12.0 at git+file:///home/gm/Travail/github/ocaml#page-table-412-stats
ocamlfind            1.9.1       A library manager for OCaml
zarith               1.12        Implements arithmetic and logical operations over arbitrary-precision integers
+ opam remove -y coq num zarith
[NOTE] num and coq are not installed.

The following actions will be performed:
  ⊘ remove zarith 1.12

<><> Processing actions <><><><><><><><><><><><><><><><><><><><><><><><><><><><>
⊘ removed   zarith.1.12
Done.
+ rm -rf _opam/lib/zarith
+ rm -rf _opam/lib/stublibs/dllzarith.so*
+ opam reinstall -j 2 -y ocaml-variants zarith

<><> Synchronising pinned packages ><><><><><><><><><><><><><><><><><><><><><><>
[ocaml-variants.4.12.0] no changes from git+file:///home/gm/Travail/github/ocaml#page-table-412-stats

zarith is not installed. Install it? [Y/n] y
The following actions will be performed:
  ↻ recompile ocaml-variants       4.12.0*
  ↻ recompile ocaml-config         2       [uses ocaml-variants]
  ↻ recompile ocaml                4.12.0  [uses ocaml-variants]
  ↻ recompile ocamlfind            1.9.1   [uses ocaml]
  ↻ recompile dune                 2.9.0   [uses ocaml]
  ∗ install   zarith               1.12
  ↻ recompile dune-configurator    2.7.0   [uses ocaml]
  ↻ recompile cairo2               0.6.2   [uses ocaml]
  ↻ recompile lablgtk3             3.1.1   [uses ocaml]
  ↻ recompile lablgtk3-sourceview3 3.1.1   [uses ocaml]
===== ∗ 1   ↻ 9 =====

<><> Gathering sources ><><><><><><><><><><><><><><><><><><><><><><><><><><><><>
[cairo2.0.6.2] found in cache
[dune.2.9.0] found in cache
[dune-configurator.2.7.0] found in cache
[lablgtk3.3.1.1] found in cache
[lablgtk3-sourceview3.3.1.1] found in cache
[ocamlfind.1.9.1] found in cache
[zarith.1.12] found in cache

<><> Processing actions <><><><><><><><><><><><><><><><><><><><><><><><><><><><>
⊘ removed   lablgtk3-sourceview3.3.1.1
⊘ removed   lablgtk3.3.1.1
⊘ removed   cairo2.0.6.2
⊘ removed   dune-configurator.2.7.0
⊘ removed   dune.2.9.0
⊘ removed   ocamlfind.1.9.1
⊘ removed   ocaml.4.12.0
⊘ removed   ocaml-config.2
⊘ removed   ocaml-variants.4.12.0
∗ installed ocaml-variants.4.12.0
∗ installed ocaml-config.2
∗ installed ocaml.4.12.0
∗ installed ocamlfind.1.9.1
∗ installed zarith.1.12
∗ installed dune.2.9.0
∗ installed dune-configurator.2.7.0
∗ installed cairo2.0.6.2
∗ installed lablgtk3.3.1.1
∗ installed lablgtk3-sourceview3.3.1.1
Done.
+ throttle_control_end
+ cpufreqctl --throttle
+ [ 343050 -eq 343050 ]
+ IS_THROTTLED=
+ mv /tmp/ocaml-stats-page-table-vas-pt.log reinstall-ocaml-variants.log.11-0
+ cd ..
+ date -R
Sun, 25 Jul 2021 08:01:55 +0200
+ false
+ false
+ false
+ TRIAL=-1
+ echo Iteration 1
Iteration 1
+ date -R
Sun, 25 Jul 2021 08:01:55 +0200
+ true
+ throttle_control_begin
+ IS_THROTTLED=
+ cpufreqctl --throttle
+ THROTTLE=343050
+ cd repo-mark-prefetching-nnp
+ opam env --switch=. --set-switch
+ eval OPAMSWITCH='/home/gm/Travail/github/ocaml/ocaml-large-pages-experiment/real_perfs/repo-mark-prefetching-nnp'; export OPAMSWITCH; OPAM_SWITCH_PREFIX='/home/gm/Travail/github/ocaml/ocaml-large-pages-experiment/real_perfs/repo-mark-prefetching-nnp/_opam'; export OPAM_SWITCH_PREFIX; CAML_LD_LIBRARY_PATH='/home/gm/Travail/github/ocaml/ocaml-large-pages-experiment/real_perfs/repo-mark-prefetching-nnp/_opam/lib/stublibs:/home/gm/Travail/github/ocaml/ocaml-large-pages-experiment/real_perfs/repo-mark-prefetching-nnp/_opam/lib/ocaml/stublibs:/home/gm/Travail/github/ocaml/ocaml-large-pages-experiment/real_perfs/repo-mark-prefetching-nnp/_opam/lib/ocaml'; export CAML_LD_LIBRARY_PATH; OCAML_TOPLEVEL_PATH='/home/gm/Travail/github/ocaml/ocaml-large-pages-experiment/real_perfs/repo-mark-prefetching-nnp/_opam/lib/toplevel'; export OCAML_TOPLEVEL_PATH; PKG_CONFIG_PATH='/home/gm/Travail/github/ocaml/ocaml-large-pages-experiment/real_perfs/repo-mark-prefetching-nnp/_opam/lib/pkgconfig'; export PKG_CONFIG_PATH; MANPATH=':/home/gm/Travail/github/ocaml/ocaml-large-pages-experiment/real_perfs/repo-mark-prefetching-nnp/_opam/man'; export MANPATH; PATH='/home/gm/Travail/github/ocaml/ocaml-large-pages-experiment/real_perfs/repo-mark-prefetching-nnp/_opam/bin:/home/gm/.cargo/bin:/home/gm/.local/bin:/usr/lib/ccache:/usr/local/sbin:/usr/local/bin:/usr/sbin:/usr/bin:/sbin:/bin:/usr/games:/usr/local/games:/snap/bin:/usr/lib/jvm/java-8-oracle/bin:/usr/lib/jvm/java-8-oracle/db/bin:/usr/lib/jvm/java-8-oracle/jre/bin'; export PATH;
+ OPAMSWITCH=/home/gm/Travail/github/ocaml/ocaml-large-pages-experiment/real_perfs/repo-mark-prefetching-nnp
+ export OPAMSWITCH
+ OPAM_SWITCH_PREFIX=/home/gm/Travail/github/ocaml/ocaml-large-pages-experiment/real_perfs/repo-mark-prefetching-nnp/_opam
+ export OPAM_SWITCH_PREFIX
+ CAML_LD_LIBRARY_PATH=/home/gm/Travail/github/ocaml/ocaml-large-pages-experiment/real_perfs/repo-mark-prefetching-nnp/_opam/lib/stublibs:/home/gm/Travail/github/ocaml/ocaml-large-pages-experiment/real_perfs/repo-mark-prefetching-nnp/_opam/lib/ocaml/stublibs:/home/gm/Travail/github/ocaml/ocaml-large-pages-experiment/real_perfs/repo-mark-prefetching-nnp/_opam/lib/ocaml
+ export CAML_LD_LIBRARY_PATH
+ OCAML_TOPLEVEL_PATH=/home/gm/Travail/github/ocaml/ocaml-large-pages-experiment/real_perfs/repo-mark-prefetching-nnp/_opam/lib/toplevel
+ export OCAML_TOPLEVEL_PATH
+ PKG_CONFIG_PATH=/home/gm/Travail/github/ocaml/ocaml-large-pages-experiment/real_perfs/repo-mark-prefetching-nnp/_opam/lib/pkgconfig
+ export PKG_CONFIG_PATH
+ MANPATH=:/home/gm/Travail/github/ocaml/ocaml-large-pages-experiment/real_perfs/repo-mark-prefetching-nnp/_opam/man
+ export MANPATH
+ PATH=/home/gm/Travail/github/ocaml/ocaml-large-pages-experiment/real_perfs/repo-mark-prefetching-nnp/_opam/bin:/home/gm/.cargo/bin:/home/gm/.local/bin:/usr/lib/ccache:/usr/local/sbin:/usr/local/bin:/usr/sbin:/usr/bin:/sbin:/bin:/usr/games:/usr/local/games:/snap/bin:/usr/lib/jvm/java-8-oracle/bin:/usr/lib/jvm/java-8-oracle/db/bin:/usr/lib/jvm/java-8-oracle/jre/bin
+ export PATH
+ opam list
# Packages matching: installed
# Name               # Installed # Synopsis
base-bigarray        base
base-threads         base
base-unix            base
cairo2               0.6.2       Binding to Cairo, a 2D Vector Graphics Library
conf-cairo           1           Virtual package relying on a Cairo system installation
conf-findutils       1           Virtual package relying on findutils
conf-gmp             3           Virtual package relying on a GMP lib system installation
conf-gtk3            18          Virtual package relying on GTK+ 3
conf-gtksourceview3  0+2         Virtual package relying on a GtkSourceView-3 system installation
conf-pkg-config      2           Check if pkg-config is installed and create an opam switch local pkgconfig folder
conf-python-3        1.0.0       Virtual package relying on Python-3 installation
csexp                1.5.1       Parsing and printing of S-expressions in Canonical form
dune                 2.9.0       Fast, portable, and opinionated build system
dune-configurator    2.9.0       Helper library for gathering system configuration
lablgtk3             3.1.1       OCaml interface to GTK+3
lablgtk3-sourceview3 3.1.1       OCaml interface to GTK+ gtksourceview library
ocaml                4.12.0      The OCaml compiler (virtual package)
ocaml-config         2           OCaml Switch Configuration
ocaml-variants       4.12.0      pinned to version 4.12.0 at git+file:///home/gm/Travail/github/ocaml#mark-prefetching-412-stats+nnp
ocamlfind            1.9.1       A library manager for OCaml
result               1.5         Compatibility Result module
zarith               1.12        Implements arithmetic and logical operations over arbitrary-precision integers
+ opam remove -y coq num zarith
[NOTE] num and coq are not installed.

The following actions will be performed:
  ⊘ remove zarith 1.12

<><> Processing actions <><><><><><><><><><><><><><><><><><><><><><><><><><><><>
⊘ removed   zarith.1.12
Done.
+ rm -rf _opam/lib/zarith
+ rm -rf _opam/lib/stublibs/dllzarith.so*
+ opam reinstall -j 2 -y ocaml-variants zarith

<><> Synchronising pinned packages ><><><><><><><><><><><><><><><><><><><><><><>
[ocaml-variants.4.12.0] no changes from git+file:///home/gm/Travail/github/ocaml#mark-prefetching-412-stats+nnp

zarith is not installed. Install it? [Y/n] y
The following actions will be performed:
  ↻ recompile ocaml-variants       4.12.0*
  ↻ recompile ocaml-config         2       [uses ocaml-variants]
  ↻ recompile ocaml                4.12.0  [uses ocaml-variants]
  ↻ recompile ocamlfind            1.9.1   [uses ocaml]
  ↻ recompile dune                 2.9.0   [uses ocaml]
  ∗ install   zarith               1.12
  ↻ recompile result               1.5     [uses ocaml]
  ↻ recompile csexp                1.5.1   [uses ocaml]
  ↻ recompile dune-configurator    2.9.0   [uses ocaml]
  ↻ recompile cairo2               0.6.2   [uses ocaml]
  ↻ recompile lablgtk3             3.1.1   [uses ocaml]
  ↻ recompile lablgtk3-sourceview3 3.1.1   [uses ocaml]
===== ∗ 1   ↻ 11 =====

<><> Gathering sources ><><><><><><><><><><><><><><><><><><><><><><><><><><><><>
[cairo2.0.6.2] found in cache
[csexp.1.5.1] found in cache
[dune.2.9.0] found in cache
[dune-configurator.2.9.0] found in cache
[lablgtk3.3.1.1] found in cache
[lablgtk3-sourceview3.3.1.1] found in cache
[ocamlfind.1.9.1] found in cache
[result.1.5] found in cache
[zarith.1.12] found in cache

<><> Processing actions <><><><><><><><><><><><><><><><><><><><><><><><><><><><>
⊘ removed   lablgtk3-sourceview3.3.1.1
⊘ removed   lablgtk3.3.1.1
⊘ removed   cairo2.0.6.2
⊘ removed   dune-configurator.2.9.0
⊘ removed   csexp.1.5.1
⊘ removed   ocamlfind.1.9.1
⊘ removed   result.1.5
⊘ removed   dune.2.9.0
⊘ removed   ocaml.4.12.0
⊘ removed   ocaml-config.2
⊘ removed   ocaml-variants.4.12.0
∗ installed ocaml-variants.4.12.0
∗ installed ocaml-config.2
∗ installed ocaml.4.12.0
∗ installed ocamlfind.1.9.1
∗ installed zarith.1.12
∗ installed dune.2.9.0
∗ installed csexp.1.5.1
∗ installed result.1.5
∗ installed dune-configurator.2.9.0
∗ installed cairo2.0.6.2
∗ installed lablgtk3.3.1.1
∗ installed lablgtk3-sourceview3.3.1.1
Done.
+ throttle_control_end
+ cpufreqctl --throttle
+ [ 343050 -eq 343050 ]
+ IS_THROTTLED=
+ mv /tmp/ocaml-stats-mark-prefetching-nnp.log reinstall-ocaml-variants.log.11-1
+ cd ..
+ throttle_control_begin
+ IS_THROTTLED=
+ cpufreqctl --throttle
+ THROTTLE=343050
+ cd repo-page-table-vas-pt
+ opam env --switch=. --set-switch
+ eval OPAMSWITCH='/home/gm/Travail/github/ocaml/ocaml-large-pages-experiment/real_perfs/repo-page-table-vas-pt'; export OPAMSWITCH; OPAM_SWITCH_PREFIX='/home/gm/Travail/github/ocaml/ocaml-large-pages-experiment/real_perfs/repo-page-table-vas-pt/_opam'; export OPAM_SWITCH_PREFIX; CAML_LD_LIBRARY_PATH='/home/gm/Travail/github/ocaml/ocaml-large-pages-experiment/real_perfs/repo-page-table-vas-pt/_opam/lib/stublibs:/home/gm/Travail/github/ocaml/ocaml-large-pages-experiment/real_perfs/repo-page-table-vas-pt/_opam/lib/ocaml/stublibs:/home/gm/Travail/github/ocaml/ocaml-large-pages-experiment/real_perfs/repo-page-table-vas-pt/_opam/lib/ocaml'; export CAML_LD_LIBRARY_PATH; OCAML_TOPLEVEL_PATH='/home/gm/Travail/github/ocaml/ocaml-large-pages-experiment/real_perfs/repo-page-table-vas-pt/_opam/lib/toplevel'; export OCAML_TOPLEVEL_PATH; PKG_CONFIG_PATH='/home/gm/Travail/github/ocaml/ocaml-large-pages-experiment/real_perfs/repo-page-table-vas-pt/_opam/lib/pkgconfig'; export PKG_CONFIG_PATH; MANPATH=':/home/gm/Travail/github/ocaml/ocaml-large-pages-experiment/real_perfs/repo-page-table-vas-pt/_opam/man'; export MANPATH; PATH='/home/gm/Travail/github/ocaml/ocaml-large-pages-experiment/real_perfs/repo-page-table-vas-pt/_opam/bin:/home/gm/.cargo/bin:/home/gm/.local/bin:/usr/lib/ccache:/usr/local/sbin:/usr/local/bin:/usr/sbin:/usr/bin:/sbin:/bin:/usr/games:/usr/local/games:/snap/bin:/usr/lib/jvm/java-8-oracle/bin:/usr/lib/jvm/java-8-oracle/db/bin:/usr/lib/jvm/java-8-oracle/jre/bin'; export PATH;
+ OPAMSWITCH=/home/gm/Travail/github/ocaml/ocaml-large-pages-experiment/real_perfs/repo-page-table-vas-pt
+ export OPAMSWITCH
+ OPAM_SWITCH_PREFIX=/home/gm/Travail/github/ocaml/ocaml-large-pages-experiment/real_perfs/repo-page-table-vas-pt/_opam
+ export OPAM_SWITCH_PREFIX
+ CAML_LD_LIBRARY_PATH=/home/gm/Travail/github/ocaml/ocaml-large-pages-experiment/real_perfs/repo-page-table-vas-pt/_opam/lib/stublibs:/home/gm/Travail/github/ocaml/ocaml-large-pages-experiment/real_perfs/repo-page-table-vas-pt/_opam/lib/ocaml/stublibs:/home/gm/Travail/github/ocaml/ocaml-large-pages-experiment/real_perfs/repo-page-table-vas-pt/_opam/lib/ocaml
+ export CAML_LD_LIBRARY_PATH
+ OCAML_TOPLEVEL_PATH=/home/gm/Travail/github/ocaml/ocaml-large-pages-experiment/real_perfs/repo-page-table-vas-pt/_opam/lib/toplevel
+ export OCAML_TOPLEVEL_PATH
+ PKG_CONFIG_PATH=/home/gm/Travail/github/ocaml/ocaml-large-pages-experiment/real_perfs/repo-page-table-vas-pt/_opam/lib/pkgconfig
+ export PKG_CONFIG_PATH
+ MANPATH=:/home/gm/Travail/github/ocaml/ocaml-large-pages-experiment/real_perfs/repo-page-table-vas-pt/_opam/man
+ export MANPATH
+ PATH=/home/gm/Travail/github/ocaml/ocaml-large-pages-experiment/real_perfs/repo-page-table-vas-pt/_opam/bin:/home/gm/.cargo/bin:/home/gm/.local/bin:/usr/lib/ccache:/usr/local/sbin:/usr/local/bin:/usr/sbin:/usr/bin:/sbin:/bin:/usr/games:/usr/local/games:/snap/bin:/usr/lib/jvm/java-8-oracle/bin:/usr/lib/jvm/java-8-oracle/db/bin:/usr/lib/jvm/java-8-oracle/jre/bin
+ export PATH
+ opam list
# Packages matching: installed
# Name               # Installed # Synopsis
base-bigarray        base
base-threads         base
base-unix            base
cairo2               0.6.2       Binding to Cairo, a 2D Vector Graphics Library
conf-cairo           1           Virtual package relying on a Cairo system installation
conf-findutils       1           Virtual package relying on findutils
conf-gmp             3           Virtual package relying on a GMP lib system installation
conf-gtk3            18          Virtual package relying on GTK+ 3
conf-gtksourceview3  0+2         Virtual package relying on a GtkSourceView-3 system installation
conf-pkg-config      2           Check if pkg-config is installed and create an opam switch local pkgconfig folder
conf-python-3        1.0.0       Virtual package relying on Python-3 installation
dune                 2.9.0       Fast, portable, and opinionated build system
dune-configurator    2.7.0       Helper library for gathering system configuration
lablgtk3             3.1.1       OCaml interface to GTK+3
lablgtk3-sourceview3 3.1.1       OCaml interface to GTK+ gtksourceview library
ocaml                4.12.0      The OCaml compiler (virtual package)
ocaml-config         2           OCaml Switch Configuration
ocaml-variants       4.12.0      pinned to version 4.12.0 at git+file:///home/gm/Travail/github/ocaml#page-table-412-stats
ocamlfind            1.9.1       A library manager for OCaml
zarith               1.12        Implements arithmetic and logical operations over arbitrary-precision integers
+ opam remove -y coq num zarith
[NOTE] num and coq are not installed.

The following actions will be performed:
  ⊘ remove zarith 1.12

<><> Processing actions <><><><><><><><><><><><><><><><><><><><><><><><><><><><>
⊘ removed   zarith.1.12
Done.
+ rm -rf _opam/lib/zarith
+ rm -rf _opam/lib/stublibs/dllzarith.so*
+ opam reinstall -j 2 -y ocaml-variants zarith

<><> Synchronising pinned packages ><><><><><><><><><><><><><><><><><><><><><><>
[ocaml-variants.4.12.0] no changes from git+file:///home/gm/Travail/github/ocaml#page-table-412-stats

zarith is not installed. Install it? [Y/n] y
The following actions will be performed:
  ↻ recompile ocaml-variants       4.12.0*
  ↻ recompile ocaml-config         2       [uses ocaml-variants]
  ↻ recompile ocaml                4.12.0  [uses ocaml-variants]
  ↻ recompile ocamlfind            1.9.1   [uses ocaml]
  ↻ recompile dune                 2.9.0   [uses ocaml]
  ∗ install   zarith               1.12
  ↻ recompile dune-configurator    2.7.0   [uses ocaml]
  ↻ recompile cairo2               0.6.2   [uses ocaml]
  ↻ recompile lablgtk3             3.1.1   [uses ocaml]
  ↻ recompile lablgtk3-sourceview3 3.1.1   [uses ocaml]
===== ∗ 1   ↻ 9 =====

<><> Gathering sources ><><><><><><><><><><><><><><><><><><><><><><><><><><><><>
[cairo2.0.6.2] found in cache
[dune.2.9.0] found in cache
[dune-configurator.2.7.0] found in cache
[lablgtk3.3.1.1] found in cache
[lablgtk3-sourceview3.3.1.1] found in cache
[ocamlfind.1.9.1] found in cache
[zarith.1.12] found in cache

<><> Processing actions <><><><><><><><><><><><><><><><><><><><><><><><><><><><>
⊘ removed   lablgtk3-sourceview3.3.1.1
⊘ removed   lablgtk3.3.1.1
⊘ removed   cairo2.0.6.2
⊘ removed   dune-configurator.2.7.0
⊘ removed   dune.2.9.0
⊘ removed   ocamlfind.1.9.1
⊘ removed   ocaml.4.12.0
⊘ removed   ocaml-config.2
⊘ removed   ocaml-variants.4.12.0
∗ installed ocaml-variants.4.12.0
∗ installed ocaml-config.2
∗ installed ocaml.4.12.0
∗ installed ocamlfind.1.9.1
∗ installed zarith.1.12
∗ installed dune.2.9.0
∗ installed dune-configurator.2.7.0
∗ installed cairo2.0.6.2
∗ installed lablgtk3.3.1.1
∗ installed lablgtk3-sourceview3.3.1.1
Done.
+ throttle_control_end
+ cpufreqctl --throttle
+ [ 343050 -eq 343050 ]
+ IS_THROTTLED=
+ mv /tmp/ocaml-stats-page-table-vas-pt.log reinstall-ocaml-variants.log.11-1
+ cd ..
+ date -R
Sun, 25 Jul 2021 08:08:25 +0200
+ false
+ false
+ false
+ TRIAL=-2
+ echo Iteration 2
Iteration 2
+ date -R
Sun, 25 Jul 2021 08:08:25 +0200
+ true
+ throttle_control_begin
+ IS_THROTTLED=
+ cpufreqctl --throttle
+ THROTTLE=343050
+ cd repo-mark-prefetching-nnp
+ opam env --switch=. --set-switch
+ eval OPAMSWITCH='/home/gm/Travail/github/ocaml/ocaml-large-pages-experiment/real_perfs/repo-mark-prefetching-nnp'; export OPAMSWITCH; OPAM_SWITCH_PREFIX='/home/gm/Travail/github/ocaml/ocaml-large-pages-experiment/real_perfs/repo-mark-prefetching-nnp/_opam'; export OPAM_SWITCH_PREFIX; CAML_LD_LIBRARY_PATH='/home/gm/Travail/github/ocaml/ocaml-large-pages-experiment/real_perfs/repo-mark-prefetching-nnp/_opam/lib/stublibs:/home/gm/Travail/github/ocaml/ocaml-large-pages-experiment/real_perfs/repo-mark-prefetching-nnp/_opam/lib/ocaml/stublibs:/home/gm/Travail/github/ocaml/ocaml-large-pages-experiment/real_perfs/repo-mark-prefetching-nnp/_opam/lib/ocaml'; export CAML_LD_LIBRARY_PATH; OCAML_TOPLEVEL_PATH='/home/gm/Travail/github/ocaml/ocaml-large-pages-experiment/real_perfs/repo-mark-prefetching-nnp/_opam/lib/toplevel'; export OCAML_TOPLEVEL_PATH; PKG_CONFIG_PATH='/home/gm/Travail/github/ocaml/ocaml-large-pages-experiment/real_perfs/repo-mark-prefetching-nnp/_opam/lib/pkgconfig'; export PKG_CONFIG_PATH; MANPATH=':/home/gm/Travail/github/ocaml/ocaml-large-pages-experiment/real_perfs/repo-mark-prefetching-nnp/_opam/man'; export MANPATH; PATH='/home/gm/Travail/github/ocaml/ocaml-large-pages-experiment/real_perfs/repo-mark-prefetching-nnp/_opam/bin:/home/gm/.cargo/bin:/home/gm/.local/bin:/usr/lib/ccache:/usr/local/sbin:/usr/local/bin:/usr/sbin:/usr/bin:/sbin:/bin:/usr/games:/usr/local/games:/snap/bin:/usr/lib/jvm/java-8-oracle/bin:/usr/lib/jvm/java-8-oracle/db/bin:/usr/lib/jvm/java-8-oracle/jre/bin'; export PATH;
+ OPAMSWITCH=/home/gm/Travail/github/ocaml/ocaml-large-pages-experiment/real_perfs/repo-mark-prefetching-nnp
+ export OPAMSWITCH
+ OPAM_SWITCH_PREFIX=/home/gm/Travail/github/ocaml/ocaml-large-pages-experiment/real_perfs/repo-mark-prefetching-nnp/_opam
+ export OPAM_SWITCH_PREFIX
+ CAML_LD_LIBRARY_PATH=/home/gm/Travail/github/ocaml/ocaml-large-pages-experiment/real_perfs/repo-mark-prefetching-nnp/_opam/lib/stublibs:/home/gm/Travail/github/ocaml/ocaml-large-pages-experiment/real_perfs/repo-mark-prefetching-nnp/_opam/lib/ocaml/stublibs:/home/gm/Travail/github/ocaml/ocaml-large-pages-experiment/real_perfs/repo-mark-prefetching-nnp/_opam/lib/ocaml
+ export CAML_LD_LIBRARY_PATH
+ OCAML_TOPLEVEL_PATH=/home/gm/Travail/github/ocaml/ocaml-large-pages-experiment/real_perfs/repo-mark-prefetching-nnp/_opam/lib/toplevel
+ export OCAML_TOPLEVEL_PATH
+ PKG_CONFIG_PATH=/home/gm/Travail/github/ocaml/ocaml-large-pages-experiment/real_perfs/repo-mark-prefetching-nnp/_opam/lib/pkgconfig
+ export PKG_CONFIG_PATH
+ MANPATH=:/home/gm/Travail/github/ocaml/ocaml-large-pages-experiment/real_perfs/repo-mark-prefetching-nnp/_opam/man
+ export MANPATH
+ PATH=/home/gm/Travail/github/ocaml/ocaml-large-pages-experiment/real_perfs/repo-mark-prefetching-nnp/_opam/bin:/home/gm/.cargo/bin:/home/gm/.local/bin:/usr/lib/ccache:/usr/local/sbin:/usr/local/bin:/usr/sbin:/usr/bin:/sbin:/bin:/usr/games:/usr/local/games:/snap/bin:/usr/lib/jvm/java-8-oracle/bin:/usr/lib/jvm/java-8-oracle/db/bin:/usr/lib/jvm/java-8-oracle/jre/bin
+ export PATH
+ opam list
# Packages matching: installed
# Name               # Installed # Synopsis
base-bigarray        base
base-threads         base
base-unix            base
cairo2               0.6.2       Binding to Cairo, a 2D Vector Graphics Library
conf-cairo           1           Virtual package relying on a Cairo system installation
conf-findutils       1           Virtual package relying on findutils
conf-gmp             3           Virtual package relying on a GMP lib system installation
conf-gtk3            18          Virtual package relying on GTK+ 3
conf-gtksourceview3  0+2         Virtual package relying on a GtkSourceView-3 system installation
conf-pkg-config      2           Check if pkg-config is installed and create an opam switch local pkgconfig folder
conf-python-3        1.0.0       Virtual package relying on Python-3 installation
csexp                1.5.1       Parsing and printing of S-expressions in Canonical form
dune                 2.9.0       Fast, portable, and opinionated build system
dune-configurator    2.9.0       Helper library for gathering system configuration
lablgtk3             3.1.1       OCaml interface to GTK+3
lablgtk3-sourceview3 3.1.1       OCaml interface to GTK+ gtksourceview library
ocaml                4.12.0      The OCaml compiler (virtual package)
ocaml-config         2           OCaml Switch Configuration
ocaml-variants       4.12.0      pinned to version 4.12.0 at git+file:///home/gm/Travail/github/ocaml#mark-prefetching-412-stats+nnp
ocamlfind            1.9.1       A library manager for OCaml
result               1.5         Compatibility Result module
zarith               1.12        Implements arithmetic and logical operations over arbitrary-precision integers
+ opam remove -y coq num zarith
[NOTE] num and coq are not installed.

The following actions will be performed:
  ⊘ remove zarith 1.12

<><> Processing actions <><><><><><><><><><><><><><><><><><><><><><><><><><><><>
⊘ removed   zarith.1.12
Done.
+ rm -rf _opam/lib/zarith
+ rm -rf _opam/lib/stublibs/dllzarith.so*
+ opam reinstall -j 2 -y ocaml-variants zarith

<><> Synchronising pinned packages ><><><><><><><><><><><><><><><><><><><><><><>
[ocaml-variants.4.12.0] no changes from git+file:///home/gm/Travail/github/ocaml#mark-prefetching-412-stats+nnp

zarith is not installed. Install it? [Y/n] y
The following actions will be performed:
  ↻ recompile ocaml-variants       4.12.0*
  ↻ recompile ocaml-config         2       [uses ocaml-variants]
  ↻ recompile ocaml                4.12.0  [uses ocaml-variants]
  ↻ recompile ocamlfind            1.9.1   [uses ocaml]
  ↻ recompile dune                 2.9.0   [uses ocaml]
  ∗ install   zarith               1.12
  ↻ recompile result               1.5     [uses ocaml]
  ↻ recompile csexp                1.5.1   [uses ocaml]
  ↻ recompile dune-configurator    2.9.0   [uses ocaml]
  ↻ recompile cairo2               0.6.2   [uses ocaml]
  ↻ recompile lablgtk3             3.1.1   [uses ocaml]
  ↻ recompile lablgtk3-sourceview3 3.1.1   [uses ocaml]
===== ∗ 1   ↻ 11 =====

<><> Gathering sources ><><><><><><><><><><><><><><><><><><><><><><><><><><><><>
[cairo2.0.6.2] found in cache
[csexp.1.5.1] found in cache
[dune.2.9.0] found in cache
[dune-configurator.2.9.0] found in cache
[lablgtk3.3.1.1] found in cache
[lablgtk3-sourceview3.3.1.1] found in cache
[ocamlfind.1.9.1] found in cache
[result.1.5] found in cache
[zarith.1.12] found in cache

<><> Processing actions <><><><><><><><><><><><><><><><><><><><><><><><><><><><>
⊘ removed   lablgtk3-sourceview3.3.1.1
⊘ removed   lablgtk3.3.1.1
⊘ removed   cairo2.0.6.2
⊘ removed   dune-configurator.2.9.0
⊘ removed   csexp.1.5.1
⊘ removed   ocamlfind.1.9.1
⊘ removed   result.1.5
⊘ removed   dune.2.9.0
⊘ removed   ocaml.4.12.0
⊘ removed   ocaml-config.2
⊘ removed   ocaml-variants.4.12.0
∗ installed ocaml-variants.4.12.0
∗ installed ocaml-config.2
∗ installed ocaml.4.12.0
∗ installed ocamlfind.1.9.1
∗ installed zarith.1.12
∗ installed dune.2.9.0
∗ installed csexp.1.5.1
∗ installed result.1.5
∗ installed dune-configurator.2.9.0
∗ installed cairo2.0.6.2
[ERROR] User interruption


<><> Error report <><><><><><><><><><><><><><><><><><><><><><><><><><><><><><><>
┌─ The following actions failed
│ λ build lablgtk3 3.1.1
└─ 
┌─ The following changes have been performed (the rest was aborted)
│ ⊘ remove    lablgtk3             3.1.1
│ ⊘ remove    lablgtk3-sourceview3 3.1.1
│ ↻ recompile cairo2               0.6.2
│ ↻ recompile csexp                1.5.1
│ ↻ recompile dune                 2.9.0
│ ↻ recompile dune-configurator    2.9.0
│ ↻ recompile ocaml                4.12.0
│ ↻ recompile ocaml-config         2
│ ↻ recompile ocaml-variants       4.12.0
│ ↻ recompile ocamlfind            1.9.1
│ ↻ recompile result               1.5
│ ∗ install   zarith               1.12
└─ 

The former state can be restored with:
    opam switch import "/home/gm/Travail/github/ocaml/ocaml-large-pages-experiment/real_perfs/repo-mark-prefetching-nnp/_opam/.opam-switch/backup/state-20210725060830.export"
Or you can retry to install your package selection with:
    opam install --restore
