+ REPOS=page-table-vas-pt-alt page-table-vas-nnp is_not_young-nnp
+ EPOCH=.51
+ TRIALS=3
+ USE_CLANG=false
+ USE_MARCH=true
+ USE_ALIGN=true
+ REINSTALL=true
+ BENCH_REINSTALL=true
+ BENCH_GALLINA_DEV=false
+ BENCH_GALLINA_OPAM=true
+ BENCH_MATHCOMP=true
+ BENCH_MATHCOMP_HEAVY=false
+ DRY=
+ J=2
+ THROTTLE_CMD=cpufreqctl --throttle
+ TIME=time
+ GALLINA_C=coq coq-core coqide coqide-server coq-stdlib
+ GALLINA_PKGS=coq-mathcomp-character coq-mathcomp-field
              coq-mathcomp-solvable coq-mathcomp-algebra
              coq-mathcomp-fingroup coq-mathcomp-ssreflect
+ GALLINA_HEAVY_PKGS=coq-mathcomp-odd-order
+ export OPAMVAR_ocamlas=as -mbranches-within-32B
+ MARCH=
+ true
+ MARCH=-march=skylake -fgcse-after-reload -fipa-cp-clone -floop-interchange            -floop-unroll-and-jam -fpeel-loops -fpredictive-commoning            -fsplit-loops -fsplit-paths -ftree-loop-distribution            -ftree-loop-vectorize -ftree-partial-pre -ftree-slp-vectorize           -funswitch-loops -fvect-cost-model -fvect-cost-model=dynamic            -fversion-loops-for-strides
+ true
+ false
+ ALIGN=
+ false
+ true
+ ALIGN=-falign-functions=16 -falign-loops=16 -falign-jumps=16
+ export OPAMVAR_ocamlcc=gcc -Wa,-mbranches-within-32B -march=skylake -fgcse-after-reload -fipa-cp-clone -floop-interchange            -floop-unroll-and-jam -fpeel-loops -fpredictive-commoning            -fsplit-loops -fsplit-paths -ftree-loop-distribution            -ftree-loop-vectorize -ftree-partial-pre -ftree-slp-vectorize           -funswitch-loops -fvect-cost-model -fvect-cost-model=dynamic            -fversion-loops-for-strides -falign-functions=16 -falign-loops=16 -falign-jumps=16
+ unset OPAMSWITCH
+ rm /tmp/ocaml-stats-412-fixed-pt.log /tmp/ocaml-stats-page-table-vas-pt-alt.log
+ cd repo-page-table-vas-pt-alt
+ opam env --switch=. --set-switch
+ eval OPAMSWITCH='/home/gm/Travail/github/ocaml/ocaml-large-pages-experiment/real_perfs/repo-page-table-vas-pt-alt'; export OPAMSWITCH; OPAM_SWITCH_PREFIX='/home/gm/Travail/github/ocaml/ocaml-large-pages-experiment/real_perfs/repo-page-table-vas-pt-alt/_opam'; export OPAM_SWITCH_PREFIX; CAML_LD_LIBRARY_PATH='/home/gm/Travail/github/ocaml/ocaml-large-pages-experiment/real_perfs/repo-page-table-vas-pt-alt/_opam/lib/stublibs:/home/gm/Travail/github/ocaml/ocaml-large-pages-experiment/real_perfs/repo-page-table-vas-pt-alt/_opam/lib/ocaml/stublibs:/home/gm/Travail/github/ocaml/ocaml-large-pages-experiment/real_perfs/repo-page-table-vas-pt-alt/_opam/lib/ocaml'; export CAML_LD_LIBRARY_PATH; OCAML_TOPLEVEL_PATH='/home/gm/Travail/github/ocaml/ocaml-large-pages-experiment/real_perfs/repo-page-table-vas-pt-alt/_opam/lib/toplevel'; export OCAML_TOPLEVEL_PATH; PKG_CONFIG_PATH='/home/gm/Travail/github/ocaml/ocaml-large-pages-experiment/real_perfs/repo-page-table-vas-pt-alt/_opam/lib/pkgconfig'; export PKG_CONFIG_PATH; MANPATH=':/home/gm/Travail/github/ocaml/ocaml-large-pages-experiment/real_perfs/repo-page-table-vas-pt-alt/_opam/man'; export MANPATH; PATH='/home/gm/Travail/github/ocaml/ocaml-large-pages-experiment/real_perfs/repo-page-table-vas-pt-alt/_opam/bin:/home/gm/.cargo/bin:/home/gm/.local/bin:/usr/lib/ccache:/usr/local/sbin:/usr/local/bin:/usr/sbin:/usr/bin:/sbin:/bin:/usr/games:/usr/local/games:/snap/bin:/usr/lib/jvm/java-8-oracle/bin:/usr/lib/jvm/java-8-oracle/db/bin:/usr/lib/jvm/java-8-oracle/jre/bin'; export PATH;
+ OPAMSWITCH=/home/gm/Travail/github/ocaml/ocaml-large-pages-experiment/real_perfs/repo-page-table-vas-pt-alt
+ export OPAMSWITCH
+ OPAM_SWITCH_PREFIX=/home/gm/Travail/github/ocaml/ocaml-large-pages-experiment/real_perfs/repo-page-table-vas-pt-alt/_opam
+ export OPAM_SWITCH_PREFIX
+ CAML_LD_LIBRARY_PATH=/home/gm/Travail/github/ocaml/ocaml-large-pages-experiment/real_perfs/repo-page-table-vas-pt-alt/_opam/lib/stublibs:/home/gm/Travail/github/ocaml/ocaml-large-pages-experiment/real_perfs/repo-page-table-vas-pt-alt/_opam/lib/ocaml/stublibs:/home/gm/Travail/github/ocaml/ocaml-large-pages-experiment/real_perfs/repo-page-table-vas-pt-alt/_opam/lib/ocaml
+ export CAML_LD_LIBRARY_PATH
+ OCAML_TOPLEVEL_PATH=/home/gm/Travail/github/ocaml/ocaml-large-pages-experiment/real_perfs/repo-page-table-vas-pt-alt/_opam/lib/toplevel
+ export OCAML_TOPLEVEL_PATH
+ PKG_CONFIG_PATH=/home/gm/Travail/github/ocaml/ocaml-large-pages-experiment/real_perfs/repo-page-table-vas-pt-alt/_opam/lib/pkgconfig
+ export PKG_CONFIG_PATH
+ MANPATH=:/home/gm/Travail/github/ocaml/ocaml-large-pages-experiment/real_perfs/repo-page-table-vas-pt-alt/_opam/man
+ export MANPATH
+ PATH=/home/gm/Travail/github/ocaml/ocaml-large-pages-experiment/real_perfs/repo-page-table-vas-pt-alt/_opam/bin:/home/gm/.cargo/bin:/home/gm/.local/bin:/usr/lib/ccache:/usr/local/sbin:/usr/local/bin:/usr/sbin:/usr/bin:/sbin:/bin:/usr/games:/usr/local/games:/snap/bin:/usr/lib/jvm/java-8-oracle/bin:/usr/lib/jvm/java-8-oracle/db/bin:/usr/lib/jvm/java-8-oracle/jre/bin
+ export PATH
+ opam list
# Packages matching: installed
# Name                 # Installed # Synopsis
base-bigarray          base
base-threads           base
base-unix              base
cairo2                 0.6.2       Binding to Cairo, a 2D Vector Graphics Library
conf-cairo             1           Virtual package relying on a Cairo system installation
conf-gmp               3           Virtual package relying on a GMP lib system installation
conf-gtk3              18          Virtual package relying on GTK+ 3
conf-gtksourceview3    0+2         Virtual package relying on a GtkSourceView-3 system installation
conf-pkg-config        2           Check if pkg-config is installed and create an opam switch local pkgconfig folder
coq                    dev         pinned to version dev at git+https://github.com/gadmm/coq.git#nnp
coq-core               dev         pinned to version dev at git+https://github.com/gadmm/coq.git#nnp
coq-mathcomp-algebra   1.12.0      Mathematical Components Library on Algebra
coq-mathcomp-character 1.12.0      Mathematical Components Library on character theory
coq-mathcomp-field     1.12.0      Mathematical Components Library on Fields
coq-mathcomp-fingroup  1.12.0      Mathematical Components Library on finite groups
coq-mathcomp-solvable  1.12.0      Mathematical Components Library on finite groups (II)
coq-mathcomp-ssreflect 1.12.0      Small Scale Reflection
coq-stdlib             dev         pinned to version dev at git+https://github.com/gadmm/coq.git#nnp
coqide                 dev         pinned to version dev at git+https://github.com/gadmm/coq.git#nnp
coqide-server          dev         pinned to version dev at git+https://github.com/gadmm/coq.git#nnp
csexp                  1.5.1       Parsing and printing of S-expressions in Canonical form
dune                   2.9.0       Fast, portable, and opinionated build system
dune-configurator      2.9.0       Helper library for gathering system configuration
lablgtk3               3.1.1       OCaml interface to GTK+3
lablgtk3-sourceview3   3.1.1       OCaml interface to GTK+ gtksourceview library
ocaml                  4.12.0      The OCaml compiler (virtual package)
ocaml-config           2           OCaml Switch Configuration
ocaml-variants         4.12.0      pinned to version 4.12.0 at git+file:///home/gm/Travail/github/ocaml#page-table-412-stats-alt
ocamlfind              1.9.1       A library manager for OCaml
result                 1.5         Compatibility Result module
zarith                 1.12        Implements arithmetic and logical operations over arbitrary-precision integers
+ opam remove -y coq num zarith
[NOTE] num is not installed.

The following actions will be performed:
  ⊘ remove coqide                 dev*   [uses coqide-server]
  ⊘ remove coq-mathcomp-character 1.12.0 [uses coq-mathcomp-field]
  ⊘ remove coqide-server          dev*   [uses coq-core]
  ⊘ remove coq-mathcomp-field     1.12.0 [uses coq-mathcomp-solvable]
  ⊘ remove coq-mathcomp-solvable  1.12.0 [uses coq-mathcomp-algebra]
  ⊘ remove coq-mathcomp-algebra   1.12.0 [uses coq-mathcomp-fingroup]
  ⊘ remove coq-mathcomp-fingroup  1.12.0 [uses coq-mathcomp-ssreflect]
  ⊘ remove coq-mathcomp-ssreflect 1.12.0 [uses coq]
  ⊘ remove coq                    dev*
  ⊘ remove coq-stdlib             dev*   [uses coq-core]
  ⊘ remove coq-core               dev*   [uses zarith]
  ⊘ remove zarith                 1.12
===== ⊘ 12 =====

<><> Processing actions <><><><><><><><><><><><><><><><><><><><><><><><><><><><>
⊘ removed   coq-mathcomp-character.1.12.0
⊘ removed   coq-mathcomp-field.1.12.0
⊘ removed   coq-mathcomp-solvable.1.12.0
⊘ removed   coq-mathcomp-algebra.1.12.0
⊘ removed   coq-mathcomp-fingroup.1.12.0
⊘ removed   coq-mathcomp-ssreflect.1.12.0
⊘ removed   coq.dev
⊘ removed   coq-stdlib.dev
⊘ removed   coqide.dev
⊘ removed   coqide-server.dev
⊘ removed   coq-core.dev
⊘ removed   zarith.1.12
Done.
+ rm -rf _opam/lib/zarith
+ rm -rf _opam/lib/stublibs/dllzarith.so*
+ true
+ c=reinstall
+ opam reinstall -y ocaml-variants zarith lablgtk3-sourceview3 dune

<><> Synchronising pinned packages ><><><><><><><><><><><><><><><><><><><><><><>
[ocaml-variants.4.12.0] synchronised from git+file:///home/gm/Travail/github/ocaml#page-table-412-stats-alt

zarith is not installed. Install it? [Y/n] y
The following actions will be performed:
  ↻ recompile ocaml-variants       4.12.0*
  ↻ recompile ocaml-config         2       [uses ocaml-variants]
  ↻ recompile ocaml                4.12.0  [uses ocaml-variants]
  ↻ recompile ocamlfind            1.9.1   [uses ocaml]
  ↻ recompile dune                 2.9.0
  ∗ install   zarith               1.12
  ↻ recompile result               1.5     [uses dune]
  ↻ recompile csexp                1.5.1   [uses dune]
  ↻ recompile dune-configurator    2.9.0   [uses dune]
  ↻ recompile cairo2               0.6.2   [uses dune]
  ↻ recompile lablgtk3             3.1.1   [uses dune]
  ↻ recompile lablgtk3-sourceview3 3.1.1
===== ∗ 1   ↻ 11 =====

<><> Gathering sources ><><><><><><><><><><><><><><><><><><><><><><><><><><><><>
[cairo2.0.6.2] found in cache
[csexp.1.5.1] found in cache
[dune.2.9.0] found in cache
[dune-configurator.2.9.0] found in cache
[lablgtk3.3.1.1] found in cache
[lablgtk3-sourceview3.3.1.1] found in cache
[ocamlfind.1.9.1] found in cache
[result.1.5] found in cache
[zarith.1.12] found in cache

<><> Processing actions <><><><><><><><><><><><><><><><><><><><><><><><><><><><>
⊘ removed   lablgtk3-sourceview3.3.1.1
⊘ removed   lablgtk3.3.1.1
⊘ removed   cairo2.0.6.2
⊘ removed   dune-configurator.2.9.0
⊘ removed   csexp.1.5.1
⊘ removed   ocamlfind.1.9.1
⊘ removed   result.1.5
⊘ removed   dune.2.9.0
⊘ removed   ocaml.4.12.0
⊘ removed   ocaml-config.2
⊘ removed   ocaml-variants.4.12.0
∗ installed ocaml-variants.4.12.0
∗ installed ocaml-config.2
∗ installed ocaml.4.12.0
∗ installed ocamlfind.1.9.1
∗ installed zarith.1.12
∗ installed dune.2.9.0
∗ installed csexp.1.5.1
∗ installed result.1.5
∗ installed dune-configurator.2.9.0
∗ installed cairo2.0.6.2
∗ installed lablgtk3.3.1.1
∗ installed lablgtk3-sourceview3.3.1.1
Done.
+ rm /tmp/ocaml-stats-page-table-vas-pt-alt.log
+ cd ..
+ cd repo-page-table-vas-nnp
+ opam env --switch=. --set-switch
+ eval OPAMSWITCH='/home/gm/Travail/github/ocaml/ocaml-large-pages-experiment/real_perfs/repo-page-table-vas-nnp'; export OPAMSWITCH; OPAM_SWITCH_PREFIX='/home/gm/Travail/github/ocaml/ocaml-large-pages-experiment/real_perfs/repo-page-table-vas-nnp/_opam'; export OPAM_SWITCH_PREFIX; CAML_LD_LIBRARY_PATH='/home/gm/Travail/github/ocaml/ocaml-large-pages-experiment/real_perfs/repo-page-table-vas-nnp/_opam/lib/stublibs:/home/gm/Travail/github/ocaml/ocaml-large-pages-experiment/real_perfs/repo-page-table-vas-nnp/_opam/lib/ocaml/stublibs:/home/gm/Travail/github/ocaml/ocaml-large-pages-experiment/real_perfs/repo-page-table-vas-nnp/_opam/lib/ocaml'; export CAML_LD_LIBRARY_PATH; OCAML_TOPLEVEL_PATH='/home/gm/Travail/github/ocaml/ocaml-large-pages-experiment/real_perfs/repo-page-table-vas-nnp/_opam/lib/toplevel'; export OCAML_TOPLEVEL_PATH; PKG_CONFIG_PATH='/home/gm/Travail/github/ocaml/ocaml-large-pages-experiment/real_perfs/repo-page-table-vas-nnp/_opam/lib/pkgconfig'; export PKG_CONFIG_PATH; MANPATH=':/home/gm/Travail/github/ocaml/ocaml-large-pages-experiment/real_perfs/repo-page-table-vas-nnp/_opam/man'; export MANPATH; PATH='/home/gm/Travail/github/ocaml/ocaml-large-pages-experiment/real_perfs/repo-page-table-vas-nnp/_opam/bin:/home/gm/.cargo/bin:/home/gm/.local/bin:/usr/lib/ccache:/usr/local/sbin:/usr/local/bin:/usr/sbin:/usr/bin:/sbin:/bin:/usr/games:/usr/local/games:/snap/bin:/usr/lib/jvm/java-8-oracle/bin:/usr/lib/jvm/java-8-oracle/db/bin:/usr/lib/jvm/java-8-oracle/jre/bin'; export PATH;
+ OPAMSWITCH=/home/gm/Travail/github/ocaml/ocaml-large-pages-experiment/real_perfs/repo-page-table-vas-nnp
+ export OPAMSWITCH
+ OPAM_SWITCH_PREFIX=/home/gm/Travail/github/ocaml/ocaml-large-pages-experiment/real_perfs/repo-page-table-vas-nnp/_opam
+ export OPAM_SWITCH_PREFIX
+ CAML_LD_LIBRARY_PATH=/home/gm/Travail/github/ocaml/ocaml-large-pages-experiment/real_perfs/repo-page-table-vas-nnp/_opam/lib/stublibs:/home/gm/Travail/github/ocaml/ocaml-large-pages-experiment/real_perfs/repo-page-table-vas-nnp/_opam/lib/ocaml/stublibs:/home/gm/Travail/github/ocaml/ocaml-large-pages-experiment/real_perfs/repo-page-table-vas-nnp/_opam/lib/ocaml
+ export CAML_LD_LIBRARY_PATH
+ OCAML_TOPLEVEL_PATH=/home/gm/Travail/github/ocaml/ocaml-large-pages-experiment/real_perfs/repo-page-table-vas-nnp/_opam/lib/toplevel
+ export OCAML_TOPLEVEL_PATH
+ PKG_CONFIG_PATH=/home/gm/Travail/github/ocaml/ocaml-large-pages-experiment/real_perfs/repo-page-table-vas-nnp/_opam/lib/pkgconfig
+ export PKG_CONFIG_PATH
+ MANPATH=:/home/gm/Travail/github/ocaml/ocaml-large-pages-experiment/real_perfs/repo-page-table-vas-nnp/_opam/man
+ export MANPATH
+ PATH=/home/gm/Travail/github/ocaml/ocaml-large-pages-experiment/real_perfs/repo-page-table-vas-nnp/_opam/bin:/home/gm/.cargo/bin:/home/gm/.local/bin:/usr/lib/ccache:/usr/local/sbin:/usr/local/bin:/usr/sbin:/usr/bin:/sbin:/bin:/usr/games:/usr/local/games:/snap/bin:/usr/lib/jvm/java-8-oracle/bin:/usr/lib/jvm/java-8-oracle/db/bin:/usr/lib/jvm/java-8-oracle/jre/bin
+ export PATH
+ opam list
# Packages matching: installed
# Name                 # Installed # Synopsis
base-bigarray          base
base-threads           base
base-unix              base
cairo2                 0.6.2       Binding to Cairo, a 2D Vector Graphics Library
conf-cairo             1           Virtual package relying on a Cairo system installation
conf-findutils         1           Virtual package relying on findutils
conf-gmp               3           Virtual package relying on a GMP lib system installation
conf-gtk3              18          Virtual package relying on GTK+ 3
conf-gtksourceview3    0+2         Virtual package relying on a GtkSourceView-3 system installation
conf-pkg-config        2           Check if pkg-config is installed and create an opam switch local pkgconfig folder
conf-python-3          1.0.0       Virtual package relying on Python-3 installation
coq                    dev         pinned to version dev at git+https://github.com/gadmm/coq.git#nnp
coq-core               dev         pinned to version dev at git+https://github.com/gadmm/coq.git#nnp
coq-mathcomp-algebra   1.12.0      Mathematical Components Library on Algebra
coq-mathcomp-character 1.12.0      Mathematical Components Library on character theory
coq-mathcomp-field     1.12.0      Mathematical Components Library on Fields
coq-mathcomp-fingroup  1.12.0      Mathematical Components Library on finite groups
coq-mathcomp-solvable  1.12.0      Mathematical Components Library on finite groups (II)
coq-mathcomp-ssreflect 1.12.0      Small Scale Reflection
coq-stdlib             dev         pinned to version dev at git+https://github.com/gadmm/coq.git#nnp
coqide                 dev         pinned to version dev at git+https://github.com/gadmm/coq.git#nnp
coqide-server          dev         pinned to version dev at git+https://github.com/gadmm/coq.git#nnp
csexp                  1.5.1       Parsing and printing of S-expressions in Canonical form
dune                   2.9.0       Fast, portable, and opinionated build system
dune-configurator      2.9.0       Helper library for gathering system configuration
lablgtk3               3.1.1       OCaml interface to GTK+3
lablgtk3-sourceview3   3.1.1       OCaml interface to GTK+ gtksourceview library
ocaml                  4.12.0      The OCaml compiler (virtual package)
ocaml-config           2           OCaml Switch Configuration
ocaml-variants         4.12.0      pinned to version 4.12.0 at git+file:///home/gm/Travail/github/ocaml#page-table-412-stats+nnp
ocamlfind              1.9.1       A library manager for OCaml
result                 1.5         Compatibility Result module
zarith                 1.12        Implements arithmetic and logical operations over arbitrary-precision integers
+ opam remove -y coq num zarith
[NOTE] num is not installed.

The following actions will be performed:
  ⊘ remove coqide                 dev*   [uses coqide-server]
  ⊘ remove coq-mathcomp-character 1.12.0 [uses coq-mathcomp-field]
  ⊘ remove coqide-server          dev*   [uses coq-core]
  ⊘ remove coq-mathcomp-field     1.12.0 [uses coq-mathcomp-solvable]
  ⊘ remove coq-mathcomp-solvable  1.12.0 [uses coq-mathcomp-algebra]
  ⊘ remove coq-mathcomp-algebra   1.12.0 [uses coq-mathcomp-fingroup]
  ⊘ remove coq-mathcomp-fingroup  1.12.0 [uses coq-mathcomp-ssreflect]
  ⊘ remove coq-mathcomp-ssreflect 1.12.0 [uses coq]
  ⊘ remove coq                    dev*
  ⊘ remove coq-stdlib             dev*   [uses coq-core]
  ⊘ remove coq-core               dev*   [uses zarith]
  ⊘ remove zarith                 1.12
===== ⊘ 12 =====

<><> Processing actions <><><><><><><><><><><><><><><><><><><><><><><><><><><><>
⊘ removed   coq-mathcomp-character.1.12.0
⊘ removed   coq-mathcomp-field.1.12.0
⊘ removed   coq-mathcomp-solvable.1.12.0
⊘ removed   coq-mathcomp-algebra.1.12.0
⊘ removed   coq-mathcomp-fingroup.1.12.0
⊘ removed   coq-mathcomp-ssreflect.1.12.0
⊘ removed   coq.dev
⊘ removed   coq-stdlib.dev
⊘ removed   coqide.dev
⊘ removed   coqide-server.dev
⊘ removed   coq-core.dev
⊘ removed   zarith.1.12
Done.
+ rm -rf _opam/lib/zarith
+ rm -rf _opam/lib/stublibs/dllzarith.so*
+ true
+ c=reinstall
+ opam reinstall -y ocaml-variants zarith lablgtk3-sourceview3 dune

<><> Synchronising pinned packages ><><><><><><><><><><><><><><><><><><><><><><>
[ocaml-variants.4.12.0] no changes from git+file:///home/gm/Travail/github/ocaml#page-table-412-stats+nnp

zarith is not installed. Install it? [Y/n] y
The following actions will be performed:
  ↻ recompile ocaml-variants       4.12.0*
  ↻ recompile ocaml-config         2       [uses ocaml-variants]
  ↻ recompile ocaml                4.12.0  [uses ocaml-variants]
  ↻ recompile ocamlfind            1.9.1   [uses ocaml]
  ↻ recompile dune                 2.9.0
  ∗ install   zarith               1.12
  ↻ recompile result               1.5     [uses dune]
  ↻ recompile csexp                1.5.1   [uses dune]
  ↻ recompile dune-configurator    2.9.0   [uses dune]
  ↻ recompile cairo2               0.6.2   [uses dune]
  ↻ recompile lablgtk3             3.1.1   [uses dune]
  ↻ recompile lablgtk3-sourceview3 3.1.1
===== ∗ 1   ↻ 11 =====

<><> Gathering sources ><><><><><><><><><><><><><><><><><><><><><><><><><><><><>
[cairo2.0.6.2] found in cache
[csexp.1.5.1] found in cache
[dune.2.9.0] found in cache
[dune-configurator.2.9.0] found in cache
[lablgtk3.3.1.1] found in cache
[lablgtk3-sourceview3.3.1.1] found in cache
[ocamlfind.1.9.1] found in cache
[result.1.5] found in cache
[zarith.1.12] found in cache

<><> Processing actions <><><><><><><><><><><><><><><><><><><><><><><><><><><><>
⊘ removed   lablgtk3-sourceview3.3.1.1
⊘ removed   lablgtk3.3.1.1
⊘ removed   cairo2.0.6.2
⊘ removed   dune-configurator.2.9.0
⊘ removed   csexp.1.5.1
⊘ removed   ocamlfind.1.9.1
⊘ removed   result.1.5
⊘ removed   dune.2.9.0
⊘ removed   ocaml.4.12.0
⊘ removed   ocaml-config.2
⊘ removed   ocaml-variants.4.12.0
∗ installed ocaml-variants.4.12.0
∗ installed ocaml-config.2
∗ installed ocaml.4.12.0
∗ installed ocamlfind.1.9.1
∗ installed zarith.1.12
∗ installed dune.2.9.0
∗ installed csexp.1.5.1
∗ installed result.1.5
∗ installed dune-configurator.2.9.0
∗ installed cairo2.0.6.2
∗ installed lablgtk3.3.1.1
∗ installed lablgtk3-sourceview3.3.1.1
Done.
+ rm /tmp/ocaml-stats-page-table-vas-nnp.log
+ cd ..
+ cd repo-is_not_young-nnp
+ opam env --switch=. --set-switch
+ eval OPAMSWITCH='/home/gm/Travail/github/ocaml/ocaml-large-pages-experiment/real_perfs/repo-is_not_young-nnp'; export OPAMSWITCH; OPAM_SWITCH_PREFIX='/home/gm/Travail/github/ocaml/ocaml-large-pages-experiment/real_perfs/repo-is_not_young-nnp/_opam'; export OPAM_SWITCH_PREFIX; CAML_LD_LIBRARY_PATH='/home/gm/Travail/github/ocaml/ocaml-large-pages-experiment/real_perfs/repo-is_not_young-nnp/_opam/lib/stublibs:/home/gm/Travail/github/ocaml/ocaml-large-pages-experiment/real_perfs/repo-is_not_young-nnp/_opam/lib/ocaml/stublibs:/home/gm/Travail/github/ocaml/ocaml-large-pages-experiment/real_perfs/repo-is_not_young-nnp/_opam/lib/ocaml'; export CAML_LD_LIBRARY_PATH; OCAML_TOPLEVEL_PATH='/home/gm/Travail/github/ocaml/ocaml-large-pages-experiment/real_perfs/repo-is_not_young-nnp/_opam/lib/toplevel'; export OCAML_TOPLEVEL_PATH; PKG_CONFIG_PATH='/home/gm/Travail/github/ocaml/ocaml-large-pages-experiment/real_perfs/repo-is_not_young-nnp/_opam/lib/pkgconfig'; export PKG_CONFIG_PATH; MANPATH=':/home/gm/Travail/github/ocaml/ocaml-large-pages-experiment/real_perfs/repo-is_not_young-nnp/_opam/man'; export MANPATH; PATH='/home/gm/Travail/github/ocaml/ocaml-large-pages-experiment/real_perfs/repo-is_not_young-nnp/_opam/bin:/home/gm/.cargo/bin:/home/gm/.local/bin:/usr/lib/ccache:/usr/local/sbin:/usr/local/bin:/usr/sbin:/usr/bin:/sbin:/bin:/usr/games:/usr/local/games:/snap/bin:/usr/lib/jvm/java-8-oracle/bin:/usr/lib/jvm/java-8-oracle/db/bin:/usr/lib/jvm/java-8-oracle/jre/bin'; export PATH;
+ OPAMSWITCH=/home/gm/Travail/github/ocaml/ocaml-large-pages-experiment/real_perfs/repo-is_not_young-nnp
+ export OPAMSWITCH
+ OPAM_SWITCH_PREFIX=/home/gm/Travail/github/ocaml/ocaml-large-pages-experiment/real_perfs/repo-is_not_young-nnp/_opam
+ export OPAM_SWITCH_PREFIX
+ CAML_LD_LIBRARY_PATH=/home/gm/Travail/github/ocaml/ocaml-large-pages-experiment/real_perfs/repo-is_not_young-nnp/_opam/lib/stublibs:/home/gm/Travail/github/ocaml/ocaml-large-pages-experiment/real_perfs/repo-is_not_young-nnp/_opam/lib/ocaml/stublibs:/home/gm/Travail/github/ocaml/ocaml-large-pages-experiment/real_perfs/repo-is_not_young-nnp/_opam/lib/ocaml
+ export CAML_LD_LIBRARY_PATH
+ OCAML_TOPLEVEL_PATH=/home/gm/Travail/github/ocaml/ocaml-large-pages-experiment/real_perfs/repo-is_not_young-nnp/_opam/lib/toplevel
+ export OCAML_TOPLEVEL_PATH
+ PKG_CONFIG_PATH=/home/gm/Travail/github/ocaml/ocaml-large-pages-experiment/real_perfs/repo-is_not_young-nnp/_opam/lib/pkgconfig
+ export PKG_CONFIG_PATH
+ MANPATH=:/home/gm/Travail/github/ocaml/ocaml-large-pages-experiment/real_perfs/repo-is_not_young-nnp/_opam/man
+ export MANPATH
+ PATH=/home/gm/Travail/github/ocaml/ocaml-large-pages-experiment/real_perfs/repo-is_not_young-nnp/_opam/bin:/home/gm/.cargo/bin:/home/gm/.local/bin:/usr/lib/ccache:/usr/local/sbin:/usr/local/bin:/usr/sbin:/usr/bin:/sbin:/bin:/usr/games:/usr/local/games:/snap/bin:/usr/lib/jvm/java-8-oracle/bin:/usr/lib/jvm/java-8-oracle/db/bin:/usr/lib/jvm/java-8-oracle/jre/bin
+ export PATH
+ opam list
# Packages matching: installed
# Name                 # Installed # Synopsis
base-bigarray          base
base-threads           base
base-unix              base
cairo2                 0.6.2       Binding to Cairo, a 2D Vector Graphics Library
conf-cairo             1           Virtual package relying on a Cairo system installation
conf-gmp               3           Virtual package relying on a GMP lib system installation
conf-gtk3              18          Virtual package relying on GTK+ 3
conf-gtksourceview3    0+2         Virtual package relying on a GtkSourceView-3 system installation
conf-pkg-config        2           Check if pkg-config is installed and create an opam switch local pkgconfig folder
conf-python-3          1.0.0       Virtual package relying on Python-3 installation
coq                    dev         pinned to version dev at git+https://github.com/gadmm/coq.git#nnp
coq-core               dev         pinned to version dev at git+https://github.com/gadmm/coq.git#nnp
coq-mathcomp-algebra   1.12.0      Mathematical Components Library on Algebra
coq-mathcomp-character 1.12.0      Mathematical Components Library on character theory
coq-mathcomp-field     1.12.0      Mathematical Components Library on Fields
coq-mathcomp-fingroup  1.12.0      Mathematical Components Library on finite groups
coq-mathcomp-solvable  1.12.0      Mathematical Components Library on finite groups (II)
coq-mathcomp-ssreflect 1.12.0      Small Scale Reflection
coq-stdlib             dev         pinned to version dev at git+https://github.com/gadmm/coq.git#nnp
coqide                 dev         pinned to version dev at git+https://github.com/gadmm/coq.git#nnp
coqide-server          dev         pinned to version dev at git+https://github.com/gadmm/coq.git#nnp
csexp                  1.5.1       Parsing and printing of S-expressions in Canonical form
dune                   2.9.0       Fast, portable, and opinionated build system
dune-configurator      2.9.0       Helper library for gathering system configuration
lablgtk3               3.1.1       OCaml interface to GTK+3
lablgtk3-sourceview3   3.1.1       OCaml interface to GTK+ gtksourceview library
ocaml                  4.12.0      The OCaml compiler (virtual package)
ocaml-config           2           OCaml Switch Configuration
ocaml-variants         4.12.0      pinned to version 4.12.0 at git+file:///home/gm/Travail/github/ocaml#mark-prefetching-412-stats-is_not_young+nnp
ocamlfind              1.9.1       A library manager for OCaml
result                 1.5         Compatibility Result module
zarith                 1.12        Implements arithmetic and logical operations over arbitrary-precision integers
+ opam remove -y coq num zarith
[NOTE] num is not installed.

The following actions will be performed:
  ⊘ remove coqide                 dev*   [uses coqide-server]
  ⊘ remove coq-mathcomp-character 1.12.0 [uses coq-mathcomp-field]
  ⊘ remove coqide-server          dev*   [uses coq-core]
  ⊘ remove coq-mathcomp-field     1.12.0 [uses coq-mathcomp-solvable]
  ⊘ remove coq-mathcomp-solvable  1.12.0 [uses coq-mathcomp-algebra]
  ⊘ remove coq-mathcomp-algebra   1.12.0 [uses coq-mathcomp-fingroup]
  ⊘ remove coq-mathcomp-fingroup  1.12.0 [uses coq-mathcomp-ssreflect]
  ⊘ remove coq-mathcomp-ssreflect 1.12.0 [uses coq]
  ⊘ remove coq                    dev*
  ⊘ remove coq-stdlib             dev*   [uses coq-core]
  ⊘ remove coq-core               dev*   [uses zarith]
  ⊘ remove zarith                 1.12
===== ⊘ 12 =====

<><> Processing actions <><><><><><><><><><><><><><><><><><><><><><><><><><><><>
⊘ removed   coq-mathcomp-character.1.12.0
⊘ removed   coq-mathcomp-field.1.12.0
⊘ removed   coq-mathcomp-solvable.1.12.0
⊘ removed   coq-mathcomp-algebra.1.12.0
⊘ removed   coq-mathcomp-fingroup.1.12.0
⊘ removed   coq-mathcomp-ssreflect.1.12.0
⊘ removed   coq.dev
⊘ removed   coq-stdlib.dev
⊘ removed   coqide.dev
⊘ removed   coqide-server.dev
⊘ removed   coq-core.dev
⊘ removed   zarith.1.12
Done.
+ rm -rf _opam/lib/zarith
+ rm -rf _opam/lib/stublibs/dllzarith.so*
+ true
+ c=reinstall
+ opam reinstall -y ocaml-variants zarith lablgtk3-sourceview3 dune

<><> Synchronising pinned packages ><><><><><><><><><><><><><><><><><><><><><><>
[ocaml-variants.4.12.0] no changes from git+file:///home/gm/Travail/github/ocaml#mark-prefetching-412-stats-is_not_young+nnp

zarith is not installed. Install it? [Y/n] y
The following actions will be performed:
  ↻ recompile ocaml-variants       4.12.0*
  ↻ recompile ocaml-config         2       [uses ocaml-variants]
  ↻ recompile ocaml                4.12.0  [uses ocaml-variants]
  ↻ recompile ocamlfind            1.9.1   [uses ocaml]
  ↻ recompile dune                 2.9.0
  ∗ install   zarith               1.12
  ↻ recompile result               1.5     [uses dune]
  ↻ recompile csexp                1.5.1   [uses dune]
  ↻ recompile dune-configurator    2.9.0   [uses dune]
  ↻ recompile cairo2               0.6.2   [uses dune]
  ↻ recompile lablgtk3             3.1.1   [uses dune]
  ↻ recompile lablgtk3-sourceview3 3.1.1
===== ∗ 1   ↻ 11 =====

<><> Gathering sources ><><><><><><><><><><><><><><><><><><><><><><><><><><><><>
[cairo2.0.6.2] found in cache
[csexp.1.5.1] found in cache
[dune.2.9.0] found in cache
[dune-configurator.2.9.0] found in cache
[lablgtk3.3.1.1] found in cache
[lablgtk3-sourceview3.3.1.1] found in cache
[ocamlfind.1.9.1] found in cache
[result.1.5] found in cache
[zarith.1.12] found in cache

<><> Processing actions <><><><><><><><><><><><><><><><><><><><><><><><><><><><>
⊘ removed   lablgtk3-sourceview3.3.1.1
⊘ removed   lablgtk3.3.1.1
⊘ removed   cairo2.0.6.2
⊘ removed   dune-configurator.2.9.0
⊘ removed   csexp.1.5.1
⊘ removed   ocamlfind.1.9.1
⊘ removed   result.1.5
⊘ removed   dune.2.9.0
⊘ removed   ocaml.4.12.0
⊘ removed   ocaml-config.2
⊘ removed   ocaml-variants.4.12.0
∗ installed ocaml-variants.4.12.0
∗ installed ocaml-config.2
∗ installed ocaml.4.12.0
∗ installed ocamlfind.1.9.1
∗ installed zarith.1.12
∗ installed dune.2.9.0
∗ installed csexp.1.5.1
∗ installed result.1.5
∗ installed dune-configurator.2.9.0
∗ installed cairo2.0.6.2
∗ installed lablgtk3.3.1.1
∗ installed lablgtk3-sourceview3.3.1.1
Done.
+ rm /tmp/ocaml-stats-is_not_young-nnp.log
+ cd ..
+ seq 0 2
+ TRIAL=-0
+ echo Iteration 0
Iteration 0
+ date -R
Thu, 05 Aug 2021 16:13:14 +0200
+ true
+ throttle_control_begin
+ IS_THROTTLED=
+ cpufreqctl --throttle
+ THROTTLE=1304
+ cd repo-page-table-vas-pt-alt
+ opam env --switch=. --set-switch
+ eval OPAMSWITCH='/home/gm/Travail/github/ocaml/ocaml-large-pages-experiment/real_perfs/repo-page-table-vas-pt-alt'; export OPAMSWITCH; OPAM_SWITCH_PREFIX='/home/gm/Travail/github/ocaml/ocaml-large-pages-experiment/real_perfs/repo-page-table-vas-pt-alt/_opam'; export OPAM_SWITCH_PREFIX; CAML_LD_LIBRARY_PATH='/home/gm/Travail/github/ocaml/ocaml-large-pages-experiment/real_perfs/repo-page-table-vas-pt-alt/_opam/lib/stublibs:/home/gm/Travail/github/ocaml/ocaml-large-pages-experiment/real_perfs/repo-page-table-vas-pt-alt/_opam/lib/ocaml/stublibs:/home/gm/Travail/github/ocaml/ocaml-large-pages-experiment/real_perfs/repo-page-table-vas-pt-alt/_opam/lib/ocaml'; export CAML_LD_LIBRARY_PATH; OCAML_TOPLEVEL_PATH='/home/gm/Travail/github/ocaml/ocaml-large-pages-experiment/real_perfs/repo-page-table-vas-pt-alt/_opam/lib/toplevel'; export OCAML_TOPLEVEL_PATH; PKG_CONFIG_PATH='/home/gm/Travail/github/ocaml/ocaml-large-pages-experiment/real_perfs/repo-page-table-vas-pt-alt/_opam/lib/pkgconfig'; export PKG_CONFIG_PATH; MANPATH=':/home/gm/Travail/github/ocaml/ocaml-large-pages-experiment/real_perfs/repo-page-table-vas-pt-alt/_opam/man'; export MANPATH; PATH='/home/gm/Travail/github/ocaml/ocaml-large-pages-experiment/real_perfs/repo-page-table-vas-pt-alt/_opam/bin:/home/gm/.cargo/bin:/home/gm/.local/bin:/usr/lib/ccache:/usr/local/sbin:/usr/local/bin:/usr/sbin:/usr/bin:/sbin:/bin:/usr/games:/usr/local/games:/snap/bin:/usr/lib/jvm/java-8-oracle/bin:/usr/lib/jvm/java-8-oracle/db/bin:/usr/lib/jvm/java-8-oracle/jre/bin'; export PATH;
+ OPAMSWITCH=/home/gm/Travail/github/ocaml/ocaml-large-pages-experiment/real_perfs/repo-page-table-vas-pt-alt
+ export OPAMSWITCH
+ OPAM_SWITCH_PREFIX=/home/gm/Travail/github/ocaml/ocaml-large-pages-experiment/real_perfs/repo-page-table-vas-pt-alt/_opam
+ export OPAM_SWITCH_PREFIX
+ CAML_LD_LIBRARY_PATH=/home/gm/Travail/github/ocaml/ocaml-large-pages-experiment/real_perfs/repo-page-table-vas-pt-alt/_opam/lib/stublibs:/home/gm/Travail/github/ocaml/ocaml-large-pages-experiment/real_perfs/repo-page-table-vas-pt-alt/_opam/lib/ocaml/stublibs:/home/gm/Travail/github/ocaml/ocaml-large-pages-experiment/real_perfs/repo-page-table-vas-pt-alt/_opam/lib/ocaml
+ export CAML_LD_LIBRARY_PATH
+ OCAML_TOPLEVEL_PATH=/home/gm/Travail/github/ocaml/ocaml-large-pages-experiment/real_perfs/repo-page-table-vas-pt-alt/_opam/lib/toplevel
+ export OCAML_TOPLEVEL_PATH
+ PKG_CONFIG_PATH=/home/gm/Travail/github/ocaml/ocaml-large-pages-experiment/real_perfs/repo-page-table-vas-pt-alt/_opam/lib/pkgconfig
+ export PKG_CONFIG_PATH
+ MANPATH=:/home/gm/Travail/github/ocaml/ocaml-large-pages-experiment/real_perfs/repo-page-table-vas-pt-alt/_opam/man
+ export MANPATH
+ PATH=/home/gm/Travail/github/ocaml/ocaml-large-pages-experiment/real_perfs/repo-page-table-vas-pt-alt/_opam/bin:/home/gm/.cargo/bin:/home/gm/.local/bin:/usr/lib/ccache:/usr/local/sbin:/usr/local/bin:/usr/sbin:/usr/bin:/sbin:/bin:/usr/games:/usr/local/games:/snap/bin:/usr/lib/jvm/java-8-oracle/bin:/usr/lib/jvm/java-8-oracle/db/bin:/usr/lib/jvm/java-8-oracle/jre/bin
+ export PATH
+ opam list
# Packages matching: installed
# Name               # Installed # Synopsis
base-bigarray        base
base-threads         base
base-unix            base
cairo2               0.6.2       Binding to Cairo, a 2D Vector Graphics Library
conf-cairo           1           Virtual package relying on a Cairo system installation
conf-gmp             3           Virtual package relying on a GMP lib system installation
conf-gtk3            18          Virtual package relying on GTK+ 3
conf-gtksourceview3  0+2         Virtual package relying on a GtkSourceView-3 system installation
conf-pkg-config      2           Check if pkg-config is installed and create an opam switch local pkgconfig folder
csexp                1.5.1       Parsing and printing of S-expressions in Canonical form
dune                 2.9.0       Fast, portable, and opinionated build system
dune-configurator    2.9.0       Helper library for gathering system configuration
lablgtk3             3.1.1       OCaml interface to GTK+3
lablgtk3-sourceview3 3.1.1       OCaml interface to GTK+ gtksourceview library
ocaml                4.12.0      The OCaml compiler (virtual package)
ocaml-config         2           OCaml Switch Configuration
ocaml-variants       4.12.0      pinned to version 4.12.0 at git+file:///home/gm/Travail/github/ocaml#page-table-412-stats-alt
ocamlfind            1.9.1       A library manager for OCaml
result               1.5         Compatibility Result module
zarith               1.12        Implements arithmetic and logical operations over arbitrary-precision integers
+ opam remove -y coq num zarith
[NOTE] num and coq are not installed.

The following actions will be performed:
  ⊘ remove zarith 1.12

<><> Processing actions <><><><><><><><><><><><><><><><><><><><><><><><><><><><>
⊘ removed   zarith.1.12
Done.
+ rm -rf _opam/lib/zarith
+ rm -rf _opam/lib/stublibs/dllzarith.so*
+ time opam reinstall --skip-updates -j 2 -y ocaml-variants zarith
zarith is not installed. Install it? [Y/n] y
The following actions will be performed:
  ↻ recompile ocaml-variants       4.12.0*
  ↻ recompile ocaml-config         2       [uses ocaml-variants]
  ↻ recompile ocaml                4.12.0  [uses ocaml-variants]
  ↻ recompile ocamlfind            1.9.1   [uses ocaml]
  ↻ recompile dune                 2.9.0   [uses ocaml]
  ∗ install   zarith               1.12
  ↻ recompile result               1.5     [uses ocaml]
  ↻ recompile csexp                1.5.1   [uses ocaml]
  ↻ recompile dune-configurator    2.9.0   [uses ocaml]
  ↻ recompile cairo2               0.6.2   [uses ocaml]
  ↻ recompile lablgtk3             3.1.1   [uses ocaml]
  ↻ recompile lablgtk3-sourceview3 3.1.1   [uses ocaml]
===== ∗ 1   ↻ 11 =====

<><> Gathering sources ><><><><><><><><><><><><><><><><><><><><><><><><><><><><>
[cairo2.0.6.2] found in cache
[csexp.1.5.1] found in cache
[dune.2.9.0] found in cache
[dune-configurator.2.9.0] found in cache
[lablgtk3.3.1.1] found in cache
[lablgtk3-sourceview3.3.1.1] found in cache
[ocamlfind.1.9.1] found in cache
[result.1.5] found in cache
[zarith.1.12] found in cache

<><> Processing actions <><><><><><><><><><><><><><><><><><><><><><><><><><><><>
⊘ removed   lablgtk3-sourceview3.3.1.1
⊘ removed   lablgtk3.3.1.1
⊘ removed   cairo2.0.6.2
⊘ removed   dune-configurator.2.9.0
⊘ removed   csexp.1.5.1
⊘ removed   ocamlfind.1.9.1
⊘ removed   result.1.5
⊘ removed   dune.2.9.0
⊘ removed   ocaml.4.12.0
⊘ removed   ocaml-config.2
⊘ removed   ocaml-variants.4.12.0
∗ installed ocaml-variants.4.12.0
∗ installed ocaml-config.2
∗ installed ocaml.4.12.0
∗ installed ocamlfind.1.9.1
∗ installed zarith.1.12
∗ installed dune.2.9.0
∗ installed csexp.1.5.1
∗ installed result.1.5
∗ installed dune-configurator.2.9.0
∗ installed cairo2.0.6.2
∗ installed lablgtk3.3.1.1
∗ installed lablgtk3-sourceview3.3.1.1
Done.
340.73user 57.08system 3:47.75elapsed 174%CPU (0avgtext+0avgdata 310908maxresident)k
512inputs+4550432outputs (3major+15501914minor)pagefaults 0swaps
+ throttle_control_end
+ cpufreqctl --throttle
+ [ 1304 -eq 1304 ]
+ IS_THROTTLED=
+ mv /tmp/ocaml-stats-page-table-vas-pt-alt.log reinstall-ocaml-variants.log.51-0
+ cd ..
+ throttle_control_begin
+ IS_THROTTLED=
+ cpufreqctl --throttle
+ THROTTLE=1304
+ cd repo-page-table-vas-nnp
+ opam env --switch=. --set-switch
+ eval OPAMSWITCH='/home/gm/Travail/github/ocaml/ocaml-large-pages-experiment/real_perfs/repo-page-table-vas-nnp'; export OPAMSWITCH; OPAM_SWITCH_PREFIX='/home/gm/Travail/github/ocaml/ocaml-large-pages-experiment/real_perfs/repo-page-table-vas-nnp/_opam'; export OPAM_SWITCH_PREFIX; CAML_LD_LIBRARY_PATH='/home/gm/Travail/github/ocaml/ocaml-large-pages-experiment/real_perfs/repo-page-table-vas-nnp/_opam/lib/stublibs:/home/gm/Travail/github/ocaml/ocaml-large-pages-experiment/real_perfs/repo-page-table-vas-nnp/_opam/lib/ocaml/stublibs:/home/gm/Travail/github/ocaml/ocaml-large-pages-experiment/real_perfs/repo-page-table-vas-nnp/_opam/lib/ocaml'; export CAML_LD_LIBRARY_PATH; OCAML_TOPLEVEL_PATH='/home/gm/Travail/github/ocaml/ocaml-large-pages-experiment/real_perfs/repo-page-table-vas-nnp/_opam/lib/toplevel'; export OCAML_TOPLEVEL_PATH; PKG_CONFIG_PATH='/home/gm/Travail/github/ocaml/ocaml-large-pages-experiment/real_perfs/repo-page-table-vas-nnp/_opam/lib/pkgconfig'; export PKG_CONFIG_PATH; MANPATH=':/home/gm/Travail/github/ocaml/ocaml-large-pages-experiment/real_perfs/repo-page-table-vas-nnp/_opam/man'; export MANPATH; PATH='/home/gm/Travail/github/ocaml/ocaml-large-pages-experiment/real_perfs/repo-page-table-vas-nnp/_opam/bin:/home/gm/.cargo/bin:/home/gm/.local/bin:/usr/lib/ccache:/usr/local/sbin:/usr/local/bin:/usr/sbin:/usr/bin:/sbin:/bin:/usr/games:/usr/local/games:/snap/bin:/usr/lib/jvm/java-8-oracle/bin:/usr/lib/jvm/java-8-oracle/db/bin:/usr/lib/jvm/java-8-oracle/jre/bin'; export PATH;
+ OPAMSWITCH=/home/gm/Travail/github/ocaml/ocaml-large-pages-experiment/real_perfs/repo-page-table-vas-nnp
+ export OPAMSWITCH
+ OPAM_SWITCH_PREFIX=/home/gm/Travail/github/ocaml/ocaml-large-pages-experiment/real_perfs/repo-page-table-vas-nnp/_opam
+ export OPAM_SWITCH_PREFIX
+ CAML_LD_LIBRARY_PATH=/home/gm/Travail/github/ocaml/ocaml-large-pages-experiment/real_perfs/repo-page-table-vas-nnp/_opam/lib/stublibs:/home/gm/Travail/github/ocaml/ocaml-large-pages-experiment/real_perfs/repo-page-table-vas-nnp/_opam/lib/ocaml/stublibs:/home/gm/Travail/github/ocaml/ocaml-large-pages-experiment/real_perfs/repo-page-table-vas-nnp/_opam/lib/ocaml
+ export CAML_LD_LIBRARY_PATH
+ OCAML_TOPLEVEL_PATH=/home/gm/Travail/github/ocaml/ocaml-large-pages-experiment/real_perfs/repo-page-table-vas-nnp/_opam/lib/toplevel
+ export OCAML_TOPLEVEL_PATH
+ PKG_CONFIG_PATH=/home/gm/Travail/github/ocaml/ocaml-large-pages-experiment/real_perfs/repo-page-table-vas-nnp/_opam/lib/pkgconfig
+ export PKG_CONFIG_PATH
+ MANPATH=:/home/gm/Travail/github/ocaml/ocaml-large-pages-experiment/real_perfs/repo-page-table-vas-nnp/_opam/man
+ export MANPATH
+ PATH=/home/gm/Travail/github/ocaml/ocaml-large-pages-experiment/real_perfs/repo-page-table-vas-nnp/_opam/bin:/home/gm/.cargo/bin:/home/gm/.local/bin:/usr/lib/ccache:/usr/local/sbin:/usr/local/bin:/usr/sbin:/usr/bin:/sbin:/bin:/usr/games:/usr/local/games:/snap/bin:/usr/lib/jvm/java-8-oracle/bin:/usr/lib/jvm/java-8-oracle/db/bin:/usr/lib/jvm/java-8-oracle/jre/bin
+ export PATH
+ opam list
# Packages matching: installed
# Name               # Installed # Synopsis
base-bigarray        base
base-threads         base
base-unix            base
cairo2               0.6.2       Binding to Cairo, a 2D Vector Graphics Library
conf-cairo           1           Virtual package relying on a Cairo system installation
conf-findutils       1           Virtual package relying on findutils
conf-gmp             3           Virtual package relying on a GMP lib system installation
conf-gtk3            18          Virtual package relying on GTK+ 3
conf-gtksourceview3  0+2         Virtual package relying on a GtkSourceView-3 system installation
conf-pkg-config      2           Check if pkg-config is installed and create an opam switch local pkgconfig folder
conf-python-3        1.0.0       Virtual package relying on Python-3 installation
csexp                1.5.1       Parsing and printing of S-expressions in Canonical form
dune                 2.9.0       Fast, portable, and opinionated build system
dune-configurator    2.9.0       Helper library for gathering system configuration
lablgtk3             3.1.1       OCaml interface to GTK+3
lablgtk3-sourceview3 3.1.1       OCaml interface to GTK+ gtksourceview library
ocaml                4.12.0      The OCaml compiler (virtual package)
ocaml-config         2           OCaml Switch Configuration
ocaml-variants       4.12.0      pinned to version 4.12.0 at git+file:///home/gm/Travail/github/ocaml#page-table-412-stats+nnp
ocamlfind            1.9.1       A library manager for OCaml
result               1.5         Compatibility Result module
zarith               1.12        Implements arithmetic and logical operations over arbitrary-precision integers
+ opam remove -y coq num zarith
[NOTE] num and coq are not installed.

The following actions will be performed:
  ⊘ remove zarith 1.12

<><> Processing actions <><><><><><><><><><><><><><><><><><><><><><><><><><><><>
⊘ removed   zarith.1.12
Done.
+ rm -rf _opam/lib/zarith
+ rm -rf _opam/lib/stublibs/dllzarith.so*
+ time opam reinstall --skip-updates -j 2 -y ocaml-variants zarith
zarith is not installed. Install it? [Y/n] y
The following actions will be performed:
  ↻ recompile ocaml-variants       4.12.0*
  ↻ recompile ocaml-config         2       [uses ocaml-variants]
  ↻ recompile ocaml                4.12.0  [uses ocaml-variants]
  ↻ recompile ocamlfind            1.9.1   [uses ocaml]
  ↻ recompile dune                 2.9.0   [uses ocaml]
  ∗ install   zarith               1.12
  ↻ recompile result               1.5     [uses ocaml]
  ↻ recompile csexp                1.5.1   [uses ocaml]
  ↻ recompile dune-configurator    2.9.0   [uses ocaml]
  ↻ recompile cairo2               0.6.2   [uses ocaml]
  ↻ recompile lablgtk3             3.1.1   [uses ocaml]
  ↻ recompile lablgtk3-sourceview3 3.1.1   [uses ocaml]
===== ∗ 1   ↻ 11 =====

<><> Gathering sources ><><><><><><><><><><><><><><><><><><><><><><><><><><><><>
[cairo2.0.6.2] found in cache
[csexp.1.5.1] found in cache
[dune.2.9.0] found in cache
[dune-configurator.2.9.0] found in cache
[lablgtk3.3.1.1] found in cache
[lablgtk3-sourceview3.3.1.1] found in cache
[ocamlfind.1.9.1] found in cache
[result.1.5] found in cache
[zarith.1.12] found in cache

<><> Processing actions <><><><><><><><><><><><><><><><><><><><><><><><><><><><>
⊘ removed   lablgtk3-sourceview3.3.1.1
⊘ removed   lablgtk3.3.1.1
⊘ removed   cairo2.0.6.2
⊘ removed   dune-configurator.2.9.0
⊘ removed   csexp.1.5.1
⊘ removed   ocamlfind.1.9.1
⊘ removed   result.1.5
⊘ removed   dune.2.9.0
⊘ removed   ocaml.4.12.0
⊘ removed   ocaml-config.2
⊘ removed   ocaml-variants.4.12.0
∗ installed ocaml-variants.4.12.0
∗ installed ocaml-config.2
∗ installed ocaml.4.12.0
∗ installed ocamlfind.1.9.1
∗ installed zarith.1.12
∗ installed dune.2.9.0
∗ installed csexp.1.5.1
∗ installed result.1.5
∗ installed dune-configurator.2.9.0
∗ installed cairo2.0.6.2
∗ installed lablgtk3.3.1.1
∗ installed lablgtk3-sourceview3.3.1.1
Done.
340.34user 56.64system 3:47.13elapsed 174%CPU (0avgtext+0avgdata 310728maxresident)k
424inputs+4531920outputs (0major+15489512minor)pagefaults 0swaps
+ throttle_control_end
+ cpufreqctl --throttle
+ [ 1304 -eq 1304 ]
+ IS_THROTTLED=
+ mv /tmp/ocaml-stats-page-table-vas-nnp.log reinstall-ocaml-variants.log.51-0
+ cd ..
+ throttle_control_begin
+ IS_THROTTLED=
+ cpufreqctl --throttle
+ THROTTLE=1304
+ cd repo-is_not_young-nnp
+ opam env --switch=. --set-switch
+ eval OPAMSWITCH='/home/gm/Travail/github/ocaml/ocaml-large-pages-experiment/real_perfs/repo-is_not_young-nnp'; export OPAMSWITCH; OPAM_SWITCH_PREFIX='/home/gm/Travail/github/ocaml/ocaml-large-pages-experiment/real_perfs/repo-is_not_young-nnp/_opam'; export OPAM_SWITCH_PREFIX; CAML_LD_LIBRARY_PATH='/home/gm/Travail/github/ocaml/ocaml-large-pages-experiment/real_perfs/repo-is_not_young-nnp/_opam/lib/stublibs:/home/gm/Travail/github/ocaml/ocaml-large-pages-experiment/real_perfs/repo-is_not_young-nnp/_opam/lib/ocaml/stublibs:/home/gm/Travail/github/ocaml/ocaml-large-pages-experiment/real_perfs/repo-is_not_young-nnp/_opam/lib/ocaml'; export CAML_LD_LIBRARY_PATH; OCAML_TOPLEVEL_PATH='/home/gm/Travail/github/ocaml/ocaml-large-pages-experiment/real_perfs/repo-is_not_young-nnp/_opam/lib/toplevel'; export OCAML_TOPLEVEL_PATH; PKG_CONFIG_PATH='/home/gm/Travail/github/ocaml/ocaml-large-pages-experiment/real_perfs/repo-is_not_young-nnp/_opam/lib/pkgconfig'; export PKG_CONFIG_PATH; MANPATH=':/home/gm/Travail/github/ocaml/ocaml-large-pages-experiment/real_perfs/repo-is_not_young-nnp/_opam/man'; export MANPATH; PATH='/home/gm/Travail/github/ocaml/ocaml-large-pages-experiment/real_perfs/repo-is_not_young-nnp/_opam/bin:/home/gm/.cargo/bin:/home/gm/.local/bin:/usr/lib/ccache:/usr/local/sbin:/usr/local/bin:/usr/sbin:/usr/bin:/sbin:/bin:/usr/games:/usr/local/games:/snap/bin:/usr/lib/jvm/java-8-oracle/bin:/usr/lib/jvm/java-8-oracle/db/bin:/usr/lib/jvm/java-8-oracle/jre/bin'; export PATH;
+ OPAMSWITCH=/home/gm/Travail/github/ocaml/ocaml-large-pages-experiment/real_perfs/repo-is_not_young-nnp
+ export OPAMSWITCH
+ OPAM_SWITCH_PREFIX=/home/gm/Travail/github/ocaml/ocaml-large-pages-experiment/real_perfs/repo-is_not_young-nnp/_opam
+ export OPAM_SWITCH_PREFIX
+ CAML_LD_LIBRARY_PATH=/home/gm/Travail/github/ocaml/ocaml-large-pages-experiment/real_perfs/repo-is_not_young-nnp/_opam/lib/stublibs:/home/gm/Travail/github/ocaml/ocaml-large-pages-experiment/real_perfs/repo-is_not_young-nnp/_opam/lib/ocaml/stublibs:/home/gm/Travail/github/ocaml/ocaml-large-pages-experiment/real_perfs/repo-is_not_young-nnp/_opam/lib/ocaml
+ export CAML_LD_LIBRARY_PATH
+ OCAML_TOPLEVEL_PATH=/home/gm/Travail/github/ocaml/ocaml-large-pages-experiment/real_perfs/repo-is_not_young-nnp/_opam/lib/toplevel
+ export OCAML_TOPLEVEL_PATH
+ PKG_CONFIG_PATH=/home/gm/Travail/github/ocaml/ocaml-large-pages-experiment/real_perfs/repo-is_not_young-nnp/_opam/lib/pkgconfig
+ export PKG_CONFIG_PATH
+ MANPATH=:/home/gm/Travail/github/ocaml/ocaml-large-pages-experiment/real_perfs/repo-is_not_young-nnp/_opam/man
+ export MANPATH
+ PATH=/home/gm/Travail/github/ocaml/ocaml-large-pages-experiment/real_perfs/repo-is_not_young-nnp/_opam/bin:/home/gm/.cargo/bin:/home/gm/.local/bin:/usr/lib/ccache:/usr/local/sbin:/usr/local/bin:/usr/sbin:/usr/bin:/sbin:/bin:/usr/games:/usr/local/games:/snap/bin:/usr/lib/jvm/java-8-oracle/bin:/usr/lib/jvm/java-8-oracle/db/bin:/usr/lib/jvm/java-8-oracle/jre/bin
+ export PATH
+ opam list
# Packages matching: installed
# Name               # Installed # Synopsis
base-bigarray        base
base-threads         base
base-unix            base
cairo2               0.6.2       Binding to Cairo, a 2D Vector Graphics Library
conf-cairo           1           Virtual package relying on a Cairo system installation
conf-gmp             3           Virtual package relying on a GMP lib system installation
conf-gtk3            18          Virtual package relying on GTK+ 3
conf-gtksourceview3  0+2         Virtual package relying on a GtkSourceView-3 system installation
conf-pkg-config      2           Check if pkg-config is installed and create an opam switch local pkgconfig folder
conf-python-3        1.0.0       Virtual package relying on Python-3 installation
csexp                1.5.1       Parsing and printing of S-expressions in Canonical form
dune                 2.9.0       Fast, portable, and opinionated build system
dune-configurator    2.9.0       Helper library for gathering system configuration
lablgtk3             3.1.1       OCaml interface to GTK+3
lablgtk3-sourceview3 3.1.1       OCaml interface to GTK+ gtksourceview library
ocaml                4.12.0      The OCaml compiler (virtual package)
ocaml-config         2           OCaml Switch Configuration
ocaml-variants       4.12.0      pinned to version 4.12.0 at git+file:///home/gm/Travail/github/ocaml#mark-prefetching-412-stats-is_not_young+nnp
ocamlfind            1.9.1       A library manager for OCaml
result               1.5         Compatibility Result module
zarith               1.12        Implements arithmetic and logical operations over arbitrary-precision integers
+ opam remove -y coq num zarith
[NOTE] num and coq are not installed.

The following actions will be performed:
  ⊘ remove zarith 1.12

<><> Processing actions <><><><><><><><><><><><><><><><><><><><><><><><><><><><>
⊘ removed   zarith.1.12
Done.
+ rm -rf _opam/lib/zarith
+ rm -rf _opam/lib/stublibs/dllzarith.so*
+ time opam reinstall --skip-updates -j 2 -y ocaml-variants zarith
zarith is not installed. Install it? [Y/n] y
The following actions will be performed:
  ↻ recompile ocaml-variants       4.12.0*
  ↻ recompile ocaml-config         2       [uses ocaml-variants]
  ↻ recompile ocaml                4.12.0  [uses ocaml-variants]
  ↻ recompile ocamlfind            1.9.1   [uses ocaml]
  ↻ recompile dune                 2.9.0   [uses ocaml]
  ∗ install   zarith               1.12
  ↻ recompile result               1.5     [uses ocaml]
  ↻ recompile csexp                1.5.1   [uses ocaml]
  ↻ recompile dune-configurator    2.9.0   [uses ocaml]
  ↻ recompile cairo2               0.6.2   [uses ocaml]
  ↻ recompile lablgtk3             3.1.1   [uses ocaml]
  ↻ recompile lablgtk3-sourceview3 3.1.1   [uses ocaml]
===== ∗ 1   ↻ 11 =====

<><> Gathering sources ><><><><><><><><><><><><><><><><><><><><><><><><><><><><>
[cairo2.0.6.2] found in cache
[csexp.1.5.1] found in cache
[dune.2.9.0] found in cache
[dune-configurator.2.9.0] found in cache
[lablgtk3.3.1.1] found in cache
[lablgtk3-sourceview3.3.1.1] found in cache
[ocamlfind.1.9.1] found in cache
[result.1.5] found in cache
[zarith.1.12] found in cache

<><> Processing actions <><><><><><><><><><><><><><><><><><><><><><><><><><><><>
⊘ removed   lablgtk3-sourceview3.3.1.1
⊘ removed   lablgtk3.3.1.1
⊘ removed   cairo2.0.6.2
⊘ removed   dune-configurator.2.9.0
⊘ removed   csexp.1.5.1
⊘ removed   ocamlfind.1.9.1
⊘ removed   result.1.5
⊘ removed   dune.2.9.0
⊘ removed   ocaml.4.12.0
⊘ removed   ocaml-config.2
⊘ removed   ocaml-variants.4.12.0
∗ installed ocaml-variants.4.12.0
∗ installed ocaml-config.2
∗ installed ocaml.4.12.0
∗ installed ocamlfind.1.9.1
∗ installed zarith.1.12
∗ installed dune.2.9.0
∗ installed csexp.1.5.1
∗ installed result.1.5
∗ installed dune-configurator.2.9.0
∗ installed cairo2.0.6.2
∗ installed lablgtk3.3.1.1
∗ installed lablgtk3-sourceview3.3.1.1
Done.
339.32user 56.69system 3:46.63elapsed 174%CPU (0avgtext+0avgdata 310944maxresident)k
5504inputs+4518480outputs (0major+15497517minor)pagefaults 0swaps
+ throttle_control_end
+ cpufreqctl --throttle
+ [ 1304 -eq 1304 ]
+ IS_THROTTLED=
+ mv /tmp/ocaml-stats-is_not_young-nnp.log reinstall-ocaml-variants.log.51-0
+ cd ..
+ date -R
Thu, 05 Aug 2021 16:24:52 +0200
+ false
+ true
+ throttle_control_begin
+ IS_THROTTLED=
+ cpufreqctl --throttle
+ THROTTLE=1304
+ cd repo-page-table-vas-pt-alt
+ opam env --switch=. --set-switch
+ eval OPAMSWITCH='/home/gm/Travail/github/ocaml/ocaml-large-pages-experiment/real_perfs/repo-page-table-vas-pt-alt'; export OPAMSWITCH; OPAM_SWITCH_PREFIX='/home/gm/Travail/github/ocaml/ocaml-large-pages-experiment/real_perfs/repo-page-table-vas-pt-alt/_opam'; export OPAM_SWITCH_PREFIX; CAML_LD_LIBRARY_PATH='/home/gm/Travail/github/ocaml/ocaml-large-pages-experiment/real_perfs/repo-page-table-vas-pt-alt/_opam/lib/stublibs:/home/gm/Travail/github/ocaml/ocaml-large-pages-experiment/real_perfs/repo-page-table-vas-pt-alt/_opam/lib/ocaml/stublibs:/home/gm/Travail/github/ocaml/ocaml-large-pages-experiment/real_perfs/repo-page-table-vas-pt-alt/_opam/lib/ocaml'; export CAML_LD_LIBRARY_PATH; OCAML_TOPLEVEL_PATH='/home/gm/Travail/github/ocaml/ocaml-large-pages-experiment/real_perfs/repo-page-table-vas-pt-alt/_opam/lib/toplevel'; export OCAML_TOPLEVEL_PATH; PKG_CONFIG_PATH='/home/gm/Travail/github/ocaml/ocaml-large-pages-experiment/real_perfs/repo-page-table-vas-pt-alt/_opam/lib/pkgconfig'; export PKG_CONFIG_PATH; MANPATH=':/home/gm/Travail/github/ocaml/ocaml-large-pages-experiment/real_perfs/repo-page-table-vas-pt-alt/_opam/man'; export MANPATH; PATH='/home/gm/Travail/github/ocaml/ocaml-large-pages-experiment/real_perfs/repo-page-table-vas-pt-alt/_opam/bin:/home/gm/.cargo/bin:/home/gm/.local/bin:/usr/lib/ccache:/usr/local/sbin:/usr/local/bin:/usr/sbin:/usr/bin:/sbin:/bin:/usr/games:/usr/local/games:/snap/bin:/usr/lib/jvm/java-8-oracle/bin:/usr/lib/jvm/java-8-oracle/db/bin:/usr/lib/jvm/java-8-oracle/jre/bin'; export PATH;
+ OPAMSWITCH=/home/gm/Travail/github/ocaml/ocaml-large-pages-experiment/real_perfs/repo-page-table-vas-pt-alt
+ export OPAMSWITCH
+ OPAM_SWITCH_PREFIX=/home/gm/Travail/github/ocaml/ocaml-large-pages-experiment/real_perfs/repo-page-table-vas-pt-alt/_opam
+ export OPAM_SWITCH_PREFIX
+ CAML_LD_LIBRARY_PATH=/home/gm/Travail/github/ocaml/ocaml-large-pages-experiment/real_perfs/repo-page-table-vas-pt-alt/_opam/lib/stublibs:/home/gm/Travail/github/ocaml/ocaml-large-pages-experiment/real_perfs/repo-page-table-vas-pt-alt/_opam/lib/ocaml/stublibs:/home/gm/Travail/github/ocaml/ocaml-large-pages-experiment/real_perfs/repo-page-table-vas-pt-alt/_opam/lib/ocaml
+ export CAML_LD_LIBRARY_PATH
+ OCAML_TOPLEVEL_PATH=/home/gm/Travail/github/ocaml/ocaml-large-pages-experiment/real_perfs/repo-page-table-vas-pt-alt/_opam/lib/toplevel
+ export OCAML_TOPLEVEL_PATH
+ PKG_CONFIG_PATH=/home/gm/Travail/github/ocaml/ocaml-large-pages-experiment/real_perfs/repo-page-table-vas-pt-alt/_opam/lib/pkgconfig
+ export PKG_CONFIG_PATH
+ MANPATH=:/home/gm/Travail/github/ocaml/ocaml-large-pages-experiment/real_perfs/repo-page-table-vas-pt-alt/_opam/man
+ export MANPATH
+ PATH=/home/gm/Travail/github/ocaml/ocaml-large-pages-experiment/real_perfs/repo-page-table-vas-pt-alt/_opam/bin:/home/gm/.cargo/bin:/home/gm/.local/bin:/usr/lib/ccache:/usr/local/sbin:/usr/local/bin:/usr/sbin:/usr/bin:/sbin:/bin:/usr/games:/usr/local/games:/snap/bin:/usr/lib/jvm/java-8-oracle/bin:/usr/lib/jvm/java-8-oracle/db/bin:/usr/lib/jvm/java-8-oracle/jre/bin
+ export PATH
+ opam list
# Packages matching: installed
# Name               # Installed # Synopsis
base-bigarray        base
base-threads         base
base-unix            base
cairo2               0.6.2       Binding to Cairo, a 2D Vector Graphics Library
conf-cairo           1           Virtual package relying on a Cairo system installation
conf-gmp             3           Virtual package relying on a GMP lib system installation
conf-gtk3            18          Virtual package relying on GTK+ 3
conf-gtksourceview3  0+2         Virtual package relying on a GtkSourceView-3 system installation
conf-pkg-config      2           Check if pkg-config is installed and create an opam switch local pkgconfig folder
csexp                1.5.1       Parsing and printing of S-expressions in Canonical form
dune                 2.9.0       Fast, portable, and opinionated build system
dune-configurator    2.9.0       Helper library for gathering system configuration
lablgtk3             3.1.1       OCaml interface to GTK+3
lablgtk3-sourceview3 3.1.1       OCaml interface to GTK+ gtksourceview library
ocaml                4.12.0      The OCaml compiler (virtual package)
ocaml-config         2           OCaml Switch Configuration
ocaml-variants       4.12.0      pinned to version 4.12.0 at git+file:///home/gm/Travail/github/ocaml#page-table-412-stats-alt
ocamlfind            1.9.1       A library manager for OCaml
result               1.5         Compatibility Result module
zarith               1.12        Implements arithmetic and logical operations over arbitrary-precision integers
+ true
+ opam remove -y coq-mathcomp-character coq-mathcomp-field coq-mathcomp-solvable coq-mathcomp-algebra coq-mathcomp-fingroup coq-mathcomp-ssreflect coq-mathcomp-odd-order
[NOTE] coq-mathcomp-odd-order, coq-mathcomp-ssreflect, coq-mathcomp-fingroup, coq-mathcomp-algebra, coq-mathcomp-solvable, coq-mathcomp-field and coq-mathcomp-character are not installed.

Nothing to do.
+ c=reinstall
+ time opam reinstall --skip-updates -j 2 -y coq coq-core coqide coqide-server coq-stdlib
coq, coq-core, coqide, coqide-server and coq-stdlib are not installed. Install them? [Y/n] y
The following actions will be performed:
  ∗ install coq-core      dev*
  ∗ install coqide-server dev*
  ∗ install coq-stdlib    dev*
  ∗ install coqide        dev*
  ∗ install coq           dev*
===== ∗ 5 =====

<><> Processing actions <><><><><><><><><><><><><><><><><><><><><><><><><><><><>
∗ installed coq-core.dev
∗ installed coqide-server.dev
∗ installed coqide.dev
∗ installed coq-stdlib.dev
∗ installed coq.dev
Done.
588.56user 240.43system 8:14.08elapsed 167%CPU (0avgtext+0avgdata 608124maxresident)k
475136inputs+4251304outputs (213major+54442010minor)pagefaults 0swaps
+ throttle_control_end
+ cpufreqctl --throttle
+ [ 1304 -eq 1304 ]
+ IS_THROTTLED=
+ mv /tmp/ocaml-stats-page-table-vas-pt-alt.log coq-opam.log.51-0
+ cd ..
+ throttle_control_begin
+ IS_THROTTLED=
+ cpufreqctl --throttle
+ THROTTLE=1304
+ cd repo-page-table-vas-nnp
+ opam env --switch=. --set-switch
+ eval OPAMSWITCH='/home/gm/Travail/github/ocaml/ocaml-large-pages-experiment/real_perfs/repo-page-table-vas-nnp'; export OPAMSWITCH; OPAM_SWITCH_PREFIX='/home/gm/Travail/github/ocaml/ocaml-large-pages-experiment/real_perfs/repo-page-table-vas-nnp/_opam'; export OPAM_SWITCH_PREFIX; CAML_LD_LIBRARY_PATH='/home/gm/Travail/github/ocaml/ocaml-large-pages-experiment/real_perfs/repo-page-table-vas-nnp/_opam/lib/stublibs:/home/gm/Travail/github/ocaml/ocaml-large-pages-experiment/real_perfs/repo-page-table-vas-nnp/_opam/lib/ocaml/stublibs:/home/gm/Travail/github/ocaml/ocaml-large-pages-experiment/real_perfs/repo-page-table-vas-nnp/_opam/lib/ocaml'; export CAML_LD_LIBRARY_PATH; OCAML_TOPLEVEL_PATH='/home/gm/Travail/github/ocaml/ocaml-large-pages-experiment/real_perfs/repo-page-table-vas-nnp/_opam/lib/toplevel'; export OCAML_TOPLEVEL_PATH; PKG_CONFIG_PATH='/home/gm/Travail/github/ocaml/ocaml-large-pages-experiment/real_perfs/repo-page-table-vas-nnp/_opam/lib/pkgconfig'; export PKG_CONFIG_PATH; MANPATH=':/home/gm/Travail/github/ocaml/ocaml-large-pages-experiment/real_perfs/repo-page-table-vas-nnp/_opam/man'; export MANPATH; PATH='/home/gm/Travail/github/ocaml/ocaml-large-pages-experiment/real_perfs/repo-page-table-vas-nnp/_opam/bin:/home/gm/.cargo/bin:/home/gm/.local/bin:/usr/lib/ccache:/usr/local/sbin:/usr/local/bin:/usr/sbin:/usr/bin:/sbin:/bin:/usr/games:/usr/local/games:/snap/bin:/usr/lib/jvm/java-8-oracle/bin:/usr/lib/jvm/java-8-oracle/db/bin:/usr/lib/jvm/java-8-oracle/jre/bin'; export PATH;
+ OPAMSWITCH=/home/gm/Travail/github/ocaml/ocaml-large-pages-experiment/real_perfs/repo-page-table-vas-nnp
+ export OPAMSWITCH
+ OPAM_SWITCH_PREFIX=/home/gm/Travail/github/ocaml/ocaml-large-pages-experiment/real_perfs/repo-page-table-vas-nnp/_opam
+ export OPAM_SWITCH_PREFIX
+ CAML_LD_LIBRARY_PATH=/home/gm/Travail/github/ocaml/ocaml-large-pages-experiment/real_perfs/repo-page-table-vas-nnp/_opam/lib/stublibs:/home/gm/Travail/github/ocaml/ocaml-large-pages-experiment/real_perfs/repo-page-table-vas-nnp/_opam/lib/ocaml/stublibs:/home/gm/Travail/github/ocaml/ocaml-large-pages-experiment/real_perfs/repo-page-table-vas-nnp/_opam/lib/ocaml
+ export CAML_LD_LIBRARY_PATH
+ OCAML_TOPLEVEL_PATH=/home/gm/Travail/github/ocaml/ocaml-large-pages-experiment/real_perfs/repo-page-table-vas-nnp/_opam/lib/toplevel
+ export OCAML_TOPLEVEL_PATH
+ PKG_CONFIG_PATH=/home/gm/Travail/github/ocaml/ocaml-large-pages-experiment/real_perfs/repo-page-table-vas-nnp/_opam/lib/pkgconfig
+ export PKG_CONFIG_PATH
+ MANPATH=:/home/gm/Travail/github/ocaml/ocaml-large-pages-experiment/real_perfs/repo-page-table-vas-nnp/_opam/man
+ export MANPATH
+ PATH=/home/gm/Travail/github/ocaml/ocaml-large-pages-experiment/real_perfs/repo-page-table-vas-nnp/_opam/bin:/home/gm/.cargo/bin:/home/gm/.local/bin:/usr/lib/ccache:/usr/local/sbin:/usr/local/bin:/usr/sbin:/usr/bin:/sbin:/bin:/usr/games:/usr/local/games:/snap/bin:/usr/lib/jvm/java-8-oracle/bin:/usr/lib/jvm/java-8-oracle/db/bin:/usr/lib/jvm/java-8-oracle/jre/bin
+ export PATH
+ opam list
# Packages matching: installed
# Name               # Installed # Synopsis
base-bigarray        base
base-threads         base
base-unix            base
cairo2               0.6.2       Binding to Cairo, a 2D Vector Graphics Library
conf-cairo           1           Virtual package relying on a Cairo system installation
conf-findutils       1           Virtual package relying on findutils
conf-gmp             3           Virtual package relying on a GMP lib system installation
conf-gtk3            18          Virtual package relying on GTK+ 3
conf-gtksourceview3  0+2         Virtual package relying on a GtkSourceView-3 system installation
conf-pkg-config      2           Check if pkg-config is installed and create an opam switch local pkgconfig folder
conf-python-3        1.0.0       Virtual package relying on Python-3 installation
csexp                1.5.1       Parsing and printing of S-expressions in Canonical form
dune                 2.9.0       Fast, portable, and opinionated build system
dune-configurator    2.9.0       Helper library for gathering system configuration
lablgtk3             3.1.1       OCaml interface to GTK+3
lablgtk3-sourceview3 3.1.1       OCaml interface to GTK+ gtksourceview library
ocaml                4.12.0      The OCaml compiler (virtual package)
ocaml-config         2           OCaml Switch Configuration
ocaml-variants       4.12.0      pinned to version 4.12.0 at git+file:///home/gm/Travail/github/ocaml#page-table-412-stats+nnp
ocamlfind            1.9.1       A library manager for OCaml
result               1.5         Compatibility Result module
zarith               1.12        Implements arithmetic and logical operations over arbitrary-precision integers
+ true
+ opam remove -y coq-mathcomp-character coq-mathcomp-field coq-mathcomp-solvable coq-mathcomp-algebra coq-mathcomp-fingroup coq-mathcomp-ssreflect coq-mathcomp-odd-order
[NOTE] coq-mathcomp-odd-order, coq-mathcomp-ssreflect, coq-mathcomp-fingroup, coq-mathcomp-algebra, coq-mathcomp-solvable, coq-mathcomp-field and coq-mathcomp-character are not installed.

Nothing to do.
+ c=reinstall
+ time opam reinstall --skip-updates -j 2 -y coq coq-core coqide coqide-server coq-stdlib
coq, coq-core, coqide, coqide-server and coq-stdlib are not installed. Install them? [Y/n] y
The following actions will be performed:
  ∗ install coq-core      dev*
  ∗ install coqide-server dev*
  ∗ install coq-stdlib    dev*
  ∗ install coqide        dev*
  ∗ install coq           dev*
===== ∗ 5 =====

<><> Processing actions <><><><><><><><><><><><><><><><><><><><><><><><><><><><>
∗ installed coq-core.dev
∗ installed coqide-server.dev
∗ installed coqide.dev
∗ installed coq-stdlib.dev
∗ installed coq.dev
Done.
583.16user 242.15system 8:11.66elapsed 167%CPU (0avgtext+0avgdata 613616maxresident)k
470984inputs+4245032outputs (2major+54467904minor)pagefaults 0swaps
+ throttle_control_end
+ cpufreqctl --throttle
+ [ 1304 -eq 1304 ]
+ IS_THROTTLED=
+ mv /tmp/ocaml-stats-page-table-vas-nnp.log coq-opam.log.51-0
+ cd ..
+ throttle_control_begin
+ IS_THROTTLED=
+ cpufreqctl --throttle
+ THROTTLE=1304
+ cd repo-is_not_young-nnp
+ opam env --switch=. --set-switch
+ eval OPAMSWITCH='/home/gm/Travail/github/ocaml/ocaml-large-pages-experiment/real_perfs/repo-is_not_young-nnp'; export OPAMSWITCH; OPAM_SWITCH_PREFIX='/home/gm/Travail/github/ocaml/ocaml-large-pages-experiment/real_perfs/repo-is_not_young-nnp/_opam'; export OPAM_SWITCH_PREFIX; CAML_LD_LIBRARY_PATH='/home/gm/Travail/github/ocaml/ocaml-large-pages-experiment/real_perfs/repo-is_not_young-nnp/_opam/lib/stublibs:/home/gm/Travail/github/ocaml/ocaml-large-pages-experiment/real_perfs/repo-is_not_young-nnp/_opam/lib/ocaml/stublibs:/home/gm/Travail/github/ocaml/ocaml-large-pages-experiment/real_perfs/repo-is_not_young-nnp/_opam/lib/ocaml'; export CAML_LD_LIBRARY_PATH; OCAML_TOPLEVEL_PATH='/home/gm/Travail/github/ocaml/ocaml-large-pages-experiment/real_perfs/repo-is_not_young-nnp/_opam/lib/toplevel'; export OCAML_TOPLEVEL_PATH; PKG_CONFIG_PATH='/home/gm/Travail/github/ocaml/ocaml-large-pages-experiment/real_perfs/repo-is_not_young-nnp/_opam/lib/pkgconfig'; export PKG_CONFIG_PATH; MANPATH=':/home/gm/Travail/github/ocaml/ocaml-large-pages-experiment/real_perfs/repo-is_not_young-nnp/_opam/man'; export MANPATH; PATH='/home/gm/Travail/github/ocaml/ocaml-large-pages-experiment/real_perfs/repo-is_not_young-nnp/_opam/bin:/home/gm/.cargo/bin:/home/gm/.local/bin:/usr/lib/ccache:/usr/local/sbin:/usr/local/bin:/usr/sbin:/usr/bin:/sbin:/bin:/usr/games:/usr/local/games:/snap/bin:/usr/lib/jvm/java-8-oracle/bin:/usr/lib/jvm/java-8-oracle/db/bin:/usr/lib/jvm/java-8-oracle/jre/bin'; export PATH;
+ OPAMSWITCH=/home/gm/Travail/github/ocaml/ocaml-large-pages-experiment/real_perfs/repo-is_not_young-nnp
+ export OPAMSWITCH
+ OPAM_SWITCH_PREFIX=/home/gm/Travail/github/ocaml/ocaml-large-pages-experiment/real_perfs/repo-is_not_young-nnp/_opam
+ export OPAM_SWITCH_PREFIX
+ CAML_LD_LIBRARY_PATH=/home/gm/Travail/github/ocaml/ocaml-large-pages-experiment/real_perfs/repo-is_not_young-nnp/_opam/lib/stublibs:/home/gm/Travail/github/ocaml/ocaml-large-pages-experiment/real_perfs/repo-is_not_young-nnp/_opam/lib/ocaml/stublibs:/home/gm/Travail/github/ocaml/ocaml-large-pages-experiment/real_perfs/repo-is_not_young-nnp/_opam/lib/ocaml
+ export CAML_LD_LIBRARY_PATH
+ OCAML_TOPLEVEL_PATH=/home/gm/Travail/github/ocaml/ocaml-large-pages-experiment/real_perfs/repo-is_not_young-nnp/_opam/lib/toplevel
+ export OCAML_TOPLEVEL_PATH
+ PKG_CONFIG_PATH=/home/gm/Travail/github/ocaml/ocaml-large-pages-experiment/real_perfs/repo-is_not_young-nnp/_opam/lib/pkgconfig
+ export PKG_CONFIG_PATH
+ MANPATH=:/home/gm/Travail/github/ocaml/ocaml-large-pages-experiment/real_perfs/repo-is_not_young-nnp/_opam/man
+ export MANPATH
+ PATH=/home/gm/Travail/github/ocaml/ocaml-large-pages-experiment/real_perfs/repo-is_not_young-nnp/_opam/bin:/home/gm/.cargo/bin:/home/gm/.local/bin:/usr/lib/ccache:/usr/local/sbin:/usr/local/bin:/usr/sbin:/usr/bin:/sbin:/bin:/usr/games:/usr/local/games:/snap/bin:/usr/lib/jvm/java-8-oracle/bin:/usr/lib/jvm/java-8-oracle/db/bin:/usr/lib/jvm/java-8-oracle/jre/bin
+ export PATH
+ opam list
# Packages matching: installed
# Name               # Installed # Synopsis
base-bigarray        base
base-threads         base
base-unix            base
cairo2               0.6.2       Binding to Cairo, a 2D Vector Graphics Library
conf-cairo           1           Virtual package relying on a Cairo system installation
conf-gmp             3           Virtual package relying on a GMP lib system installation
conf-gtk3            18          Virtual package relying on GTK+ 3
conf-gtksourceview3  0+2         Virtual package relying on a GtkSourceView-3 system installation
conf-pkg-config      2           Check if pkg-config is installed and create an opam switch local pkgconfig folder
conf-python-3        1.0.0       Virtual package relying on Python-3 installation
csexp                1.5.1       Parsing and printing of S-expressions in Canonical form
dune                 2.9.0       Fast, portable, and opinionated build system
dune-configurator    2.9.0       Helper library for gathering system configuration
lablgtk3             3.1.1       OCaml interface to GTK+3
lablgtk3-sourceview3 3.1.1       OCaml interface to GTK+ gtksourceview library
ocaml                4.12.0      The OCaml compiler (virtual package)
ocaml-config         2           OCaml Switch Configuration
ocaml-variants       4.12.0      pinned to version 4.12.0 at git+file:///home/gm/Travail/github/ocaml#mark-prefetching-412-stats-is_not_young+nnp
ocamlfind            1.9.1       A library manager for OCaml
result               1.5         Compatibility Result module
zarith               1.12        Implements arithmetic and logical operations over arbitrary-precision integers
+ true
+ opam remove -y coq-mathcomp-character coq-mathcomp-field coq-mathcomp-solvable coq-mathcomp-algebra coq-mathcomp-fingroup coq-mathcomp-ssreflect coq-mathcomp-odd-order
[NOTE] coq-mathcomp-odd-order, coq-mathcomp-ssreflect, coq-mathcomp-fingroup, coq-mathcomp-algebra, coq-mathcomp-solvable, coq-mathcomp-field and coq-mathcomp-character are not installed.

Nothing to do.
+ c=reinstall
+ time opam reinstall --skip-updates -j 2 -y coq coq-core coqide coqide-server coq-stdlib
coq, coq-core, coqide, coqide-server and coq-stdlib are not installed. Install them? [Y/n] y
The following actions will be performed:
  ∗ install coq-core      dev*
  ∗ install coqide-server dev*
  ∗ install coq-stdlib    dev*
  ∗ install coqide        dev*
  ∗ install coq           dev*
===== ∗ 5 =====

<><> Processing actions <><><><><><><><><><><><><><><><><><><><><><><><><><><><>
∗ installed coq-core.dev
∗ installed coqide-server.dev
∗ installed coqide.dev
∗ installed coq-stdlib.dev
∗ installed coq.dev
Done.
583.89user 242.03system 8:11.74elapsed 167%CPU (0avgtext+0avgdata 612052maxresident)k
414472inputs+4242376outputs (0major+55055745minor)pagefaults 0swaps
+ throttle_control_end
+ cpufreqctl --throttle
+ [ 1304 -eq 1304 ]
+ IS_THROTTLED=
+ mv /tmp/ocaml-stats-is_not_young-nnp.log coq-opam.log.51-0
+ cd ..
+ date -R
Thu, 05 Aug 2021 16:49:34 +0200
+ true
+ throttle_control_begin
+ IS_THROTTLED=
+ cpufreqctl --throttle
+ THROTTLE=1304
+ cd repo-page-table-vas-pt-alt
+ opam env --switch=. --set-switch
+ eval OPAMSWITCH='/home/gm/Travail/github/ocaml/ocaml-large-pages-experiment/real_perfs/repo-page-table-vas-pt-alt'; export OPAMSWITCH; OPAM_SWITCH_PREFIX='/home/gm/Travail/github/ocaml/ocaml-large-pages-experiment/real_perfs/repo-page-table-vas-pt-alt/_opam'; export OPAM_SWITCH_PREFIX; CAML_LD_LIBRARY_PATH='/home/gm/Travail/github/ocaml/ocaml-large-pages-experiment/real_perfs/repo-page-table-vas-pt-alt/_opam/lib/stublibs:/home/gm/Travail/github/ocaml/ocaml-large-pages-experiment/real_perfs/repo-page-table-vas-pt-alt/_opam/lib/ocaml/stublibs:/home/gm/Travail/github/ocaml/ocaml-large-pages-experiment/real_perfs/repo-page-table-vas-pt-alt/_opam/lib/ocaml'; export CAML_LD_LIBRARY_PATH; OCAML_TOPLEVEL_PATH='/home/gm/Travail/github/ocaml/ocaml-large-pages-experiment/real_perfs/repo-page-table-vas-pt-alt/_opam/lib/toplevel'; export OCAML_TOPLEVEL_PATH; PKG_CONFIG_PATH='/home/gm/Travail/github/ocaml/ocaml-large-pages-experiment/real_perfs/repo-page-table-vas-pt-alt/_opam/lib/pkgconfig'; export PKG_CONFIG_PATH; MANPATH=':/home/gm/Travail/github/ocaml/ocaml-large-pages-experiment/real_perfs/repo-page-table-vas-pt-alt/_opam/man'; export MANPATH; PATH='/home/gm/Travail/github/ocaml/ocaml-large-pages-experiment/real_perfs/repo-page-table-vas-pt-alt/_opam/bin:/home/gm/.cargo/bin:/home/gm/.local/bin:/usr/lib/ccache:/usr/local/sbin:/usr/local/bin:/usr/sbin:/usr/bin:/sbin:/bin:/usr/games:/usr/local/games:/snap/bin:/usr/lib/jvm/java-8-oracle/bin:/usr/lib/jvm/java-8-oracle/db/bin:/usr/lib/jvm/java-8-oracle/jre/bin'; export PATH;
+ OPAMSWITCH=/home/gm/Travail/github/ocaml/ocaml-large-pages-experiment/real_perfs/repo-page-table-vas-pt-alt
+ export OPAMSWITCH
+ OPAM_SWITCH_PREFIX=/home/gm/Travail/github/ocaml/ocaml-large-pages-experiment/real_perfs/repo-page-table-vas-pt-alt/_opam
+ export OPAM_SWITCH_PREFIX
+ CAML_LD_LIBRARY_PATH=/home/gm/Travail/github/ocaml/ocaml-large-pages-experiment/real_perfs/repo-page-table-vas-pt-alt/_opam/lib/stublibs:/home/gm/Travail/github/ocaml/ocaml-large-pages-experiment/real_perfs/repo-page-table-vas-pt-alt/_opam/lib/ocaml/stublibs:/home/gm/Travail/github/ocaml/ocaml-large-pages-experiment/real_perfs/repo-page-table-vas-pt-alt/_opam/lib/ocaml
+ export CAML_LD_LIBRARY_PATH
+ OCAML_TOPLEVEL_PATH=/home/gm/Travail/github/ocaml/ocaml-large-pages-experiment/real_perfs/repo-page-table-vas-pt-alt/_opam/lib/toplevel
+ export OCAML_TOPLEVEL_PATH
+ PKG_CONFIG_PATH=/home/gm/Travail/github/ocaml/ocaml-large-pages-experiment/real_perfs/repo-page-table-vas-pt-alt/_opam/lib/pkgconfig
+ export PKG_CONFIG_PATH
+ MANPATH=:/home/gm/Travail/github/ocaml/ocaml-large-pages-experiment/real_perfs/repo-page-table-vas-pt-alt/_opam/man
+ export MANPATH
+ PATH=/home/gm/Travail/github/ocaml/ocaml-large-pages-experiment/real_perfs/repo-page-table-vas-pt-alt/_opam/bin:/home/gm/.cargo/bin:/home/gm/.local/bin:/usr/lib/ccache:/usr/local/sbin:/usr/local/bin:/usr/sbin:/usr/bin:/sbin:/bin:/usr/games:/usr/local/games:/snap/bin:/usr/lib/jvm/java-8-oracle/bin:/usr/lib/jvm/java-8-oracle/db/bin:/usr/lib/jvm/java-8-oracle/jre/bin
+ export PATH
+ opam list
# Packages matching: installed
# Name               # Installed # Synopsis
base-bigarray        base
base-threads         base
base-unix            base
cairo2               0.6.2       Binding to Cairo, a 2D Vector Graphics Library
conf-cairo           1           Virtual package relying on a Cairo system installation
conf-gmp             3           Virtual package relying on a GMP lib system installation
conf-gtk3            18          Virtual package relying on GTK+ 3
conf-gtksourceview3  0+2         Virtual package relying on a GtkSourceView-3 system installation
conf-pkg-config      2           Check if pkg-config is installed and create an opam switch local pkgconfig folder
coq                  dev         pinned to version dev at git+https://github.com/gadmm/coq.git#nnp
coq-core             dev         pinned to version dev at git+https://github.com/gadmm/coq.git#nnp
coq-stdlib           dev         pinned to version dev at git+https://github.com/gadmm/coq.git#nnp
coqide               dev         pinned to version dev at git+https://github.com/gadmm/coq.git#nnp
coqide-server        dev         pinned to version dev at git+https://github.com/gadmm/coq.git#nnp
csexp                1.5.1       Parsing and printing of S-expressions in Canonical form
dune                 2.9.0       Fast, portable, and opinionated build system
dune-configurator    2.9.0       Helper library for gathering system configuration
lablgtk3             3.1.1       OCaml interface to GTK+3
lablgtk3-sourceview3 3.1.1       OCaml interface to GTK+ gtksourceview library
ocaml                4.12.0      The OCaml compiler (virtual package)
ocaml-config         2           OCaml Switch Configuration
ocaml-variants       4.12.0      pinned to version 4.12.0 at git+file:///home/gm/Travail/github/ocaml#page-table-412-stats-alt
ocamlfind            1.9.1       A library manager for OCaml
result               1.5         Compatibility Result module
zarith               1.12        Implements arithmetic and logical operations over arbitrary-precision integers
+ opam remove -y coq-mathcomp-odd-order
[NOTE] coq-mathcomp-odd-order is not installed.

Nothing to do.
+ time opam reinstall --skip-updates -j 2 -y coq-mathcomp-character coq-mathcomp-field coq-mathcomp-solvable coq-mathcomp-algebra coq-mathcomp-fingroup coq-mathcomp-ssreflect
coq-mathcomp-character, coq-mathcomp-field, coq-mathcomp-solvable, coq-mathcomp-algebra, coq-mathcomp-fingroup and coq-mathcomp-ssreflect are not installed. Install them? [Y/n] y
The following actions will be performed:
  ∗ install coq-mathcomp-ssreflect 1.12.0
  ∗ install coq-mathcomp-fingroup  1.12.0
  ∗ install coq-mathcomp-algebra   1.12.0
  ∗ install coq-mathcomp-solvable  1.12.0
  ∗ install coq-mathcomp-field     1.12.0
  ∗ install coq-mathcomp-character 1.12.0
===== ∗ 6 =====

<><> Gathering sources ><><><><><><><><><><><><><><><><><><><><><><><><><><><><>
[coq-mathcomp-algebra.1.12.0] found in cache
[coq-mathcomp-character.1.12.0] found in cache
[coq-mathcomp-field.1.12.0] found in cache
[coq-mathcomp-fingroup.1.12.0] found in cache
[coq-mathcomp-solvable.1.12.0] found in cache
[coq-mathcomp-ssreflect.1.12.0] found in cache

<><> Processing actions <><><><><><><><><><><><><><><><><><><><><><><><><><><><>
∗ installed coq-mathcomp-ssreflect.1.12.0
∗ installed coq-mathcomp-fingroup.1.12.0
∗ installed coq-mathcomp-algebra.1.12.0
∗ installed coq-mathcomp-solvable.1.12.0
∗ installed coq-mathcomp-field.1.12.0
∗ installed coq-mathcomp-character.1.12.0
Done.
753.36user 20.35system 9:24.35elapsed 137%CPU (0avgtext+0avgdata 737216maxresident)k
64inputs+547848outputs (2major+11196464minor)pagefaults 0swaps
+ throttle_control_end
+ cpufreqctl --throttle
+ [ 1304 -eq 1304 ]
+ IS_THROTTLED=
+ mv /tmp/ocaml-stats-page-table-vas-pt-alt.log coq-mathcomp.log.51-0
+ cd ..
+ throttle_control_begin
+ IS_THROTTLED=
+ cpufreqctl --throttle
+ THROTTLE=1304
+ cd repo-page-table-vas-nnp
+ opam env --switch=. --set-switch
+ eval OPAMSWITCH='/home/gm/Travail/github/ocaml/ocaml-large-pages-experiment/real_perfs/repo-page-table-vas-nnp'; export OPAMSWITCH; OPAM_SWITCH_PREFIX='/home/gm/Travail/github/ocaml/ocaml-large-pages-experiment/real_perfs/repo-page-table-vas-nnp/_opam'; export OPAM_SWITCH_PREFIX; CAML_LD_LIBRARY_PATH='/home/gm/Travail/github/ocaml/ocaml-large-pages-experiment/real_perfs/repo-page-table-vas-nnp/_opam/lib/stublibs:/home/gm/Travail/github/ocaml/ocaml-large-pages-experiment/real_perfs/repo-page-table-vas-nnp/_opam/lib/ocaml/stublibs:/home/gm/Travail/github/ocaml/ocaml-large-pages-experiment/real_perfs/repo-page-table-vas-nnp/_opam/lib/ocaml'; export CAML_LD_LIBRARY_PATH; OCAML_TOPLEVEL_PATH='/home/gm/Travail/github/ocaml/ocaml-large-pages-experiment/real_perfs/repo-page-table-vas-nnp/_opam/lib/toplevel'; export OCAML_TOPLEVEL_PATH; PKG_CONFIG_PATH='/home/gm/Travail/github/ocaml/ocaml-large-pages-experiment/real_perfs/repo-page-table-vas-nnp/_opam/lib/pkgconfig'; export PKG_CONFIG_PATH; MANPATH=':/home/gm/Travail/github/ocaml/ocaml-large-pages-experiment/real_perfs/repo-page-table-vas-nnp/_opam/man'; export MANPATH; PATH='/home/gm/Travail/github/ocaml/ocaml-large-pages-experiment/real_perfs/repo-page-table-vas-nnp/_opam/bin:/home/gm/.cargo/bin:/home/gm/.local/bin:/usr/lib/ccache:/usr/local/sbin:/usr/local/bin:/usr/sbin:/usr/bin:/sbin:/bin:/usr/games:/usr/local/games:/snap/bin:/usr/lib/jvm/java-8-oracle/bin:/usr/lib/jvm/java-8-oracle/db/bin:/usr/lib/jvm/java-8-oracle/jre/bin'; export PATH;
+ OPAMSWITCH=/home/gm/Travail/github/ocaml/ocaml-large-pages-experiment/real_perfs/repo-page-table-vas-nnp
+ export OPAMSWITCH
+ OPAM_SWITCH_PREFIX=/home/gm/Travail/github/ocaml/ocaml-large-pages-experiment/real_perfs/repo-page-table-vas-nnp/_opam
+ export OPAM_SWITCH_PREFIX
+ CAML_LD_LIBRARY_PATH=/home/gm/Travail/github/ocaml/ocaml-large-pages-experiment/real_perfs/repo-page-table-vas-nnp/_opam/lib/stublibs:/home/gm/Travail/github/ocaml/ocaml-large-pages-experiment/real_perfs/repo-page-table-vas-nnp/_opam/lib/ocaml/stublibs:/home/gm/Travail/github/ocaml/ocaml-large-pages-experiment/real_perfs/repo-page-table-vas-nnp/_opam/lib/ocaml
+ export CAML_LD_LIBRARY_PATH
+ OCAML_TOPLEVEL_PATH=/home/gm/Travail/github/ocaml/ocaml-large-pages-experiment/real_perfs/repo-page-table-vas-nnp/_opam/lib/toplevel
+ export OCAML_TOPLEVEL_PATH
+ PKG_CONFIG_PATH=/home/gm/Travail/github/ocaml/ocaml-large-pages-experiment/real_perfs/repo-page-table-vas-nnp/_opam/lib/pkgconfig
+ export PKG_CONFIG_PATH
+ MANPATH=:/home/gm/Travail/github/ocaml/ocaml-large-pages-experiment/real_perfs/repo-page-table-vas-nnp/_opam/man
+ export MANPATH
+ PATH=/home/gm/Travail/github/ocaml/ocaml-large-pages-experiment/real_perfs/repo-page-table-vas-nnp/_opam/bin:/home/gm/.cargo/bin:/home/gm/.local/bin:/usr/lib/ccache:/usr/local/sbin:/usr/local/bin:/usr/sbin:/usr/bin:/sbin:/bin:/usr/games:/usr/local/games:/snap/bin:/usr/lib/jvm/java-8-oracle/bin:/usr/lib/jvm/java-8-oracle/db/bin:/usr/lib/jvm/java-8-oracle/jre/bin
+ export PATH
+ opam list
# Packages matching: installed
# Name               # Installed # Synopsis
base-bigarray        base
base-threads         base
base-unix            base
cairo2               0.6.2       Binding to Cairo, a 2D Vector Graphics Library
conf-cairo           1           Virtual package relying on a Cairo system installation
conf-findutils       1           Virtual package relying on findutils
conf-gmp             3           Virtual package relying on a GMP lib system installation
conf-gtk3            18          Virtual package relying on GTK+ 3
conf-gtksourceview3  0+2         Virtual package relying on a GtkSourceView-3 system installation
conf-pkg-config      2           Check if pkg-config is installed and create an opam switch local pkgconfig folder
conf-python-3        1.0.0       Virtual package relying on Python-3 installation
coq                  dev         pinned to version dev at git+https://github.com/gadmm/coq.git#nnp
coq-core             dev         pinned to version dev at git+https://github.com/gadmm/coq.git#nnp
coq-stdlib           dev         pinned to version dev at git+https://github.com/gadmm/coq.git#nnp
coqide               dev         pinned to version dev at git+https://github.com/gadmm/coq.git#nnp
coqide-server        dev         pinned to version dev at git+https://github.com/gadmm/coq.git#nnp
csexp                1.5.1       Parsing and printing of S-expressions in Canonical form
dune                 2.9.0       Fast, portable, and opinionated build system
dune-configurator    2.9.0       Helper library for gathering system configuration
lablgtk3             3.1.1       OCaml interface to GTK+3
lablgtk3-sourceview3 3.1.1       OCaml interface to GTK+ gtksourceview library
ocaml                4.12.0      The OCaml compiler (virtual package)
ocaml-config         2           OCaml Switch Configuration
ocaml-variants       4.12.0      pinned to version 4.12.0 at git+file:///home/gm/Travail/github/ocaml#page-table-412-stats+nnp
ocamlfind            1.9.1       A library manager for OCaml
result               1.5         Compatibility Result module
zarith               1.12        Implements arithmetic and logical operations over arbitrary-precision integers
+ opam remove -y coq-mathcomp-odd-order
[NOTE] coq-mathcomp-odd-order is not installed.

Nothing to do.
+ time opam reinstall --skip-updates -j 2 -y coq-mathcomp-character coq-mathcomp-field coq-mathcomp-solvable coq-mathcomp-algebra coq-mathcomp-fingroup coq-mathcomp-ssreflect
coq-mathcomp-character, coq-mathcomp-field, coq-mathcomp-solvable, coq-mathcomp-algebra, coq-mathcomp-fingroup and coq-mathcomp-ssreflect are not installed. Install them? [Y/n] y
The following actions will be performed:
  ∗ install coq-mathcomp-ssreflect 1.12.0
  ∗ install coq-mathcomp-fingroup  1.12.0
  ∗ install coq-mathcomp-algebra   1.12.0
  ∗ install coq-mathcomp-solvable  1.12.0
  ∗ install coq-mathcomp-field     1.12.0
  ∗ install coq-mathcomp-character 1.12.0
===== ∗ 6 =====

<><> Gathering sources ><><><><><><><><><><><><><><><><><><><><><><><><><><><><>
[coq-mathcomp-algebra.1.12.0] found in cache
[coq-mathcomp-character.1.12.0] found in cache
[coq-mathcomp-field.1.12.0] found in cache
[coq-mathcomp-fingroup.1.12.0] found in cache
[coq-mathcomp-solvable.1.12.0] found in cache
[coq-mathcomp-ssreflect.1.12.0] found in cache

<><> Processing actions <><><><><><><><><><><><><><><><><><><><><><><><><><><><>
∗ installed coq-mathcomp-ssreflect.1.12.0
[ERROR] User interruption


<><> Error report <><><><><><><><><><><><><><><><><><><><><><><><><><><><><><><>
┌─ The following actions failed
│ λ build coq-mathcomp-fingroup 1.12.0
└─ 
┌─ The following changes have been performed (the rest was aborted)
│ ∗ install coq-mathcomp-ssreflect 1.12.0
└─ 

The former state can be restored with:
    opam switch import "/home/gm/Travail/github/ocaml/ocaml-large-pages-experiment/real_perfs/repo-page-table-vas-nnp/_opam/.opam-switch/backup/state-20210805145902.export"
Command exited with non-zero status 31
49.85user 4.49system 0:47.31elapsed 114%CPU (0avgtext+0avgdata 528788maxresident)k
8inputs+214800outputs (0major+2240951minor)pagefaults 0swaps
