Script started on 2022-09-12 06:50:02+02:00 [TERM="xterm-256color" TTY="/dev/pts/1" COLUMNS="85" LINES="30"]
+ EPOCH=.6
+ LOGFILE=install.log.6
+ '[' -z 1 ']'
+ REPOS='mark-prefetching-412-stats page-table-412-stats+optims'
+ TRIALS=2
+ USE_CLANG=false
+ USE_MARCH=false
+ USE_ALIGN=false
+ REINSTALL=true
+ BENCH_REINSTALL=false
+ BENCH_GALLINA_OPAM=true
+ BENCH_MATHCOMP=true
+ BENCH_MATHCOMP_HEAVY=false
+ DRY=
+ J=4
+ THROTTLE_CMD='cpufreqctl --throttle'
+ TIME=time
+ GALLINA_C='coq coqide'
+ GALLINA_PKGS='coq-mathcomp-field coq-mathcomp-solvable
              coq-mathcomp-algebra coq-mathcomp-fingroup
              coq-mathcomp-ssreflect'
+ GALLINA_HEAVY_PKGS='coq-mathcomp-character coq-mathcomp-odd-order'
+ export OPAMVAR_ocamlas=as
+ OPAMVAR_ocamlas=as
+ MARCH=
+ false
+ false
+ ALIGN=
+ false
+ false
+ export 'OPAMVAR_ocamlcc=gcc  '
+ OPAMVAR_ocamlcc='gcc  '
+ unset OPAMSWITCH
+ rm /tmp/ocaml-stats-mark-prefetching-412-stats.log /tmp/ocaml-stats-mark-prefetching-412-stats+nnp.log /tmp/ocaml-stats-mark-prefetching-412-stats+optim.log /tmp/ocaml-stats-page-table-vas-nnp.log /tmp/ocaml-stats-page-table-vas-pt.log
+ for i in $REPOS
+ cd repo-mark-prefetching-412-stats
++ opam env --switch=. --set-switch
+ eval 'OPAMSWITCH='\''/home/gm/Travail/github/ocaml/ocaml-large-pages-experiment/real_perfs2/repo-mark-prefetching-412-stats'\'';' export 'OPAMSWITCH;' 'OPAM_SWITCH_PREFIX='\''/home/gm/Travail/github/ocaml/ocaml-large-pages-experiment/real_perfs2/repo-mark-prefetching-412-stats/_opam'\'';' export 'OPAM_SWITCH_PREFIX;' 'MANPATH='\'':/home/gm/Travail/github/ocaml/ocaml-large-pages-experiment/real_perfs2/repo-mark-prefetching-412-stats/_opam/man'\'';' export 'MANPATH;' 'PATH='\''/home/gm/Travail/github/ocaml/ocaml-large-pages-experiment/real_perfs2/repo-mark-prefetching-412-stats/_opam/bin:/home/gm/.cargo/bin:/home/gm/.local/bin:/usr/local/sbin:/usr/local/bin:/usr/sbin:/usr/bin:/sbin:/bin:/usr/games:/usr/local/games:/snap/bin:/snap/bin'\'';' export 'PATH;'
++ OPAMSWITCH=/home/gm/Travail/github/ocaml/ocaml-large-pages-experiment/real_perfs2/repo-mark-prefetching-412-stats
++ export OPAMSWITCH
++ OPAM_SWITCH_PREFIX=/home/gm/Travail/github/ocaml/ocaml-large-pages-experiment/real_perfs2/repo-mark-prefetching-412-stats/_opam
++ export OPAM_SWITCH_PREFIX
++ MANPATH=:/home/gm/Travail/github/ocaml/ocaml-large-pages-experiment/real_perfs2/repo-mark-prefetching-412-stats/_opam/man
++ export MANPATH
++ PATH=/home/gm/Travail/github/ocaml/ocaml-large-pages-experiment/real_perfs2/repo-mark-prefetching-412-stats/_opam/bin:/home/gm/.cargo/bin:/home/gm/.local/bin:/usr/local/sbin:/usr/local/bin:/usr/sbin:/usr/bin:/sbin:/bin:/usr/games:/usr/local/games:/snap/bin:/snap/bin
++ export PATH
+ opam list
# Packages matching: [36minstalled[0m
# Name        # Installed # Synopsis
[01mbase-bigarray[0m [35mbase[0m
[01mbase-threads[0m  [35mbase[0m
[01mbase-unix[0m     [35mbase[0m
+ opam remove -y coq num zarith
[1;34m[NOTE][0m zarith, num and coq are not installed.

Nothing to do.
+ rm -rf _opam/lib/zarith
+ rm -rf '_opam/lib/stublibs/dllzarith.so*'
+ true
+ c=reinstall
+ opam reinstall -y ocaml-variants zarith lablgtk3-sourceview3 dune

[36m<><>[0m [01mSynchronising pinned packages[0m [36m><><><><><><><><><><><><><><><><><><><><><><>[0m
[KProcessing  1/1:[K[KProcessing  1/1: [[32mocaml-variants.4.12.0[0m: git][K[KProcessing  1/1: [[32mocaml-variants.4.12.0[0m: git][K[KProcessing  1/1: [[32mocaml-variants.4.12.0[0m: git][K[[32mocaml-variants.4.12.0[0m] synchronised (no changes)

ocaml-variants, zarith, lablgtk3-sourceview3 and dune are not installed. Install
them? [Y/n] y
The following actions will be performed:
  [32m∗[0m install [01mconf-pkg-config[0m      2       [required by conf-gtksourceview3]
  [32m∗[0m install [01mconf-gmp[0m             4       [required by zarith]
  [32m∗[0m install [01mocaml-variants[0m       4.12.0*
  [32m∗[0m install [01mconf-gtksourceview3[0m  0+2     [required by lablgtk3-sourceview3]
  [32m∗[0m install [01mconf-gtk3[0m            18      [required by lablgtk3]
  [32m∗[0m install [01mconf-cairo[0m           1       [required by cairo2]
  [32m∗[0m install [01mocaml-config[0m         2       [required by ocaml]
  [32m∗[0m install [01mocaml[0m                4.12.0  [required by lablgtk3-sourceview3, dune,
                                         zarith]
  [32m∗[0m install [01mocamlfind[0m            1.9.5   [required by zarith]
  [32m∗[0m install [01mdune[0m                 3.4.1
  [32m∗[0m install [01mzarith[0m               1.12
  [32m∗[0m install [01mdune-configurator[0m    2.7.0   [required by cairo2]
  [32m∗[0m install [01mcairo2[0m               0.6.3   [required by lablgtk3]
  [32m∗[0m install [01mlablgtk3[0m             3.1.2   [required by lablgtk3-sourceview3]
  [32m∗[0m install [01mlablgtk3-sourceview3[0m 3.1.2
===== [32m∗[0m 15 =====

[36m<><>[0m [01mProcessing actions[0m [36m<><><><><><><><><><><><><><><><><><><><><><><><><><><><>[0m
[KProcessing  1/45:[K[KProcessing  2/45:[K[KProcessing  3/45:[K[KProcessing  4/45:[K[KProcessing  5/45:[K[KProcessing  6/45:[K[KProcessing  7/45:[K[KProcessing  8/45: [[32mdune-configurator.2.7.0[0m: dl][K[KProcessing  9/45: [[32mdune-configurator.2.7.0[0m: dl] [[32mconf-gmp[0m: sh][K[KProcessing 10/45: [[32mdune-configurator.2.7.0[0m: dl] [[32mconf-gmp[0m: sh]                   + 1[K[36m⬇[0m retrieved [01mcairo2[0m.0.6.3  (cached)
[KProcessing 10/45: [[32mdune-configurator.2.7.0[0m: dl] [[32mconf-gmp[0m: sh]                   + 1[K[KProcessing 11/45: [[32mdune-configurator.2.7.0[0m: dl] [[32mconf-gmp[0m: sh]                   + 1[K[36m⬇[0m retrieved [01mdune[0m.3.4.1  (cached)
[KProcessing 11/45: [[32mdune-configurator.2.7.0[0m: dl] [[32mconf-gmp[0m: sh]                   + 1[K[KProcessing 12/45: [[32mdune-configurator.2.7.0[0m: dl] [[32mconf-gmp[0m: sh]                   + 1[K[KProcessing 12/45: [[32mdune-configurator.2.7.0[0m: dl] [[32mconf-pkg-config[0m: pkg-config][K[32m∗[0m installed [01mconf-gmp[0m.4
[KProcessing 13/45: [[32mdune-configurator.2.7.0[0m: dl] [[32mconf-pkg-config[0m: pkg-config][K[KProcessing 13/45: [[32mdune-configurator.2.7.0[0m: dl][K[KProcessing 14/45: [[32mdune-configurator.2.7.0[0m: dl] [[32mconf-pkg-config[0m: mkdir][K[36m⬇[0m retrieved [01mlablgtk3[0m.3.1.2  (cached)
[KProcessing 14/45: [[32mdune-configurator.2.7.0[0m: dl] [[32mconf-pkg-config[0m: mkdir][K[KProcessing 15/45: [[32mdune-configurator.2.7.0[0m: dl] [[32mconf-pkg-config[0m: mkdir][K[KProcessing 16/45: [[32mdune-configurator.2.7.0[0m: dl] [[32mconf-pkg-config[0m: mkdir][K[KProcessing 17/45: [[32mdune-configurator.2.7.0[0m: dl] [[32mconf-pkg-config[0m: mkdir][K[KProcessing 18/45: [[32mdune-configurator.2.7.0[0m: dl] [[32mconf-pkg-config[0m: mkdir][K[KProcessing 19/45: [[32mdune-configurator.2.7.0[0m: dl] [[32mocaml-variants[0m: ./configure]    + 1[K[36m⬇[0m retrieved [01mlablgtk3-sourceview3[0m.3.1.2  (cached)
[KProcessing 19/45: [[32mdune-configurator.2.7.0[0m: dl] [[32mocaml-variants[0m: ./configure]    + 1[K[KProcessing 20/45: [[32mdune-configurator.2.7.0[0m: dl] [[32mocaml-variants[0m: ./configure]    + 1[K[32m∗[0m installed [01mconf-pkg-config[0m.2
[KProcessing 20/45: [[32mdune-configurator.2.7.0[0m: dl] [[32mocaml-variants[0m: ./configure][K[KProcessing 21/45: [[32mdune-configurator.2.7.0[0m: dl] [[32mconf-cairo[0m: pkg-config cairo]   + 1[K[KProcessing 22/45: [[32mdune-configurator.2.7.0[0m: dl] [[32mconf-cairo[0m: pkg-config cairo]   + 2[K[KProcessing 23/45: [[32mdune-configurator.2.7.0[0m: dl] [[32mconf-cairo[0m: pkg-config cairo]   + 3[K[36m⬇[0m retrieved [01mocamlfind[0m.1.9.5  (cached)
[KProcessing 23/45: [[32mdune-configurator.2.7.0[0m: dl] [[32mconf-cairo[0m: pkg-config cairo]   + 3[K[36m⬇[0m retrieved [01mzarith[0m.1.12  (cached)
[KProcessing 23/45: [[32mdune-configurator.2.7.0[0m: dl] [[32mconf-cairo[0m: pkg-config cairo]   + 3[K[KProcessing 23/45: [[32mdune-configurator.2.7.0[0m: dl] [[32mconf-gtk3[0m: pkg-config 3.18]     + 2[K[32m∗[0m installed [01mconf-cairo[0m.1
[KProcessing 24/45: [[32mdune-configurator.2.7.0[0m: dl] [[32mconf-gtk3[0m: pkg-config 3.18]     + 2[K[KProcessing 24/45: [[32mdune-configurator.2.7.0[0m: dl]                                  + 2[K[32m∗[0m installed [01mconf-gtk3[0m.18
[KProcessing 25/45: [[32mdune-configurator.2.7.0[0m: dl]                                  + 2[K[KProcessing 25/45: [[32mdune-configurator.2.7.0[0m: dl] [[32mocaml-variants[0m: ./configure][K[32m∗[0m installed [01mconf-gtksourceview3[0m.0+2
[KProcessing 26/45: [[32mdune-configurator.2.7.0[0m: dl] [[32mocaml-variants[0m: ./configure][K[KProcessing 26/45: [[32mocaml-variants[0m: ./configure][K[36m⬇[0m retrieved [01mdune-configurator[0m.2.7.0  (https://opam.ocaml.org/cache)
[KProcessing 26/45: [[32mocaml-variants[0m: ./configure][K[KProcessing 26/45: [[32mocaml-variants[0m: make][K[KProcessing 27/45: [[32mocaml-variants[0m: make install][K[32m∗[0m installed [01mocaml-variants[0m.4.12.0
[32m∗[0m installed [01mocaml-config[0m.2
[KProcessing 30/45: [[32mocaml[0m: ocaml 4.12.0][K[32m∗[0m installed [01mocaml[0m.4.12.0
[KProcessing 32/45: [[32mdune[0m: ocaml bootstrap.ml][K[KProcessing 33/45: [[32mdune[0m: ocaml bootstrap.ml] [[32mocamlfind[0m: patch][K[KProcessing 33/45: [[32mdune[0m: ocaml bootstrap.ml] [[32mocamlfind[0m: ./configure][K[KProcessing 33/45: [[32mdune[0m: ocaml bootstrap.ml] [[32mocamlfind[0m: make all][K[KProcessing 33/45: [[32mdune[0m: ocaml bootstrap.ml] [[32mocamlfind[0m: make opt][K[KProcessing 33/45: [[32mdune[0m: ocaml bootstrap.ml][K[KProcessing 34/45: [[32mdune[0m: ocaml bootstrap.ml] [[32mocamlfind[0m: make install][K[32m∗[0m installed [01mocamlfind[0m.1.9.5
[KProcessing 34/45: [[32mdune[0m: ocaml bootstrap.ml][K[KProcessing 35/45: [[32mdune[0m: ocaml bootstrap.ml] [[32mzarith[0m: ./configure][K[KProcessing 35/45: [[32mdune[0m: ocaml bootstrap.ml] [[32mzarith[0m: make][K[KProcessing 35/45: [[32mdune[0m: ocaml bootstrap.ml][K[KProcessing 36/45: [[32mdune[0m: ocaml bootstrap.ml] [[32mzarith[0m: make install][K[32m∗[0m installed [01mzarith[0m.1.12
[KProcessing 36/45: [[32mdune[0m: ocaml bootstrap.ml][K[KProcessing 36/45: [[32mdune[0m: ./dune.exe build][K[32m∗[0m installed [01mdune[0m.3.4.1
[KProcessing 38/45: [[32mdune-configurator[0m: dune build][K[32m∗[0m installed [01mdune-configurator[0m.2.7.0
[KProcessing 40/45: [[32mcairo2[0m: dune build][K[32m∗[0m installed [01mcairo2[0m.0.6.3
[KProcessing 42/45: [[32mlablgtk3[0m: patch][K[KProcessing 42/45: [[32mlablgtk3[0m: dune build][K[32m∗[0m installed [01mlablgtk3[0m.3.1.2
[KProcessing 44/45: [[32mlablgtk3-sourceview3[0m: dune build][K[32m∗[0m installed [01mlablgtk3-sourceview3[0m.3.1.2
Done.
# Run [01meval $(opam env)[0m to update the current shell environment
+ rm /tmp/ocaml-stats-mark-prefetching-412-stats.log
+ cd ..
+ for i in $REPOS
+ cd repo-page-table-412-stats+optims
++ opam env --switch=. --set-switch
+ eval 'OPAMSWITCH='\''/home/gm/Travail/github/ocaml/ocaml-large-pages-experiment/real_perfs2/repo-page-table-412-stats+optims'\'';' export 'OPAMSWITCH;' 'OPAM_SWITCH_PREFIX='\''/home/gm/Travail/github/ocaml/ocaml-large-pages-experiment/real_perfs2/repo-page-table-412-stats+optims/_opam'\'';' export 'OPAM_SWITCH_PREFIX;' 'MANPATH='\'':/home/gm/Travail/github/ocaml/ocaml-large-pages-experiment/real_perfs2/repo-page-table-412-stats+optims/_opam/man'\'';' export 'MANPATH;' 'PATH='\''/home/gm/Travail/github/ocaml/ocaml-large-pages-experiment/real_perfs2/repo-page-table-412-stats+optims/_opam/bin:/home/gm/.cargo/bin:/home/gm/.local/bin:/usr/local/sbin:/usr/local/bin:/usr/sbin:/usr/bin:/sbin:/bin:/usr/games:/usr/local/games:/snap/bin:/snap/bin'\'';' export 'PATH;'
++ OPAMSWITCH=/home/gm/Travail/github/ocaml/ocaml-large-pages-experiment/real_perfs2/repo-page-table-412-stats+optims
++ export OPAMSWITCH
++ OPAM_SWITCH_PREFIX=/home/gm/Travail/github/ocaml/ocaml-large-pages-experiment/real_perfs2/repo-page-table-412-stats+optims/_opam
++ export OPAM_SWITCH_PREFIX
++ MANPATH=:/home/gm/Travail/github/ocaml/ocaml-large-pages-experiment/real_perfs2/repo-page-table-412-stats+optims/_opam/man
++ export MANPATH
++ PATH=/home/gm/Travail/github/ocaml/ocaml-large-pages-experiment/real_perfs2/repo-page-table-412-stats+optims/_opam/bin:/home/gm/.cargo/bin:/home/gm/.local/bin:/usr/local/sbin:/usr/local/bin:/usr/sbin:/usr/bin:/sbin:/bin:/usr/games:/usr/local/games:/snap/bin:/snap/bin
++ export PATH
+ opam list
# Packages matching: [36minstalled[0m
# Name        # Installed # Synopsis
[01mbase-bigarray[0m [35mbase[0m
[01mbase-threads[0m  [35mbase[0m
[01mbase-unix[0m     [35mbase[0m
+ opam remove -y coq num zarith
Another process has locked
/home/gm/Travail/github/ocaml/ocaml-large-pages-experiment/real_perfs2/repo-page-table-412-stats+optims/_opam/.opam-switch/lock,
waiting (C-c to abort)... lock acquired.
[1;34m[NOTE][0m zarith, num and coq are not installed.

Nothing to do.
+ rm -rf _opam/lib/zarith
+ rm -rf '_opam/lib/stublibs/dllzarith.so*'
+ true
+ c=reinstall
+ opam reinstall -y ocaml-variants zarith lablgtk3-sourceview3 dune

[36m<><>[0m [01mSynchronising pinned packages[0m [36m><><><><><><><><><><><><><><><><><><><><><><>[0m
[KProcessing  1/1: [[32mocaml-variants.4.12.0[0m: git][K[KProcessing  1/1: [[32mocaml-variants.4.12.0[0m: git][K[KProcessing  1/1: [[32mocaml-variants.4.12.0[0m: git][K[KProcessing  1/1: [[32mocaml-variants.4.12.0[0m: git][K[[32mocaml-variants.4.12.0[0m] synchronised (no changes)

zarith, lablgtk3-sourceview3 and dune are not installed. Install them? [Y/n] y
The following actions will be performed:
  [32m∗[0m install   [01mconf-pkg-config[0m      2       [required by conf-gtksourceview3]
  [32m∗[0m install   [01mconf-gmp[0m             4       [required by zarith]
  [33m↻[0m recompile [01mocaml-variants[0m       4.12.0*
  [32m∗[0m install   [01mconf-gtksourceview3[0m  0+2     [required by lablgtk3-sourceview3]
  [32m∗[0m install   [01mconf-gtk3[0m            18      [required by lablgtk3]
  [32m∗[0m install   [01mconf-cairo[0m           1       [required by cairo2]
  [33m↻[0m recompile [01mocaml-config[0m         2       [uses ocaml-variants]
  [33m↻[0m recompile [01mocaml[0m                4.12.0  [uses ocaml-variants]
  [32m∗[0m install   [01mocamlfind[0m            1.9.5   [required by zarith]
  [32m∗[0m install   [01mdune[0m                 3.4.1
  [32m∗[0m install   [01mzarith[0m               1.12
  [32m∗[0m install   [01mdune-configurator[0m    2.7.0   [required by cairo2]
  [32m∗[0m install   [01mcairo2[0m               0.6.3   [required by lablgtk3]
  [32m∗[0m install   [01mlablgtk3[0m             3.1.2   [required by lablgtk3-sourceview3]
  [32m∗[0m install   [01mlablgtk3-sourceview3[0m 3.1.2
===== [32m∗[0m 12   [33m↻[0m 3 =====

[36m<><>[0m [01mProcessing actions[0m [36m<><><><><><><><><><><><><><><><><><><><><><><><><><><><>[0m
[KProcessing  1/48:[K[KProcessing  2/48:[K[KProcessing  3/48:[K[KProcessing  4/48:[K[KProcessing  5/48:[K[KProcessing  6/48:[K[KProcessing  7/48:[K[KProcessing  8/48:[K[KProcessing  9/48: [[32mconf-gmp[0m: sh][K[KProcessing 10/48: [[32mconf-gmp[0m: sh] [[32mconf-pkg-config[0m: pkg-config][K[36m⬇[0m retrieved [01mcairo2[0m.0.6.3  (cached)
[KProcessing 10/48: [[32mconf-gmp[0m: sh] [[32mconf-pkg-config[0m: pkg-config][K[KProcessing 11/48: [[32mconf-gmp[0m: sh] [[32mconf-pkg-config[0m: pkg-config][K[36m⬇[0m retrieved [01mdune[0m.3.4.1  (cached)
[KProcessing 11/48: [[32mconf-gmp[0m: sh] [[32mconf-pkg-config[0m: pkg-config][K[KProcessing 12/48: [[32mconf-gmp[0m: sh] [[32mconf-pkg-config[0m: pkg-config][K[36m⬇[0m retrieved [01mdune-configurator[0m.2.7.0  (cached)
[KProcessing 12/48: [[32mconf-gmp[0m: sh] [[32mconf-pkg-config[0m: pkg-config][K[KProcessing 13/48: [[32mconf-gmp[0m: sh] [[32mconf-pkg-config[0m: pkg-config][K[KProcessing 14/48: [[32mconf-gmp[0m: sh] [[32mconf-pkg-config[0m: pkg-config][K[KProcessing 15/48: [[32mconf-gmp[0m: sh] [[32mconf-pkg-config[0m: pkg-config][K[KProcessing 16/48: [[32mconf-gmp[0m: sh] [[32mconf-pkg-config[0m: pkg-config][K[KProcessing 17/48: [[32mconf-gmp[0m: sh] [[32mconf-pkg-config[0m: pkg-config]                   + 1[K[KProcessing 17/48: [[32mconf-pkg-config[0m: pkg-config] [[32mocaml-variants[0m: ./configure][K[32m∗[0m installed [01mconf-gmp[0m.4
[KProcessing 18/48: [[32mconf-pkg-config[0m: pkg-config] [[32mocaml-variants[0m: ./configure][K[KProcessing 18/48: [[32mocaml-variants[0m: ./configure][K[KProcessing 19/48: [[32mocaml-variants[0m: ./configure] [[32mconf-pkg-config[0m: mkdir][K[36m⬇[0m retrieved [01mlablgtk3[0m.3.1.2  (cached)
[KProcessing 19/48: [[32mocaml-variants[0m: ./configure] [[32mconf-pkg-config[0m: mkdir][K[KProcessing 20/48: [[32mocaml-variants[0m: ./configure] [[32mconf-pkg-config[0m: mkdir][K[36m⬇[0m retrieved [01mlablgtk3-sourceview3[0m.3.1.2  (cached)
[KProcessing 20/48: [[32mocaml-variants[0m: ./configure] [[32mconf-pkg-config[0m: mkdir][K[36m⬇[0m retrieved [01mocamlfind[0m.1.9.5  (cached)
[KProcessing 20/48: [[32mocaml-variants[0m: ./configure] [[32mconf-pkg-config[0m: mkdir][K[32m∗[0m installed [01mconf-pkg-config[0m.2
[KProcessing 20/48: [[32mocaml-variants[0m: ./configure][K[KProcessing 21/48: [[32mconf-cairo[0m: pkg-config cairo] [[32mocaml-variants[0m: ./configure][K[KProcessing 22/48: [[32mconf-cairo[0m: pkg-config cairo] [[32mconf-gtk3[0m: pkg-config 3.18]    + 1[K[KProcessing 23/48: [[32mconf-cairo[0m: pkg-config cairo] [[32mconf-gtk3[0m: pkg-config 3.18]    + 2[K[36m⬇[0m retrieved [01mzarith[0m.1.12  (cached)
[KProcessing 23/48: [[32mconf-cairo[0m: pkg-config cairo] [[32mconf-gtk3[0m: pkg-config 3.18]    + 2[K[KProcessing 23/48: [[32mconf-gtk3[0m: pkg-config 3.18]                                   + 2[K[32m∗[0m installed [01mconf-cairo[0m.1
[KProcessing 24/48: [[32mconf-gtk3[0m: pkg-config 3.18]                                   + 2[K[KProcessing 24/48: [[32mconf-gtksourceview3[0m: pkg-config gtksourceview-3.0]            + 1[K[32m∗[0m installed [01mconf-gtk3[0m.18
[KProcessing 25/48: [[32mconf-gtksourceview3[0m: pkg-config gtksourceview-3.0]            + 1[K[KProcessing 25/48: [[32mocaml-variants[0m: ./configure][K[32m∗[0m installed [01mconf-gtksourceview3[0m.0+2
[KProcessing 26/48: [[32mocaml-variants[0m: ./configure][K[KProcessing 26/48: [[32mocaml-variants[0m: make][K[31m⊘[0m removed   [01mocaml[0m.4.12.0
[31m⊘[0m removed   [01mocaml-config[0m.2
[31m⊘[0m removed   [01mocaml-variants[0m.4.12.0
[KProcessing 30/48: [[32mocaml-variants[0m: make install][K[32m∗[0m installed [01mocaml-variants[0m.4.12.0
[32m∗[0m installed [01mocaml-config[0m.2
[KProcessing 33/48: [[32mocaml[0m: ocaml 4.12.0][K[32m∗[0m installed [01mocaml[0m.4.12.0
[KProcessing 35/48: [[32mdune[0m: ocaml bootstrap.ml][K[KProcessing 36/48: [[32mdune[0m: ocaml bootstrap.ml] [[32mocamlfind[0m: patch][K[KProcessing 36/48: [[32mdune[0m: ocaml bootstrap.ml] [[32mocamlfind[0m: ./configure][K[KProcessing 36/48: [[32mdune[0m: ocaml bootstrap.ml] [[32mocamlfind[0m: make all][K[KProcessing 36/48: [[32mdune[0m: ocaml bootstrap.ml] [[32mocamlfind[0m: make opt][K[KProcessing 36/48: [[32mdune[0m: ocaml bootstrap.ml][K[KProcessing 37/48: [[32mdune[0m: ocaml bootstrap.ml] [[32mocamlfind[0m: make install][K[32m∗[0m installed [01mocamlfind[0m.1.9.5
[KProcessing 37/48: [[32mdune[0m: ocaml bootstrap.ml][K[KProcessing 38/48: [[32mdune[0m: ocaml bootstrap.ml] [[32mzarith[0m: ./configure][K[KProcessing 38/48: [[32mdune[0m: ocaml bootstrap.ml] [[32mzarith[0m: make][K[KProcessing 38/48: [[32mdune[0m: ocaml bootstrap.ml][K[KProcessing 39/48: [[32mdune[0m: ocaml bootstrap.ml] [[32mzarith[0m: make install][K[32m∗[0m installed [01mzarith[0m.1.12
[KProcessing 39/48: [[32mdune[0m: ocaml bootstrap.ml][K[KProcessing 39/48: [[32mdune[0m: ./dune.exe build][K[32m∗[0m installed [01mdune[0m.3.4.1
[KProcessing 41/48: [[32mdune-configurator[0m: dune build][K[32m∗[0m installed [01mdune-configurator[0m.2.7.0
[KProcessing 43/48: [[32mcairo2[0m: dune build][K[32m∗[0m installed [01mcairo2[0m.0.6.3
[KProcessing 45/48: [[32mlablgtk3[0m: patch][K[KProcessing 45/48: [[32mlablgtk3[0m: dune build][K[32m∗[0m installed [01mlablgtk3[0m.3.1.2
[KProcessing 47/48: [[32mlablgtk3-sourceview3[0m: dune build][K[32m∗[0m installed [01mlablgtk3-sourceview3[0m.3.1.2
Done.
# Run [01meval $(opam env)[0m to update the current shell environment
+ rm /tmp/ocaml-stats-page-table-412-stats+optims.log
+ cd ..
++ seq 0 1
+ for n in $(seq 0 $((TRIALS - 1)))
+ TRIAL=-0
+ echo 'Iteration 0'
Iteration 0
+ date -R
Mon, 12 Sep 2022 06:53:51 +0200
+ false
+ true
+ for i in $REPOS
+ throttle_control_begin
+ IS_THROTTLED=
++ cpufreqctl --throttle
./install.sh: ligne 97: cpufreqctl : commande introuvable
+ THROTTLE=
+ cd repo-mark-prefetching-412-stats
++ opam env --switch=. --set-switch
+ eval 'OPAMSWITCH='\''/home/gm/Travail/github/ocaml/ocaml-large-pages-experiment/real_perfs2/repo-mark-prefetching-412-stats'\'';' export 'OPAMSWITCH;' 'OPAM_SWITCH_PREFIX='\''/home/gm/Travail/github/ocaml/ocaml-large-pages-experiment/real_perfs2/repo-mark-prefetching-412-stats/_opam'\'';' export 'OPAM_SWITCH_PREFIX;' 'CAML_LD_LIBRARY_PATH='\''/home/gm/Travail/github/ocaml/ocaml-large-pages-experiment/real_perfs2/repo-mark-prefetching-412-stats/_opam/lib/stublibs:/home/gm/Travail/github/ocaml/ocaml-large-pages-experiment/real_perfs2/repo-mark-prefetching-412-stats/_opam/lib/ocaml/stublibs:/home/gm/Travail/github/ocaml/ocaml-large-pages-experiment/real_perfs2/repo-mark-prefetching-412-stats/_opam/lib/ocaml'\'';' export 'CAML_LD_LIBRARY_PATH;' 'OCAML_TOPLEVEL_PATH='\''/home/gm/Travail/github/ocaml/ocaml-large-pages-experiment/real_perfs2/repo-mark-prefetching-412-stats/_opam/lib/toplevel'\'';' export 'OCAML_TOPLEVEL_PATH;' 'PKG_CONFIG_PATH='\''/home/gm/Travail/github/ocaml/ocaml-large-pages-experiment/real_perfs2/repo-mark-prefetching-412-stats/_opam/lib/pkgconfig'\'';' export 'PKG_CONFIG_PATH;' 'MANPATH='\'':/home/gm/Travail/github/ocaml/ocaml-large-pages-experiment/real_perfs2/repo-mark-prefetching-412-stats/_opam/man'\'';' export 'MANPATH;' 'PATH='\''/home/gm/Travail/github/ocaml/ocaml-large-pages-experiment/real_perfs2/repo-mark-prefetching-412-stats/_opam/bin:/home/gm/.cargo/bin:/home/gm/.local/bin:/usr/local/sbin:/usr/local/bin:/usr/sbin:/usr/bin:/sbin:/bin:/usr/games:/usr/local/games:/snap/bin:/snap/bin'\'';' export 'PATH;'
++ OPAMSWITCH=/home/gm/Travail/github/ocaml/ocaml-large-pages-experiment/real_perfs2/repo-mark-prefetching-412-stats
++ export OPAMSWITCH
++ OPAM_SWITCH_PREFIX=/home/gm/Travail/github/ocaml/ocaml-large-pages-experiment/real_perfs2/repo-mark-prefetching-412-stats/_opam
++ export OPAM_SWITCH_PREFIX
++ CAML_LD_LIBRARY_PATH=/home/gm/Travail/github/ocaml/ocaml-large-pages-experiment/real_perfs2/repo-mark-prefetching-412-stats/_opam/lib/stublibs:/home/gm/Travail/github/ocaml/ocaml-large-pages-experiment/real_perfs2/repo-mark-prefetching-412-stats/_opam/lib/ocaml/stublibs:/home/gm/Travail/github/ocaml/ocaml-large-pages-experiment/real_perfs2/repo-mark-prefetching-412-stats/_opam/lib/ocaml
++ export CAML_LD_LIBRARY_PATH
++ OCAML_TOPLEVEL_PATH=/home/gm/Travail/github/ocaml/ocaml-large-pages-experiment/real_perfs2/repo-mark-prefetching-412-stats/_opam/lib/toplevel
++ export OCAML_TOPLEVEL_PATH
++ PKG_CONFIG_PATH=/home/gm/Travail/github/ocaml/ocaml-large-pages-experiment/real_perfs2/repo-mark-prefetching-412-stats/_opam/lib/pkgconfig
++ export PKG_CONFIG_PATH
++ MANPATH=:/home/gm/Travail/github/ocaml/ocaml-large-pages-experiment/real_perfs2/repo-mark-prefetching-412-stats/_opam/man
++ export MANPATH
++ PATH=/home/gm/Travail/github/ocaml/ocaml-large-pages-experiment/real_perfs2/repo-mark-prefetching-412-stats/_opam/bin:/home/gm/.cargo/bin:/home/gm/.local/bin:/usr/local/sbin:/usr/local/bin:/usr/sbin:/usr/bin:/sbin:/bin:/usr/games:/usr/local/games:/snap/bin:/snap/bin
++ export PATH
+ opam list
# Packages matching: [36minstalled[0m
# Name               # Installed # Synopsis
[01mbase-bigarray[0m        [35mbase[0m
[01mbase-threads[0m         [35mbase[0m
[01mbase-unix[0m            [35mbase[0m
[01mcairo2[0m               [35m0.6.3[0m       Binding to Cairo, a 2D Vector Graphics Library
[01mconf-cairo[0m           [35m1[0m           Virtual package relying on a Cairo system installati
[01mconf-gmp[0m             [35m4[0m           Virtual package relying on a GMP lib system installa
[01mconf-gtk3[0m            [35m18[0m          Virtual package relying on GTK+ 3
[01mconf-gtksourceview3[0m  [35m0+2[0m         Virtual package relying on a GtkSourceView-3 system 
[01mconf-pkg-config[0m      [35m2[0m           Check if pkg-config is installed and create an opam 
[01;04mdune[0m                 [35m3.4.1[0m       Fast, portable, and opinionated build system
[01mdune-configurator[0m    [35m2.7.0[0m       Helper library for gathering system configuration
[01mlablgtk3[0m             [35m3.1.2[0m       OCaml interface to GTK+3
[01;04mlablgtk3-sourceview3[0m [35m3.1.2[0m       OCaml interface to GTK+ gtksourceview library
[01mocaml[0m                [35m4.12.0[0m      The OCaml compiler (virtual package)
[01mocaml-config[0m         [35m2[0m           OCaml Switch Configuration
[01;04mocaml-variants[0m       [1;34m4.12.0[0m      pinned to version [1;34m4.12.0[0m at [04mgit+file:///home/gm/Trav[0m
[01mocamlfind[0m            [35m1.9.5[0m       A library manager for OCaml
[01;04mzarith[0m               [35m1.12[0m        Implements arithmetic and logical operations over ar
+ true
+ opam remove -y coq-mathcomp-field coq-mathcomp-solvable coq-mathcomp-algebra coq-mathcomp-fingroup coq-mathcomp-ssreflect coq-mathcomp-character coq-mathcomp-odd-order
[31m[ERROR][0m coq-mathcomp-field unknown package
[31m[ERROR][0m coq-mathcomp-solvable unknown package
[31m[ERROR][0m coq-mathcomp-algebra unknown package
[31m[ERROR][0m coq-mathcomp-fingroup unknown package
[31m[ERROR][0m coq-mathcomp-ssreflect unknown package
[31m[ERROR][0m coq-mathcomp-character unknown package
[31m[ERROR][0m coq-mathcomp-odd-order unknown package
+ c=reinstall
+ time opam reinstall --skip-updates -j 4 -y coq coqide
coq and coqide are not installed. Install them? [Y/n] y
The following actions will be performed:
  [32m∗[0m install [01mconf-adwaita-icon-theme[0m 2      [required by coqide]
  [32m∗[0m install [01mconf-findutils[0m          1      [required by coq, coqide]
  [32m∗[0m install [01mcoq[0m                     8.16.0
  [32m∗[0m install [01mcoqide[0m                  8.16.0
===== [32m∗[0m 4 =====

The following system packages will first need to be installed:
    [01madwaita-icon-theme-full[0m

[36m<><>[0m [01mHandling external dependencies[0m [36m<><><><><><><><><><><><><><><><><><><><><><>[0m
Let opam run your package manager to install the required system packages?
(answer 'n' for other options) [Y/n] y
[33m+[0m /usr/bin/sudo "apt-get" "install" "adwaita-icon-theme-full"
[sudo] Mot de passe de gm : 
[33m- [0mLecture des listes de paquets…
[33m- [0mConstruction de l'arbre des dépendances…
[33m- [0mLecture des informations d'état…
[33m- [0mLes paquets suivants ont été installés automatiquement et ne sont plus nécessaires :
[33m- [0m  binutils-i686-linux-gnu cpp-11-i686-linux-gnu cpp-i686-linux-gnu
[33m- [0m  fwupd-unsigned gcc-11-cross-base gcc-11-i686-linux-gnu-base
[33m- [0m  gcc-12-cross-base gir1.2-mutter-9 libabsl20200923 libasan6-i386-cross
[33m- [0m  libatomic1-i386-cross libc6-dev-i386-cross libc6-i386-cross libcmis-0.5-5v5
[33m- [0m  libfprint-2-2 libgcc-11-dev-i386-cross libgcc-s1-i386-cross
[33m- [0m  libgomp1-i386-cross libicu67 libitm1-i386-cross libmozjs-78-0 libmutter-9-0
[33m- [0m  libneon27-gnutls liborcus-0.16-0 liborcus-parser-0.16-0 libpoppler111
[33m- [0m  libpoppler115 libpython3.9 libpython3.9-minimal libpython3.9-stdlib
[33m- [0m  libquadmath0-i386-cross libstdc++6-i386-cross libubsan1-i386-cross
[33m- [0m  linux-libc-dev-i386-cross
[33m- [0mVeuillez utiliser « sudo apt autoremove » pour les supprimer.
[33m- [0mLes NOUVEAUX paquets suivants seront installés :
[33m- [0m  adwaita-icon-theme-full
[33m- [0m0 mis à jour, 1 nouvellement installés, 0 à enlever et 135 non mis à jour.
[33m- [0mIl est nécessaire de prendre 6 925 ko dans les archives.
[33m- [0mAprès cette opération, 21,8 Mo d'espace disque supplémentaires seront utilisés.
[33m- [0mRéception de :1 http://fr.archive.ubuntu.com/ubuntu jammy/universe amd64 adwaita-icon-theme-full all 41.0-1ubuntu1 [6 925 kB]
[33m- [0m6 925 ko réceptionnés en 2s (4 112 ko/s)
[33m- [0mSélection du paquet adwaita-icon-theme-full précédemment désélectionné.
[33m- [0m(Lecture de la base de données... (Lecture de la base de données... 5%(Lecture de la base de données... 10%(Lecture de la base de données... 15%(Lecture de la base de données... 20%(Lecture de la base de données... 25%(Lecture de la base de données... 30%(Lecture de la base de données... 35%(Lecture de la base de données... 40%(Lecture de la base de données... 45%(Lecture de la base de données... 50%(Lecture de la base de données... 55%(Lecture de la base de données... 60%(Lecture de la base de données... 65%
[33m- [0m(Lecture de la base de données... 70%(Lecture de la base de données... 75%(Lecture de la base de données... 80%(Lecture de la base de données... 85%(Lecture de la base de données... 90%(Lecture de la base de données... 95%(Lecture de la base de données... 100%(Lecture de la base de données... 499515 fichiers et répertoires déjà installés.)
[33m- [0mPréparation du dépaquetage de .../adwaita-icon-theme-full_41.0-1ubuntu1_all.deb ...
[33m- [0mDépaquetage de adwaita-icon-theme-full (41.0-1ubuntu1) ...
[33m- [0mParamétrage de adwaita-icon-theme-full (41.0-1ubuntu1) ...

[36m<><>[0m [01mProcessing actions[0m [36m<><><><><><><><><><><><><><><><><><><><><><><><><><><><>[0m
[KProcessing  3/12: [[32mcoq.8.16.0[0m: dl][K[KProcessing  4/12: [[32mcoq.8.16.0[0m: dl] [[32mcoqide.8.16.0[0m: dl][K[KProcessing  5/12: [[32mcoq.8.16.0[0m: dl] [[32mcoqide.8.16.0[0m: dl][K[KProcessing  6/12: [[32mcoq.8.16.0[0m: dl] [[32mcoqide.8.16.0[0m: dl]                           + 1[K[32m∗[0m installed [01mconf-adwaita-icon-theme[0m.2
[KProcessing  7/12: [[32mcoq.8.16.0[0m: dl] [[32mcoqide.8.16.0[0m: dl]                           + 1[K[KProcessing  7/12: [[32mcoq.8.16.0[0m: dl] [[32mcoqide.8.16.0[0m: dl][K[32m∗[0m installed [01mconf-findutils[0m.1
[KProcessing  8/12: [[32mcoq.8.16.0[0m: dl] [[32mcoqide.8.16.0[0m: dl][K[KProcessing  8/12: [[32mcoq.8.16.0[0m: dl] [[32mcoqide.8.16.0[0m: dl][K[KProcessing  8/12: [[32mcoq.8.16.0[0m: dl] [[32mcoqide.8.16.0[0m: dl][K[KProcessing  8/12: [[32mcoqide.8.16.0[0m: dl][K[36m⬇[0m retrieved [01mcoq[0m.8.16.0  (https://opam.ocaml.org/cache)
[KProcessing  8/12: [[32mcoqide.8.16.0[0m: dl][K[KProcessing  9/12: [[32mcoqide.8.16.0[0m: dl] [[32mcoq[0m: ./configure no][K[KProcessing  9/12: [[32mcoqide.8.16.0[0m: dl] [[32mcoq[0m: ./configure no][K[KProcessing  9/12: [[32mcoqide.8.16.0[0m: dl] [[32mcoq[0m: make][K[KProcessing  9/12: [[32mcoq[0m: make][K[36m⬇[0m retrieved [01mcoqide[0m.8.16.0  (https://opam.ocaml.org/cache)
[KProcessing  9/12: [[32mcoq[0m: make][K[KProcessing 10/12: [[32mcoq[0m: make install][K[32m∗[0m installed [01mcoq[0m.8.16.0
[KProcessing 11/12: [[32mcoqide[0m: ./configure no][K[KProcessing 11/12: [[32mcoqide[0m: dune build][K[32m∗[0m installed [01mcoqide[0m.8.16.0
Done.
659.24user 143.29system 8:33.25elapsed 156%CPU (0avgtext+0avgdata 640624maxresident)k
43040inputs+4946272outputs (23592major+49824958minor)pagefaults 0swaps
+ throttle_control_end
++ cpufreqctl --throttle
./install.sh: ligne 101: cpufreqctl : commande introuvable
+ '[' -eq ']'
+ IS_THROTTLED=
+ mv /tmp/ocaml-stats-mark-prefetching-412-stats.log coq-opam.log.6-0
+ cd ..
+ for i in $REPOS
+ throttle_control_begin
+ IS_THROTTLED=
++ cpufreqctl --throttle
./install.sh: ligne 97: cpufreqctl : commande introuvable
+ THROTTLE=
+ cd repo-page-table-412-stats+optims
++ opam env --switch=. --set-switch
+ eval 'OPAMSWITCH='\''/home/gm/Travail/github/ocaml/ocaml-large-pages-experiment/real_perfs2/repo-page-table-412-stats+optims'\'';' export 'OPAMSWITCH;' 'OPAM_SWITCH_PREFIX='\''/home/gm/Travail/github/ocaml/ocaml-large-pages-experiment/real_perfs2/repo-page-table-412-stats+optims/_opam'\'';' export 'OPAM_SWITCH_PREFIX;' 'CAML_LD_LIBRARY_PATH='\''/home/gm/Travail/github/ocaml/ocaml-large-pages-experiment/real_perfs2/repo-page-table-412-stats+optims/_opam/lib/stublibs:/home/gm/Travail/github/ocaml/ocaml-large-pages-experiment/real_perfs2/repo-page-table-412-stats+optims/_opam/lib/ocaml/stublibs:/home/gm/Travail/github/ocaml/ocaml-large-pages-experiment/real_perfs2/repo-page-table-412-stats+optims/_opam/lib/ocaml'\'';' export 'CAML_LD_LIBRARY_PATH;' 'OCAML_TOPLEVEL_PATH='\''/home/gm/Travail/github/ocaml/ocaml-large-pages-experiment/real_perfs2/repo-page-table-412-stats+optims/_opam/lib/toplevel'\'';' export 'OCAML_TOPLEVEL_PATH;' 'PKG_CONFIG_PATH='\''/home/gm/Travail/github/ocaml/ocaml-large-pages-experiment/real_perfs2/repo-page-table-412-stats+optims/_opam/lib/pkgconfig'\'';' export 'PKG_CONFIG_PATH;' 'MANPATH='\'':/home/gm/Travail/github/ocaml/ocaml-large-pages-experiment/real_perfs2/repo-page-table-412-stats+optims/_opam/man'\'';' export 'MANPATH;' 'PATH='\''/home/gm/Travail/github/ocaml/ocaml-large-pages-experiment/real_perfs2/repo-page-table-412-stats+optims/_opam/bin:/home/gm/.cargo/bin:/home/gm/.local/bin:/usr/local/sbin:/usr/local/bin:/usr/sbin:/usr/bin:/sbin:/bin:/usr/games:/usr/local/games:/snap/bin:/snap/bin'\'';' export 'PATH;'
++ OPAMSWITCH=/home/gm/Travail/github/ocaml/ocaml-large-pages-experiment/real_perfs2/repo-page-table-412-stats+optims
++ export OPAMSWITCH
++ OPAM_SWITCH_PREFIX=/home/gm/Travail/github/ocaml/ocaml-large-pages-experiment/real_perfs2/repo-page-table-412-stats+optims/_opam
++ export OPAM_SWITCH_PREFIX
++ CAML_LD_LIBRARY_PATH=/home/gm/Travail/github/ocaml/ocaml-large-pages-experiment/real_perfs2/repo-page-table-412-stats+optims/_opam/lib/stublibs:/home/gm/Travail/github/ocaml/ocaml-large-pages-experiment/real_perfs2/repo-page-table-412-stats+optims/_opam/lib/ocaml/stublibs:/home/gm/Travail/github/ocaml/ocaml-large-pages-experiment/real_perfs2/repo-page-table-412-stats+optims/_opam/lib/ocaml
++ export CAML_LD_LIBRARY_PATH
++ OCAML_TOPLEVEL_PATH=/home/gm/Travail/github/ocaml/ocaml-large-pages-experiment/real_perfs2/repo-page-table-412-stats+optims/_opam/lib/toplevel
++ export OCAML_TOPLEVEL_PATH
++ PKG_CONFIG_PATH=/home/gm/Travail/github/ocaml/ocaml-large-pages-experiment/real_perfs2/repo-page-table-412-stats+optims/_opam/lib/pkgconfig
++ export PKG_CONFIG_PATH
++ MANPATH=:/home/gm/Travail/github/ocaml/ocaml-large-pages-experiment/real_perfs2/repo-page-table-412-stats+optims/_opam/man
++ export MANPATH
++ PATH=/home/gm/Travail/github/ocaml/ocaml-large-pages-experiment/real_perfs2/repo-page-table-412-stats+optims/_opam/bin:/home/gm/.cargo/bin:/home/gm/.local/bin:/usr/local/sbin:/usr/local/bin:/usr/sbin:/usr/bin:/sbin:/bin:/usr/games:/usr/local/games:/snap/bin:/snap/bin
++ export PATH
+ opam list
# Packages matching: [36minstalled[0m
# Name               # Installed # Synopsis
[01mbase-bigarray[0m        [35mbase[0m
[01mbase-threads[0m         [35mbase[0m
[01mbase-unix[0m            [35mbase[0m
[01mcairo2[0m               [35m0.6.3[0m       Binding to Cairo, a 2D Vector Graphics Library
[01mconf-cairo[0m           [35m1[0m           Virtual package relying on a Cairo system installati
[01mconf-gmp[0m             [35m4[0m           Virtual package relying on a GMP lib system installa
[01mconf-gtk3[0m            [35m18[0m          Virtual package relying on GTK+ 3
[01mconf-gtksourceview3[0m  [35m0+2[0m         Virtual package relying on a GtkSourceView-3 system 
[01mconf-pkg-config[0m      [35m2[0m           Check if pkg-config is installed and create an opam 
[01;04mdune[0m                 [35m3.4.1[0m       Fast, portable, and opinionated build system
[01mdune-configurator[0m    [35m2.7.0[0m       Helper library for gathering system configuration
[01mlablgtk3[0m             [35m3.1.2[0m       OCaml interface to GTK+3
[01;04mlablgtk3-sourceview3[0m [35m3.1.2[0m       OCaml interface to GTK+ gtksourceview library
[01;04mnum[0m                  [35m1.4[0m         The legacy Num library for arbitrary-precision integ
[01mocaml[0m                [35m4.12.0[0m      The OCaml compiler (virtual package)
[01mocaml-config[0m         [35m2[0m           OCaml Switch Configuration
[01;04mocaml-variants[0m       [1;34m4.12.0[0m      pinned to version [1;34m4.12.0[0m at [04mgit+https://github.com/g[0m
[01mocamlfind[0m            [35m1.9.5[0m       A library manager for OCaml
[01;04mzarith[0m               [35m1.12[0m        Implements arithmetic and logical operations over ar
+ true
+ opam remove -y coq-mathcomp-field coq-mathcomp-solvable coq-mathcomp-algebra coq-mathcomp-fingroup coq-mathcomp-ssreflect coq-mathcomp-character coq-mathcomp-odd-order
[1;34m[NOTE][0m coq-mathcomp-odd-order, coq-mathcomp-character, coq-mathcomp-ssreflect,
       coq-mathcomp-fingroup, coq-mathcomp-algebra, coq-mathcomp-solvable and
       coq-mathcomp-field are not installed.

Nothing to do.
+ c=reinstall
+ time opam reinstall --skip-updates -j 4 -y coq coqide
coq and coqide are not installed. Install them? [Y/n] y
The following actions will be performed:
  [32m∗[0m install [01mconf-adwaita-icon-theme[0m 2      [required by coqide]
  [32m∗[0m install [01mconf-findutils[0m          1      [required by coq, coqide]
  [32m∗[0m install [01mcoq[0m                     8.16.0
  [32m∗[0m install [01mcoqide[0m                  8.16.0
===== [32m∗[0m 4 =====

[36m<><>[0m [01mProcessing actions[0m [36m<><><><><><><><><><><><><><><><><><><><><><><><><><><><>[0m
[KProcessing  3/12:[K[KProcessing  4/12:[K[KProcessing  5/12:[K[KProcessing  6/12: [[32mconf-findutils[0m: sh find . -name .][K[32m∗[0m installed [01mconf-adwaita-icon-theme[0m.2
[KProcessing  7/12: [[32mconf-findutils[0m: sh find . -name .][K[36m⬇[0m retrieved [01mcoq[0m.8.16.0  (cached)
[KProcessing  7/12: [[32mconf-findutils[0m: sh find . -name .][K[36m⬇[0m retrieved [01mcoqide[0m.8.16.0  (cached)
[KProcessing  7/12: [[32mconf-findutils[0m: sh find . -name .][K[32m∗[0m installed [01mconf-findutils[0m.1
[KProcessing  9/12: [[32mcoq[0m: ./configure no][K[KProcessing  9/12: [[32mcoq[0m: make][K[KProcessing 10/12: [[32mcoq[0m: make install][K[32m∗[0m installed [01mcoq[0m.8.16.0
[KProcessing 11/12: [[32mcoqide[0m: ./configure no][K[KProcessing 11/12: [[32mcoqide[0m: dune build][K[32m∗[0m installed [01mcoqide[0m.8.16.0
Done.
647.48user 140.86system 2:47.87elapsed 469%CPU (0avgtext+0avgdata 622752maxresident)k
33248inputs+4922472outputs (32024major+49210192minor)pagefaults 0swaps
+ throttle_control_end
++ cpufreqctl --throttle
./install.sh: ligne 101: cpufreqctl : commande introuvable
+ '[' -eq ']'
+ IS_THROTTLED=
+ mv /tmp/ocaml-stats-page-table-412-stats+optims.log coq-opam.log.6-0
+ cd ..
+ date -R
Mon, 12 Sep 2022 07:05:15 +0200
+ true
+ for i in $REPOS
+ throttle_control_begin
+ IS_THROTTLED=
++ cpufreqctl --throttle
./install.sh: ligne 97: cpufreqctl : commande introuvable
+ THROTTLE=
+ cd repo-mark-prefetching-412-stats
++ opam env --switch=. --set-switch
+ eval 'OPAMSWITCH='\''/home/gm/Travail/github/ocaml/ocaml-large-pages-experiment/real_perfs2/repo-mark-prefetching-412-stats'\'';' export 'OPAMSWITCH;' 'OPAM_SWITCH_PREFIX='\''/home/gm/Travail/github/ocaml/ocaml-large-pages-experiment/real_perfs2/repo-mark-prefetching-412-stats/_opam'\'';' export 'OPAM_SWITCH_PREFIX;' 'CAML_LD_LIBRARY_PATH='\''/home/gm/Travail/github/ocaml/ocaml-large-pages-experiment/real_perfs2/repo-mark-prefetching-412-stats/_opam/lib/stublibs:/home/gm/Travail/github/ocaml/ocaml-large-pages-experiment/real_perfs2/repo-mark-prefetching-412-stats/_opam/lib/ocaml/stublibs:/home/gm/Travail/github/ocaml/ocaml-large-pages-experiment/real_perfs2/repo-mark-prefetching-412-stats/_opam/lib/ocaml'\'';' export 'CAML_LD_LIBRARY_PATH;' 'OCAML_TOPLEVEL_PATH='\''/home/gm/Travail/github/ocaml/ocaml-large-pages-experiment/real_perfs2/repo-mark-prefetching-412-stats/_opam/lib/toplevel'\'';' export 'OCAML_TOPLEVEL_PATH;' 'PKG_CONFIG_PATH='\''/home/gm/Travail/github/ocaml/ocaml-large-pages-experiment/real_perfs2/repo-mark-prefetching-412-stats/_opam/lib/pkgconfig'\'';' export 'PKG_CONFIG_PATH;' 'MANPATH='\'':/home/gm/Travail/github/ocaml/ocaml-large-pages-experiment/real_perfs2/repo-mark-prefetching-412-stats/_opam/man'\'';' export 'MANPATH;' 'PATH='\''/home/gm/Travail/github/ocaml/ocaml-large-pages-experiment/real_perfs2/repo-mark-prefetching-412-stats/_opam/bin:/home/gm/.cargo/bin:/home/gm/.local/bin:/usr/local/sbin:/usr/local/bin:/usr/sbin:/usr/bin:/sbin:/bin:/usr/games:/usr/local/games:/snap/bin:/snap/bin'\'';' export 'PATH;'
++ OPAMSWITCH=/home/gm/Travail/github/ocaml/ocaml-large-pages-experiment/real_perfs2/repo-mark-prefetching-412-stats
++ export OPAMSWITCH
++ OPAM_SWITCH_PREFIX=/home/gm/Travail/github/ocaml/ocaml-large-pages-experiment/real_perfs2/repo-mark-prefetching-412-stats/_opam
++ export OPAM_SWITCH_PREFIX
++ CAML_LD_LIBRARY_PATH=/home/gm/Travail/github/ocaml/ocaml-large-pages-experiment/real_perfs2/repo-mark-prefetching-412-stats/_opam/lib/stublibs:/home/gm/Travail/github/ocaml/ocaml-large-pages-experiment/real_perfs2/repo-mark-prefetching-412-stats/_opam/lib/ocaml/stublibs:/home/gm/Travail/github/ocaml/ocaml-large-pages-experiment/real_perfs2/repo-mark-prefetching-412-stats/_opam/lib/ocaml
++ export CAML_LD_LIBRARY_PATH
++ OCAML_TOPLEVEL_PATH=/home/gm/Travail/github/ocaml/ocaml-large-pages-experiment/real_perfs2/repo-mark-prefetching-412-stats/_opam/lib/toplevel
++ export OCAML_TOPLEVEL_PATH
++ PKG_CONFIG_PATH=/home/gm/Travail/github/ocaml/ocaml-large-pages-experiment/real_perfs2/repo-mark-prefetching-412-stats/_opam/lib/pkgconfig
++ export PKG_CONFIG_PATH
++ MANPATH=:/home/gm/Travail/github/ocaml/ocaml-large-pages-experiment/real_perfs2/repo-mark-prefetching-412-stats/_opam/man
++ export MANPATH
++ PATH=/home/gm/Travail/github/ocaml/ocaml-large-pages-experiment/real_perfs2/repo-mark-prefetching-412-stats/_opam/bin:/home/gm/.cargo/bin:/home/gm/.local/bin:/usr/local/sbin:/usr/local/bin:/usr/sbin:/usr/bin:/sbin:/bin:/usr/games:/usr/local/games:/snap/bin:/snap/bin
++ export PATH
+ opam list
# Packages matching: [36minstalled[0m
# Name                  # Installed # Synopsis
[01mbase-bigarray[0m           [35mbase[0m
[01mbase-threads[0m            [35mbase[0m
[01mbase-unix[0m               [35mbase[0m
[01mcairo2[0m                  [35m0.6.3[0m       Binding to Cairo, a 2D Vector Graphics Library
[01mconf-adwaita-icon-theme[0m [35m2[0m           Virtual package relying on adwaita-icon-theme
[01mconf-cairo[0m              [35m1[0m           Virtual package relying on a Cairo system install
[01mconf-findutils[0m          [35m1[0m           Virtual package relying on findutils
[01mconf-gmp[0m                [35m4[0m           Virtual package relying on a GMP lib system insta
[01mconf-gtk3[0m               [35m18[0m          Virtual package relying on GTK+ 3
[01mconf-gtksourceview3[0m     [35m0+2[0m         Virtual package relying on a GtkSourceView-3 syst
[01mconf-pkg-config[0m         [35m2[0m           Check if pkg-config is installed and create an op
[01;04mcoq[0m                     [35m8.16.0[0m      Formal proof management system
[01;04mcoqide[0m                  [35m8.16.0[0m      IDE of the Coq formal proof management system
[01;04mdune[0m                    [35m3.4.1[0m       Fast, portable, and opinionated build system
[01mdune-configurator[0m       [35m2.7.0[0m       Helper library for gathering system configuration
[01mlablgtk3[0m                [35m3.1.2[0m       OCaml interface to GTK+3
[01;04mlablgtk3-sourceview3[0m    [35m3.1.2[0m       OCaml interface to GTK+ gtksourceview library
[01mocaml[0m                   [35m4.12.0[0m      The OCaml compiler (virtual package)
[01mocaml-config[0m            [35m2[0m           OCaml Switch Configuration
[01;04mocaml-variants[0m          [1;34m4.12.0[0m      pinned to version [1;34m4.12.0[0m at [04mgit+file:///home/gm/T[0m
[01mocamlfind[0m               [35m1.9.5[0m       A library manager for OCaml
[01;04mzarith[0m                  [35m1.12[0m        Implements arithmetic and logical operations over
+ opam remove -y coq-mathcomp-character coq-mathcomp-odd-order
[31m[ERROR][0m coq-mathcomp-character unknown package
[31m[ERROR][0m coq-mathcomp-odd-order unknown package
+ time opam reinstall --skip-updates -j 4 -y coq-mathcomp-field coq-mathcomp-solvable coq-mathcomp-algebra coq-mathcomp-fingroup coq-mathcomp-ssreflect
[31m[ERROR][0m coq-mathcomp-field unknown package
[31m[ERROR][0m coq-mathcomp-solvable unknown package
[31m[ERROR][0m coq-mathcomp-algebra unknown package
[31m[ERROR][0m coq-mathcomp-fingroup unknown package
[31m[ERROR][0m coq-mathcomp-ssreflect unknown package
Command exited with non-zero status 5
0.54user 0.10system 0:00.64elapsed 99%CPU (0avgtext+0avgdata 172244maxresident)k
0inputs+6072outputs (0major+56748minor)pagefaults 0swaps
+ throttle_control_end
++ cpufreqctl --throttle
./install.sh: ligne 101: cpufreqctl : commande introuvable
+ '[' -eq ']'
+ IS_THROTTLED=
+ mv /tmp/ocaml-stats-mark-prefetching-412-stats.log coq-mathcomp.log.6-0
mv: impossible d'évaluer '/tmp/ocaml-stats-mark-prefetching-412-stats.log': Aucun fichier ou dossier de ce type
+ cd ..
+ for i in $REPOS
+ throttle_control_begin
+ IS_THROTTLED=
++ cpufreqctl --throttle
./install.sh: ligne 97: cpufreqctl : commande introuvable
+ THROTTLE=
+ cd repo-page-table-412-stats+optims
++ opam env --switch=. --set-switch
+ eval 'OPAMSWITCH='\''/home/gm/Travail/github/ocaml/ocaml-large-pages-experiment/real_perfs2/repo-page-table-412-stats+optims'\'';' export 'OPAMSWITCH;' 'OPAM_SWITCH_PREFIX='\''/home/gm/Travail/github/ocaml/ocaml-large-pages-experiment/real_perfs2/repo-page-table-412-stats+optims/_opam'\'';' export 'OPAM_SWITCH_PREFIX;' 'CAML_LD_LIBRARY_PATH='\''/home/gm/Travail/github/ocaml/ocaml-large-pages-experiment/real_perfs2/repo-page-table-412-stats+optims/_opam/lib/stublibs:/home/gm/Travail/github/ocaml/ocaml-large-pages-experiment/real_perfs2/repo-page-table-412-stats+optims/_opam/lib/ocaml/stublibs:/home/gm/Travail/github/ocaml/ocaml-large-pages-experiment/real_perfs2/repo-page-table-412-stats+optims/_opam/lib/ocaml'\'';' export 'CAML_LD_LIBRARY_PATH;' 'OCAML_TOPLEVEL_PATH='\''/home/gm/Travail/github/ocaml/ocaml-large-pages-experiment/real_perfs2/repo-page-table-412-stats+optims/_opam/lib/toplevel'\'';' export 'OCAML_TOPLEVEL_PATH;' 'PKG_CONFIG_PATH='\''/home/gm/Travail/github/ocaml/ocaml-large-pages-experiment/real_perfs2/repo-page-table-412-stats+optims/_opam/lib/pkgconfig'\'';' export 'PKG_CONFIG_PATH;' 'MANPATH='\'':/home/gm/Travail/github/ocaml/ocaml-large-pages-experiment/real_perfs2/repo-page-table-412-stats+optims/_opam/man'\'';' export 'MANPATH;' 'PATH='\''/home/gm/Travail/github/ocaml/ocaml-large-pages-experiment/real_perfs2/repo-page-table-412-stats+optims/_opam/bin:/home/gm/.cargo/bin:/home/gm/.local/bin:/usr/local/sbin:/usr/local/bin:/usr/sbin:/usr/bin:/sbin:/bin:/usr/games:/usr/local/games:/snap/bin:/snap/bin'\'';' export 'PATH;'
++ OPAMSWITCH=/home/gm/Travail/github/ocaml/ocaml-large-pages-experiment/real_perfs2/repo-page-table-412-stats+optims
++ export OPAMSWITCH
++ OPAM_SWITCH_PREFIX=/home/gm/Travail/github/ocaml/ocaml-large-pages-experiment/real_perfs2/repo-page-table-412-stats+optims/_opam
++ export OPAM_SWITCH_PREFIX
++ CAML_LD_LIBRARY_PATH=/home/gm/Travail/github/ocaml/ocaml-large-pages-experiment/real_perfs2/repo-page-table-412-stats+optims/_opam/lib/stublibs:/home/gm/Travail/github/ocaml/ocaml-large-pages-experiment/real_perfs2/repo-page-table-412-stats+optims/_opam/lib/ocaml/stublibs:/home/gm/Travail/github/ocaml/ocaml-large-pages-experiment/real_perfs2/repo-page-table-412-stats+optims/_opam/lib/ocaml
++ export CAML_LD_LIBRARY_PATH
++ OCAML_TOPLEVEL_PATH=/home/gm/Travail/github/ocaml/ocaml-large-pages-experiment/real_perfs2/repo-page-table-412-stats+optims/_opam/lib/toplevel
++ export OCAML_TOPLEVEL_PATH
++ PKG_CONFIG_PATH=/home/gm/Travail/github/ocaml/ocaml-large-pages-experiment/real_perfs2/repo-page-table-412-stats+optims/_opam/lib/pkgconfig
++ export PKG_CONFIG_PATH
++ MANPATH=:/home/gm/Travail/github/ocaml/ocaml-large-pages-experiment/real_perfs2/repo-page-table-412-stats+optims/_opam/man
++ export MANPATH
++ PATH=/home/gm/Travail/github/ocaml/ocaml-large-pages-experiment/real_perfs2/repo-page-table-412-stats+optims/_opam/bin:/home/gm/.cargo/bin:/home/gm/.local/bin:/usr/local/sbin:/usr/local/bin:/usr/sbin:/usr/bin:/sbin:/bin:/usr/games:/usr/local/games:/snap/bin:/snap/bin
++ export PATH
+ opam list
# Packages matching: [36minstalled[0m
# Name                  # Installed # Synopsis
[01mbase-bigarray[0m           [35mbase[0m
[01mbase-threads[0m            [35mbase[0m
[01mbase-unix[0m               [35mbase[0m
[01mcairo2[0m                  [35m0.6.3[0m       Binding to Cairo, a 2D Vector Graphics Library
[01mconf-adwaita-icon-theme[0m [35m2[0m           Virtual package relying on adwaita-icon-theme
[01mconf-cairo[0m              [35m1[0m           Virtual package relying on a Cairo system install
[01mconf-findutils[0m          [35m1[0m           Virtual package relying on findutils
[01mconf-gmp[0m                [35m4[0m           Virtual package relying on a GMP lib system insta
[01mconf-gtk3[0m               [35m18[0m          Virtual package relying on GTK+ 3
[01mconf-gtksourceview3[0m     [35m0+2[0m         Virtual package relying on a GtkSourceView-3 syst
[01mconf-pkg-config[0m         [35m2[0m           Check if pkg-config is installed and create an op
[01;04mcoq[0m                     [35m8.16.0[0m      Formal proof management system
[01;04mcoqide[0m                  [35m8.16.0[0m      IDE of the Coq formal proof management system
[01;04mdune[0m                    [35m3.4.1[0m       Fast, portable, and opinionated build system
[01mdune-configurator[0m       [35m2.7.0[0m       Helper library for gathering system configuration
[01mlablgtk3[0m                [35m3.1.2[0m       OCaml interface to GTK+3
[01;04mlablgtk3-sourceview3[0m    [35m3.1.2[0m       OCaml interface to GTK+ gtksourceview library
[01;04mnum[0m                     [35m1.4[0m         The legacy Num library for arbitrary-precision in
[01mocaml[0m                   [35m4.12.0[0m      The OCaml compiler (virtual package)
[01mocaml-config[0m            [35m2[0m           OCaml Switch Configuration
[01;04mocaml-variants[0m          [1;34m4.12.0[0m      pinned to version [1;34m4.12.0[0m at [04mgit+https://github.co[0m
[01mocamlfind[0m               [35m1.9.5[0m       A library manager for OCaml
[01;04mzarith[0m                  [35m1.12[0m        Implements arithmetic and logical operations over
+ opam remove -y coq-mathcomp-character coq-mathcomp-odd-order
[1;34m[NOTE][0m coq-mathcomp-odd-order and coq-mathcomp-character are not installed.

Nothing to do.
+ time opam reinstall --skip-updates -j 4 -y coq-mathcomp-field coq-mathcomp-solvable coq-mathcomp-algebra coq-mathcomp-fingroup coq-mathcomp-ssreflect
coq-mathcomp-field, coq-mathcomp-solvable, coq-mathcomp-algebra,
coq-mathcomp-fingroup and coq-mathcomp-ssreflect are not installed. Install them?
[Y/n] y
The following actions will be performed:
  [32m∗[0m install [01mcoq-mathcomp-ssreflect[0m 1.15.0
  [32m∗[0m install [01mcoq-mathcomp-fingroup[0m  1.15.0
  [32m∗[0m install [01mcoq-mathcomp-algebra[0m   1.15.0
  [32m∗[0m install [01mcoq-mathcomp-solvable[0m  1.15.0
  [32m∗[0m install [01mcoq-mathcomp-field[0m     1.15.0
===== [32m∗[0m 5 =====

[36m<><>[0m [01mProcessing actions[0m [36m<><><><><><><><><><><><><><><><><><><><><><><><><><><><>[0m
[KProcessing  1/15: [[32mcoq-mathcomp-algebra.1.15.0[0m: http][K[KProcessing  2/15: [[32mcoq-mathcomp-algebra.1.15.0[0m: http]                            + 1[K[KProcessing  3/15: [[32mcoq-mathcomp-algebra.1.15.0[0m: http]                            + 2[K[KProcessing  3/15: [[32mcoq-mathcomp-algebra.1.15.0[0m: http]                            + 1[K[KProcessing  3/15: [[32mcoq-mathcomp-algebra.1.15.0[0m: http][K[36m⬇[0m retrieved [01mcoq-mathcomp-field[0m.1.15.0  (https://github.com/math-comp/math-comp/archive/mathcomp-1.15.0.tar.gz)
[KProcessing  3/15: [[32mcoq-mathcomp-algebra.1.15.0[0m: http][K[KProcessing  4/15: [[32mcoq-mathcomp-algebra.1.15.0[0m: http][K[KProcessing  4/15:[K[36m⬇[0m retrieved [01mcoq-mathcomp-fingroup[0m.1.15.0  (https://github.com/math-comp/math-comp/archive/mathcomp-1.15.0.tar.gz)
[KProcessing  4/15:[K[KProcessing  5/15:[K[36m⬇[0m retrieved [01mcoq-mathcomp-solvable[0m.1.15.0  (cached)
[KProcessing  5/15:[K[36m⬇[0m retrieved [01mcoq-mathcomp-algebra[0m.1.15.0  (https://github.com/math-comp/math-comp/archive/mathcomp-1.15.0.tar.gz)
[KProcessing  5/15:[K[36m⬇[0m retrieved [01mcoq-mathcomp-ssreflect[0m.1.15.0  (cached)
[KProcessing  6/15: [[32mcoq-mathcomp-ssreflect[0m: make 16][K[KProcessing  7/15: [[32mcoq-mathcomp-ssreflect[0m: make install][K[32m∗[0m installed [01mcoq-mathcomp-ssreflect[0m.1.15.0
[KProcessing  8/15: [[32mcoq-mathcomp-fingroup[0m: make 16][K[KProcessing  9/15: [[32mcoq-mathcomp-fingroup[0m: make install][K[32m∗[0m installed [01mcoq-mathcomp-fingroup[0m.1.15.0
[KProcessing 10/15: [[32mcoq-mathcomp-algebra[0m: make 16][K[KProcessing 11/15: [[32mcoq-mathcomp-algebra[0m: make install][K[32m∗[0m installed [01mcoq-mathcomp-algebra[0m.1.15.0
[KProcessing 12/15: [[32mcoq-mathcomp-solvable[0m: make 16][K[KProcessing 13/15: [[32mcoq-mathcomp-solvable[0m: make install][K[32m∗[0m installed [01mcoq-mathcomp-solvable[0m.1.15.0
[KProcessing 14/15: [[32mcoq-mathcomp-field[0m: make 16][K[KProcessing 15/15: [[32mcoq-mathcomp-field[0m: make install][K[32m∗[0m installed [01mcoq-mathcomp-field[0m.1.15.0
Done.
319.73user 16.72system 3:52.18elapsed 144%CPU (0avgtext+0avgdata 695720maxresident)k
1560inputs+511168outputs (3965major+9814900minor)pagefaults 0swaps
+ throttle_control_end
++ cpufreqctl --throttle
./install.sh: ligne 101: cpufreqctl : commande introuvable
+ '[' -eq ']'
+ IS_THROTTLED=
+ mv /tmp/ocaml-stats-page-table-412-stats+optims.log coq-mathcomp.log.6-0
+ cd ..
+ date -R
Mon, 12 Sep 2022 07:09:10 +0200
+ false
+ for n in $(seq 0 $((TRIALS - 1)))
+ TRIAL=-1
+ echo 'Iteration 1'
Iteration 1
+ date -R
Mon, 12 Sep 2022 07:09:10 +0200
+ false
+ true
+ for i in $REPOS
+ throttle_control_begin
+ IS_THROTTLED=
++ cpufreqctl --throttle
./install.sh: ligne 97: cpufreqctl : commande introuvable
+ THROTTLE=
+ cd repo-mark-prefetching-412-stats
++ opam env --switch=. --set-switch
+ eval 'OPAMSWITCH='\''/home/gm/Travail/github/ocaml/ocaml-large-pages-experiment/real_perfs2/repo-mark-prefetching-412-stats'\'';' export 'OPAMSWITCH;' 'OPAM_SWITCH_PREFIX='\''/home/gm/Travail/github/ocaml/ocaml-large-pages-experiment/real_perfs2/repo-mark-prefetching-412-stats/_opam'\'';' export 'OPAM_SWITCH_PREFIX;' 'CAML_LD_LIBRARY_PATH='\''/home/gm/Travail/github/ocaml/ocaml-large-pages-experiment/real_perfs2/repo-mark-prefetching-412-stats/_opam/lib/stublibs:/home/gm/Travail/github/ocaml/ocaml-large-pages-experiment/real_perfs2/repo-mark-prefetching-412-stats/_opam/lib/ocaml/stublibs:/home/gm/Travail/github/ocaml/ocaml-large-pages-experiment/real_perfs2/repo-mark-prefetching-412-stats/_opam/lib/ocaml'\'';' export 'CAML_LD_LIBRARY_PATH;' 'OCAML_TOPLEVEL_PATH='\''/home/gm/Travail/github/ocaml/ocaml-large-pages-experiment/real_perfs2/repo-mark-prefetching-412-stats/_opam/lib/toplevel'\'';' export 'OCAML_TOPLEVEL_PATH;' 'PKG_CONFIG_PATH='\''/home/gm/Travail/github/ocaml/ocaml-large-pages-experiment/real_perfs2/repo-mark-prefetching-412-stats/_opam/lib/pkgconfig'\'';' export 'PKG_CONFIG_PATH;' 'MANPATH='\'':/home/gm/Travail/github/ocaml/ocaml-large-pages-experiment/real_perfs2/repo-mark-prefetching-412-stats/_opam/man'\'';' export 'MANPATH;' 'PATH='\''/home/gm/Travail/github/ocaml/ocaml-large-pages-experiment/real_perfs2/repo-mark-prefetching-412-stats/_opam/bin:/home/gm/.cargo/bin:/home/gm/.local/bin:/usr/local/sbin:/usr/local/bin:/usr/sbin:/usr/bin:/sbin:/bin:/usr/games:/usr/local/games:/snap/bin:/snap/bin'\'';' export 'PATH;'
++ OPAMSWITCH=/home/gm/Travail/github/ocaml/ocaml-large-pages-experiment/real_perfs2/repo-mark-prefetching-412-stats
++ export OPAMSWITCH
++ OPAM_SWITCH_PREFIX=/home/gm/Travail/github/ocaml/ocaml-large-pages-experiment/real_perfs2/repo-mark-prefetching-412-stats/_opam
++ export OPAM_SWITCH_PREFIX
++ CAML_LD_LIBRARY_PATH=/home/gm/Travail/github/ocaml/ocaml-large-pages-experiment/real_perfs2/repo-mark-prefetching-412-stats/_opam/lib/stublibs:/home/gm/Travail/github/ocaml/ocaml-large-pages-experiment/real_perfs2/repo-mark-prefetching-412-stats/_opam/lib/ocaml/stublibs:/home/gm/Travail/github/ocaml/ocaml-large-pages-experiment/real_perfs2/repo-mark-prefetching-412-stats/_opam/lib/ocaml
++ export CAML_LD_LIBRARY_PATH
++ OCAML_TOPLEVEL_PATH=/home/gm/Travail/github/ocaml/ocaml-large-pages-experiment/real_perfs2/repo-mark-prefetching-412-stats/_opam/lib/toplevel
++ export OCAML_TOPLEVEL_PATH
++ PKG_CONFIG_PATH=/home/gm/Travail/github/ocaml/ocaml-large-pages-experiment/real_perfs2/repo-mark-prefetching-412-stats/_opam/lib/pkgconfig
++ export PKG_CONFIG_PATH
++ MANPATH=:/home/gm/Travail/github/ocaml/ocaml-large-pages-experiment/real_perfs2/repo-mark-prefetching-412-stats/_opam/man
++ export MANPATH
++ PATH=/home/gm/Travail/github/ocaml/ocaml-large-pages-experiment/real_perfs2/repo-mark-prefetching-412-stats/_opam/bin:/home/gm/.cargo/bin:/home/gm/.local/bin:/usr/local/sbin:/usr/local/bin:/usr/sbin:/usr/bin:/sbin:/bin:/usr/games:/usr/local/games:/snap/bin:/snap/bin
++ export PATH
+ opam list
# Packages matching: [36minstalled[0m
# Name                  # Installed # Synopsis
[01mbase-bigarray[0m           [35mbase[0m
[01mbase-threads[0m            [35mbase[0m
[01mbase-unix[0m               [35mbase[0m
[01mcairo2[0m                  [35m0.6.3[0m       Binding to Cairo, a 2D Vector Graphics Library
[01mconf-adwaita-icon-theme[0m [35m2[0m           Virtual package relying on adwaita-icon-theme
[01mconf-cairo[0m              [35m1[0m           Virtual package relying on a Cairo system install
[01mconf-findutils[0m          [35m1[0m           Virtual package relying on findutils
[01mconf-gmp[0m                [35m4[0m           Virtual package relying on a GMP lib system insta
[01mconf-gtk3[0m               [35m18[0m          Virtual package relying on GTK+ 3
[01mconf-gtksourceview3[0m     [35m0+2[0m         Virtual package relying on a GtkSourceView-3 syst
[01mconf-pkg-config[0m         [35m2[0m           Check if pkg-config is installed and create an op
[01;04mcoq[0m                     [35m8.16.0[0m      Formal proof management system
[01;04mcoqide[0m                  [35m8.16.0[0m      IDE of the Coq formal proof management system
[01;04mdune[0m                    [35m3.4.1[0m       Fast, portable, and opinionated build system
[01mdune-configurator[0m       [35m2.7.0[0m       Helper library for gathering system configuration
[01mlablgtk3[0m                [35m3.1.2[0m       OCaml interface to GTK+3
[01;04mlablgtk3-sourceview3[0m    [35m3.1.2[0m       OCaml interface to GTK+ gtksourceview library
[01mocaml[0m                   [35m4.12.0[0m      The OCaml compiler (virtual package)
[01mocaml-config[0m            [35m2[0m           OCaml Switch Configuration
[01;04mocaml-variants[0m          [1;34m4.12.0[0m      pinned to version [1;34m4.12.0[0m at [04mgit+file:///home/gm/T[0m
[01mocamlfind[0m               [35m1.9.5[0m       A library manager for OCaml
[01;04mzarith[0m                  [35m1.12[0m        Implements arithmetic and logical operations over
+ true
+ opam remove -y coq-mathcomp-field coq-mathcomp-solvable coq-mathcomp-algebra coq-mathcomp-fingroup coq-mathcomp-ssreflect coq-mathcomp-character coq-mathcomp-odd-order
[31m[ERROR][0m coq-mathcomp-field unknown package
[31m[ERROR][0m coq-mathcomp-solvable unknown package
[31m[ERROR][0m coq-mathcomp-algebra unknown package
[31m[ERROR][0m coq-mathcomp-fingroup unknown package
[31m[ERROR][0m coq-mathcomp-ssreflect unknown package
[31m[ERROR][0m coq-mathcomp-character unknown package
[31m[ERROR][0m coq-mathcomp-odd-order unknown package
+ c=reinstall
+ time opam reinstall --skip-updates -j 4 -y coq coqide
The following actions will be performed:
  [33m↻[0m recompile [01mcoq[0m    8.16.0
  [33m↻[0m recompile [01mcoqide[0m 8.16.0
===== [33m↻[0m 2 =====

[36m<><>[0m [01mProcessing actions[0m [36m<><><><><><><><><><><><><><><><><><><><><><><><><><><><>[0m
[KProcessing  1/8:[K[KProcessing  2/8:[K[36m⬇[0m retrieved [01mcoq[0m.8.16.0  (cached)
[KProcessing  2/8:[K[KProcessing  3/8: [[32mcoq[0m: ./configure no][K[36m⬇[0m retrieved [01mcoqide[0m.8.16.0  (cached)
[KProcessing  3/8: [[32mcoq[0m: ./configure no][K[KProcessing  3/8: [[32mcoq[0m: make][K[31m⊘[0m removed   [01mcoqide[0m.8.16.0
[31m⊘[0m removed   [01mcoq[0m.8.16.0
[KProcessing  6/8: [[32mcoq[0m: make install][K[32m∗[0m installed [01mcoq[0m.8.16.0
[KProcessing  7/8: [[32mcoqide[0m: ./configure no][K[KProcessing  7/8: [[32mcoqide[0m: dune build][K[32m∗[0m installed [01mcoqide[0m.8.16.0
Done.
659.74user 136.64system 2:49.35elapsed 470%CPU (0avgtext+0avgdata 640452maxresident)k
10824inputs+4917080outputs (26503major+49823265minor)pagefaults 0swaps
+ throttle_control_end
++ cpufreqctl --throttle
./install.sh: ligne 101: cpufreqctl : commande introuvable
+ '[' -eq ']'
+ IS_THROTTLED=
+ mv /tmp/ocaml-stats-mark-prefetching-412-stats.log coq-opam.log.6-1
+ cd ..
+ for i in $REPOS
+ throttle_control_begin
+ IS_THROTTLED=
++ cpufreqctl --throttle
./install.sh: ligne 97: cpufreqctl : commande introuvable
+ THROTTLE=
+ cd repo-page-table-412-stats+optims
++ opam env --switch=. --set-switch
+ eval 'OPAMSWITCH='\''/home/gm/Travail/github/ocaml/ocaml-large-pages-experiment/real_perfs2/repo-page-table-412-stats+optims'\'';' export 'OPAMSWITCH;' 'OPAM_SWITCH_PREFIX='\''/home/gm/Travail/github/ocaml/ocaml-large-pages-experiment/real_perfs2/repo-page-table-412-stats+optims/_opam'\'';' export 'OPAM_SWITCH_PREFIX;' 'CAML_LD_LIBRARY_PATH='\''/home/gm/Travail/github/ocaml/ocaml-large-pages-experiment/real_perfs2/repo-page-table-412-stats+optims/_opam/lib/stublibs:/home/gm/Travail/github/ocaml/ocaml-large-pages-experiment/real_perfs2/repo-page-table-412-stats+optims/_opam/lib/ocaml/stublibs:/home/gm/Travail/github/ocaml/ocaml-large-pages-experiment/real_perfs2/repo-page-table-412-stats+optims/_opam/lib/ocaml'\'';' export 'CAML_LD_LIBRARY_PATH;' 'OCAML_TOPLEVEL_PATH='\''/home/gm/Travail/github/ocaml/ocaml-large-pages-experiment/real_perfs2/repo-page-table-412-stats+optims/_opam/lib/toplevel'\'';' export 'OCAML_TOPLEVEL_PATH;' 'PKG_CONFIG_PATH='\''/home/gm/Travail/github/ocaml/ocaml-large-pages-experiment/real_perfs2/repo-page-table-412-stats+optims/_opam/lib/pkgconfig'\'';' export 'PKG_CONFIG_PATH;' 'MANPATH='\'':/home/gm/Travail/github/ocaml/ocaml-large-pages-experiment/real_perfs2/repo-page-table-412-stats+optims/_opam/man'\'';' export 'MANPATH;' 'PATH='\''/home/gm/Travail/github/ocaml/ocaml-large-pages-experiment/real_perfs2/repo-page-table-412-stats+optims/_opam/bin:/home/gm/.cargo/bin:/home/gm/.local/bin:/usr/local/sbin:/usr/local/bin:/usr/sbin:/usr/bin:/sbin:/bin:/usr/games:/usr/local/games:/snap/bin:/snap/bin'\'';' export 'PATH;'
++ OPAMSWITCH=/home/gm/Travail/github/ocaml/ocaml-large-pages-experiment/real_perfs2/repo-page-table-412-stats+optims
++ export OPAMSWITCH
++ OPAM_SWITCH_PREFIX=/home/gm/Travail/github/ocaml/ocaml-large-pages-experiment/real_perfs2/repo-page-table-412-stats+optims/_opam
++ export OPAM_SWITCH_PREFIX
++ CAML_LD_LIBRARY_PATH=/home/gm/Travail/github/ocaml/ocaml-large-pages-experiment/real_perfs2/repo-page-table-412-stats+optims/_opam/lib/stublibs:/home/gm/Travail/github/ocaml/ocaml-large-pages-experiment/real_perfs2/repo-page-table-412-stats+optims/_opam/lib/ocaml/stublibs:/home/gm/Travail/github/ocaml/ocaml-large-pages-experiment/real_perfs2/repo-page-table-412-stats+optims/_opam/lib/ocaml
++ export CAML_LD_LIBRARY_PATH
++ OCAML_TOPLEVEL_PATH=/home/gm/Travail/github/ocaml/ocaml-large-pages-experiment/real_perfs2/repo-page-table-412-stats+optims/_opam/lib/toplevel
++ export OCAML_TOPLEVEL_PATH
++ PKG_CONFIG_PATH=/home/gm/Travail/github/ocaml/ocaml-large-pages-experiment/real_perfs2/repo-page-table-412-stats+optims/_opam/lib/pkgconfig
++ export PKG_CONFIG_PATH
++ MANPATH=:/home/gm/Travail/github/ocaml/ocaml-large-pages-experiment/real_perfs2/repo-page-table-412-stats+optims/_opam/man
++ export MANPATH
++ PATH=/home/gm/Travail/github/ocaml/ocaml-large-pages-experiment/real_perfs2/repo-page-table-412-stats+optims/_opam/bin:/home/gm/.cargo/bin:/home/gm/.local/bin:/usr/local/sbin:/usr/local/bin:/usr/sbin:/usr/bin:/sbin:/bin:/usr/games:/usr/local/games:/snap/bin:/snap/bin
++ export PATH
+ opam list
# Packages matching: [36minstalled[0m
# Name                  # Installed # Synopsis
[01mbase-bigarray[0m           [35mbase[0m
[01mbase-threads[0m            [35mbase[0m
[01mbase-unix[0m               [35mbase[0m
[01mcairo2[0m                  [35m0.6.3[0m       Binding to Cairo, a 2D Vector Graphics Library
[01mconf-adwaita-icon-theme[0m [35m2[0m           Virtual package relying on adwaita-icon-theme
[01mconf-cairo[0m              [35m1[0m           Virtual package relying on a Cairo system install
[01mconf-findutils[0m          [35m1[0m           Virtual package relying on findutils
[01mconf-gmp[0m                [35m4[0m           Virtual package relying on a GMP lib system insta
[01mconf-gtk3[0m               [35m18[0m          Virtual package relying on GTK+ 3
[01mconf-gtksourceview3[0m     [35m0+2[0m         Virtual package relying on a GtkSourceView-3 syst
[01mconf-pkg-config[0m         [35m2[0m           Check if pkg-config is installed and create an op
[01;04mcoq[0m                     [35m8.16.0[0m      Formal proof management system
[01;04mcoq-mathcomp-algebra[0m    [35m1.15.0[0m      Mathematical Components Library on Algebra
[01;04mcoq-mathcomp-field[0m      [35m1.15.0[0m      Mathematical Components Library on Fields
[01;04mcoq-mathcomp-fingroup[0m   [35m1.15.0[0m      Mathematical Components Library on finite groups
[01;04mcoq-mathcomp-solvable[0m   [35m1.15.0[0m      Mathematical Components Library on finite groups 
[01;04mcoq-mathcomp-ssreflect[0m  [35m1.15.0[0m      Small Scale Reflection
[01;04mcoqide[0m                  [35m8.16.0[0m      IDE of the Coq formal proof management system
[01;04mdune[0m                    [35m3.4.1[0m       Fast, portable, and opinionated build system
[01mdune-configurator[0m       [35m2.7.0[0m       Helper library for gathering system configuration
[01mlablgtk3[0m                [35m3.1.2[0m       OCaml interface to GTK+3
[01;04mlablgtk3-sourceview3[0m    [35m3.1.2[0m       OCaml interface to GTK+ gtksourceview library
[01;04mnum[0m                     [35m1.4[0m         The legacy Num library for arbitrary-precision in
[01mocaml[0m                   [35m4.12.0[0m      The OCaml compiler (virtual package)
[01mocaml-config[0m            [35m2[0m           OCaml Switch Configuration
[01;04mocaml-variants[0m          [1;34m4.12.0[0m      pinned to version [1;34m4.12.0[0m at [04mgit+https://github.co[0m
[01mocamlfind[0m               [35m1.9.5[0m       A library manager for OCaml
[01;04mzarith[0m                  [35m1.12[0m        Implements arithmetic and logical operations over
+ true
+ opam remove -y coq-mathcomp-field coq-mathcomp-solvable coq-mathcomp-algebra coq-mathcomp-fingroup coq-mathcomp-ssreflect coq-mathcomp-character coq-mathcomp-odd-order
[1;34m[NOTE][0m coq-mathcomp-odd-order and coq-mathcomp-character are not installed.

The following actions will be performed:
  [31m⊘[0m remove [01mcoq-mathcomp-field[0m     1.15.0
  [31m⊘[0m remove [01mcoq-mathcomp-solvable[0m  1.15.0
  [31m⊘[0m remove [01mcoq-mathcomp-algebra[0m   1.15.0
  [31m⊘[0m remove [01mcoq-mathcomp-fingroup[0m  1.15.0
  [31m⊘[0m remove [01mcoq-mathcomp-ssreflect[0m 1.15.0
===== [31m⊘[0m 5 =====

[36m<><>[0m [01mProcessing actions[0m [36m<><><><><><><><><><><><><><><><><><><><><><><><><><><><>[0m
[31m⊘[0m removed   [01mcoq-mathcomp-field[0m.1.15.0
[31m⊘[0m removed   [01mcoq-mathcomp-solvable[0m.1.15.0
[31m⊘[0m removed   [01mcoq-mathcomp-algebra[0m.1.15.0
[31m⊘[0m removed   [01mcoq-mathcomp-fingroup[0m.1.15.0
[31m⊘[0m removed   [01mcoq-mathcomp-ssreflect[0m.1.15.0
Done.
+ c=reinstall
+ time opam reinstall --skip-updates -j 4 -y coq coqide
The following actions will be performed:
  [33m↻[0m recompile [01mcoq[0m    8.16.0
  [33m↻[0m recompile [01mcoqide[0m 8.16.0
===== [33m↻[0m 2 =====

[36m<><>[0m [01mProcessing actions[0m [36m<><><><><><><><><><><><><><><><><><><><><><><><><><><><>[0m
[KProcessing  1/8:[K[KProcessing  2/8:[K[36m⬇[0m retrieved [01mcoq[0m.8.16.0  (cached)
[KProcessing  2/8:[K[KProcessing  3/8: [[32mcoq[0m: ./configure no][K[36m⬇[0m retrieved [01mcoqide[0m.8.16.0  (cached)
[KProcessing  3/8: [[32mcoq[0m: ./configure no][K[KProcessing  3/8: [[32mcoq[0m: make][K[31m⊘[0m removed   [01mcoqide[0m.8.16.0
[31m⊘[0m removed   [01mcoq[0m.8.16.0
[KProcessing  6/8: [[32mcoq[0m: make install][K[32m∗[0m installed [01mcoq[0m.8.16.0
[KProcessing  7/8: [[32mcoqide[0m: ./configure no][K[KProcessing  7/8: [[32mcoqide[0m: dune build][K[32m∗[0m installed [01mcoqide[0m.8.16.0
Done.
651.93user 143.79system 2:47.72elapsed 474%CPU (0avgtext+0avgdata 622940maxresident)k
11552inputs+4922392outputs (32501major+49193510minor)pagefaults 0swaps
+ throttle_control_end
++ cpufreqctl --throttle
./install.sh: ligne 101: cpufreqctl : commande introuvable
+ '[' -eq ']'
+ IS_THROTTLED=
+ mv /tmp/ocaml-stats-page-table-412-stats+optims.log coq-opam.log.6-1
+ cd ..
+ date -R
Mon, 12 Sep 2022 07:14:54 +0200
+ true
+ for i in $REPOS
+ throttle_control_begin
+ IS_THROTTLED=
++ cpufreqctl --throttle
./install.sh: ligne 97: cpufreqctl : commande introuvable
+ THROTTLE=
+ cd repo-mark-prefetching-412-stats
++ opam env --switch=. --set-switch
+ eval 'OPAMSWITCH='\''/home/gm/Travail/github/ocaml/ocaml-large-pages-experiment/real_perfs2/repo-mark-prefetching-412-stats'\'';' export 'OPAMSWITCH;' 'OPAM_SWITCH_PREFIX='\''/home/gm/Travail/github/ocaml/ocaml-large-pages-experiment/real_perfs2/repo-mark-prefetching-412-stats/_opam'\'';' export 'OPAM_SWITCH_PREFIX;' 'CAML_LD_LIBRARY_PATH='\''/home/gm/Travail/github/ocaml/ocaml-large-pages-experiment/real_perfs2/repo-mark-prefetching-412-stats/_opam/lib/stublibs:/home/gm/Travail/github/ocaml/ocaml-large-pages-experiment/real_perfs2/repo-mark-prefetching-412-stats/_opam/lib/ocaml/stublibs:/home/gm/Travail/github/ocaml/ocaml-large-pages-experiment/real_perfs2/repo-mark-prefetching-412-stats/_opam/lib/ocaml'\'';' export 'CAML_LD_LIBRARY_PATH;' 'OCAML_TOPLEVEL_PATH='\''/home/gm/Travail/github/ocaml/ocaml-large-pages-experiment/real_perfs2/repo-mark-prefetching-412-stats/_opam/lib/toplevel'\'';' export 'OCAML_TOPLEVEL_PATH;' 'PKG_CONFIG_PATH='\''/home/gm/Travail/github/ocaml/ocaml-large-pages-experiment/real_perfs2/repo-mark-prefetching-412-stats/_opam/lib/pkgconfig'\'';' export 'PKG_CONFIG_PATH;' 'MANPATH='\'':/home/gm/Travail/github/ocaml/ocaml-large-pages-experiment/real_perfs2/repo-mark-prefetching-412-stats/_opam/man'\'';' export 'MANPATH;' 'PATH='\''/home/gm/Travail/github/ocaml/ocaml-large-pages-experiment/real_perfs2/repo-mark-prefetching-412-stats/_opam/bin:/home/gm/.cargo/bin:/home/gm/.local/bin:/usr/local/sbin:/usr/local/bin:/usr/sbin:/usr/bin:/sbin:/bin:/usr/games:/usr/local/games:/snap/bin:/snap/bin'\'';' export 'PATH;'
++ OPAMSWITCH=/home/gm/Travail/github/ocaml/ocaml-large-pages-experiment/real_perfs2/repo-mark-prefetching-412-stats
++ export OPAMSWITCH
++ OPAM_SWITCH_PREFIX=/home/gm/Travail/github/ocaml/ocaml-large-pages-experiment/real_perfs2/repo-mark-prefetching-412-stats/_opam
++ export OPAM_SWITCH_PREFIX
++ CAML_LD_LIBRARY_PATH=/home/gm/Travail/github/ocaml/ocaml-large-pages-experiment/real_perfs2/repo-mark-prefetching-412-stats/_opam/lib/stublibs:/home/gm/Travail/github/ocaml/ocaml-large-pages-experiment/real_perfs2/repo-mark-prefetching-412-stats/_opam/lib/ocaml/stublibs:/home/gm/Travail/github/ocaml/ocaml-large-pages-experiment/real_perfs2/repo-mark-prefetching-412-stats/_opam/lib/ocaml
++ export CAML_LD_LIBRARY_PATH
++ OCAML_TOPLEVEL_PATH=/home/gm/Travail/github/ocaml/ocaml-large-pages-experiment/real_perfs2/repo-mark-prefetching-412-stats/_opam/lib/toplevel
++ export OCAML_TOPLEVEL_PATH
++ PKG_CONFIG_PATH=/home/gm/Travail/github/ocaml/ocaml-large-pages-experiment/real_perfs2/repo-mark-prefetching-412-stats/_opam/lib/pkgconfig
++ export PKG_CONFIG_PATH
++ MANPATH=:/home/gm/Travail/github/ocaml/ocaml-large-pages-experiment/real_perfs2/repo-mark-prefetching-412-stats/_opam/man
++ export MANPATH
++ PATH=/home/gm/Travail/github/ocaml/ocaml-large-pages-experiment/real_perfs2/repo-mark-prefetching-412-stats/_opam/bin:/home/gm/.cargo/bin:/home/gm/.local/bin:/usr/local/sbin:/usr/local/bin:/usr/sbin:/usr/bin:/sbin:/bin:/usr/games:/usr/local/games:/snap/bin:/snap/bin
++ export PATH
+ opam list
# Packages matching: [36minstalled[0m
# Name                  # Installed # Synopsis
[01mbase-bigarray[0m           [35mbase[0m
[01mbase-threads[0m            [35mbase[0m
[01mbase-unix[0m               [35mbase[0m
[01mcairo2[0m                  [35m0.6.3[0m       Binding to Cairo, a 2D Vector Graphics Library
[01mconf-adwaita-icon-theme[0m [35m2[0m           Virtual package relying on adwaita-icon-theme
[01mconf-cairo[0m              [35m1[0m           Virtual package relying on a Cairo system install
[01mconf-findutils[0m          [35m1[0m           Virtual package relying on findutils
[01mconf-gmp[0m                [35m4[0m           Virtual package relying on a GMP lib system insta
[01mconf-gtk3[0m               [35m18[0m          Virtual package relying on GTK+ 3
[01mconf-gtksourceview3[0m     [35m0+2[0m         Virtual package relying on a GtkSourceView-3 syst
[01mconf-pkg-config[0m         [35m2[0m           Check if pkg-config is installed and create an op
[01;04mcoq[0m                     [35m8.16.0[0m      Formal proof management system
[01;04mcoqide[0m                  [35m8.16.0[0m      IDE of the Coq formal proof management system
[01;04mdune[0m                    [35m3.4.1[0m       Fast, portable, and opinionated build system
[01mdune-configurator[0m       [35m2.7.0[0m       Helper library for gathering system configuration
[01mlablgtk3[0m                [35m3.1.2[0m       OCaml interface to GTK+3
[01;04mlablgtk3-sourceview3[0m    [35m3.1.2[0m       OCaml interface to GTK+ gtksourceview library
[01mocaml[0m                   [35m4.12.0[0m      The OCaml compiler (virtual package)
[01mocaml-config[0m            [35m2[0m           OCaml Switch Configuration
[01;04mocaml-variants[0m          [1;34m4.12.0[0m      pinned to version [1;34m4.12.0[0m at [04mgit+file:///home/gm/T[0m
[01mocamlfind[0m               [35m1.9.5[0m       A library manager for OCaml
[01;04mzarith[0m                  [35m1.12[0m        Implements arithmetic and logical operations over
+ opam remove -y coq-mathcomp-character coq-mathcomp-odd-order
[31m[ERROR][0m coq-mathcomp-character unknown package
[31m[ERROR][0m coq-mathcomp-odd-order unknown package
+ time opam reinstall --skip-updates -j 4 -y coq-mathcomp-field coq-mathcomp-solvable coq-mathcomp-algebra coq-mathcomp-fingroup coq-mathcomp-ssreflect
[31m[ERROR][0m coq-mathcomp-field unknown package
[31m[ERROR][0m coq-mathcomp-solvable unknown package
[31m[ERROR][0m coq-mathcomp-algebra unknown package
[31m[ERROR][0m coq-mathcomp-fingroup unknown package
[31m[ERROR][0m coq-mathcomp-ssreflect unknown package
Command exited with non-zero status 5
0.56user 0.07system 0:00.64elapsed 100%CPU (0avgtext+0avgdata 172272maxresident)k
0inputs+6072outputs (0major+56747minor)pagefaults 0swaps
+ throttle_control_end
++ cpufreqctl --throttle
./install.sh: ligne 101: cpufreqctl : commande introuvable
+ '[' -eq ']'
+ IS_THROTTLED=
+ mv /tmp/ocaml-stats-mark-prefetching-412-stats.log coq-mathcomp.log.6-1
mv: impossible d'évaluer '/tmp/ocaml-stats-mark-prefetching-412-stats.log': Aucun fichier ou dossier de ce type
+ cd ..
+ for i in $REPOS
+ throttle_control_begin
+ IS_THROTTLED=
++ cpufreqctl --throttle
./install.sh: ligne 97: cpufreqctl : commande introuvable
+ THROTTLE=
+ cd repo-page-table-412-stats+optims
++ opam env --switch=. --set-switch
+ eval 'OPAMSWITCH='\''/home/gm/Travail/github/ocaml/ocaml-large-pages-experiment/real_perfs2/repo-page-table-412-stats+optims'\'';' export 'OPAMSWITCH;' 'OPAM_SWITCH_PREFIX='\''/home/gm/Travail/github/ocaml/ocaml-large-pages-experiment/real_perfs2/repo-page-table-412-stats+optims/_opam'\'';' export 'OPAM_SWITCH_PREFIX;' 'CAML_LD_LIBRARY_PATH='\''/home/gm/Travail/github/ocaml/ocaml-large-pages-experiment/real_perfs2/repo-page-table-412-stats+optims/_opam/lib/stublibs:/home/gm/Travail/github/ocaml/ocaml-large-pages-experiment/real_perfs2/repo-page-table-412-stats+optims/_opam/lib/ocaml/stublibs:/home/gm/Travail/github/ocaml/ocaml-large-pages-experiment/real_perfs2/repo-page-table-412-stats+optims/_opam/lib/ocaml'\'';' export 'CAML_LD_LIBRARY_PATH;' 'OCAML_TOPLEVEL_PATH='\''/home/gm/Travail/github/ocaml/ocaml-large-pages-experiment/real_perfs2/repo-page-table-412-stats+optims/_opam/lib/toplevel'\'';' export 'OCAML_TOPLEVEL_PATH;' 'PKG_CONFIG_PATH='\''/home/gm/Travail/github/ocaml/ocaml-large-pages-experiment/real_perfs2/repo-page-table-412-stats+optims/_opam/lib/pkgconfig'\'';' export 'PKG_CONFIG_PATH;' 'MANPATH='\'':/home/gm/Travail/github/ocaml/ocaml-large-pages-experiment/real_perfs2/repo-page-table-412-stats+optims/_opam/man'\'';' export 'MANPATH;' 'PATH='\''/home/gm/Travail/github/ocaml/ocaml-large-pages-experiment/real_perfs2/repo-page-table-412-stats+optims/_opam/bin:/home/gm/.cargo/bin:/home/gm/.local/bin:/usr/local/sbin:/usr/local/bin:/usr/sbin:/usr/bin:/sbin:/bin:/usr/games:/usr/local/games:/snap/bin:/snap/bin'\'';' export 'PATH;'
++ OPAMSWITCH=/home/gm/Travail/github/ocaml/ocaml-large-pages-experiment/real_perfs2/repo-page-table-412-stats+optims
++ export OPAMSWITCH
++ OPAM_SWITCH_PREFIX=/home/gm/Travail/github/ocaml/ocaml-large-pages-experiment/real_perfs2/repo-page-table-412-stats+optims/_opam
++ export OPAM_SWITCH_PREFIX
++ CAML_LD_LIBRARY_PATH=/home/gm/Travail/github/ocaml/ocaml-large-pages-experiment/real_perfs2/repo-page-table-412-stats+optims/_opam/lib/stublibs:/home/gm/Travail/github/ocaml/ocaml-large-pages-experiment/real_perfs2/repo-page-table-412-stats+optims/_opam/lib/ocaml/stublibs:/home/gm/Travail/github/ocaml/ocaml-large-pages-experiment/real_perfs2/repo-page-table-412-stats+optims/_opam/lib/ocaml
++ export CAML_LD_LIBRARY_PATH
++ OCAML_TOPLEVEL_PATH=/home/gm/Travail/github/ocaml/ocaml-large-pages-experiment/real_perfs2/repo-page-table-412-stats+optims/_opam/lib/toplevel
++ export OCAML_TOPLEVEL_PATH
++ PKG_CONFIG_PATH=/home/gm/Travail/github/ocaml/ocaml-large-pages-experiment/real_perfs2/repo-page-table-412-stats+optims/_opam/lib/pkgconfig
++ export PKG_CONFIG_PATH
++ MANPATH=:/home/gm/Travail/github/ocaml/ocaml-large-pages-experiment/real_perfs2/repo-page-table-412-stats+optims/_opam/man
++ export MANPATH
++ PATH=/home/gm/Travail/github/ocaml/ocaml-large-pages-experiment/real_perfs2/repo-page-table-412-stats+optims/_opam/bin:/home/gm/.cargo/bin:/home/gm/.local/bin:/usr/local/sbin:/usr/local/bin:/usr/sbin:/usr/bin:/sbin:/bin:/usr/games:/usr/local/games:/snap/bin:/snap/bin
++ export PATH
+ opam list
# Packages matching: [36minstalled[0m
# Name                  # Installed # Synopsis
[01mbase-bigarray[0m           [35mbase[0m
[01mbase-threads[0m            [35mbase[0m
[01mbase-unix[0m               [35mbase[0m
[01mcairo2[0m                  [35m0.6.3[0m       Binding to Cairo, a 2D Vector Graphics Library
[01mconf-adwaita-icon-theme[0m [35m2[0m           Virtual package relying on adwaita-icon-theme
[01mconf-cairo[0m              [35m1[0m           Virtual package relying on a Cairo system install
[01mconf-findutils[0m          [35m1[0m           Virtual package relying on findutils
[01mconf-gmp[0m                [35m4[0m           Virtual package relying on a GMP lib system insta
[01mconf-gtk3[0m               [35m18[0m          Virtual package relying on GTK+ 3
[01mconf-gtksourceview3[0m     [35m0+2[0m         Virtual package relying on a GtkSourceView-3 syst
[01mconf-pkg-config[0m         [35m2[0m           Check if pkg-config is installed and create an op
[01;04mcoq[0m                     [35m8.16.0[0m      Formal proof management system
[01;04mcoqide[0m                  [35m8.16.0[0m      IDE of the Coq formal proof management system
[01;04mdune[0m                    [35m3.4.1[0m       Fast, portable, and opinionated build system
[01mdune-configurator[0m       [35m2.7.0[0m       Helper library for gathering system configuration
[01mlablgtk3[0m                [35m3.1.2[0m       OCaml interface to GTK+3
[01;04mlablgtk3-sourceview3[0m    [35m3.1.2[0m       OCaml interface to GTK+ gtksourceview library
[01;04mnum[0m                     [35m1.4[0m         The legacy Num library for arbitrary-precision in
[01mocaml[0m                   [35m4.12.0[0m      The OCaml compiler (virtual package)
[01mocaml-config[0m            [35m2[0m           OCaml Switch Configuration
[01;04mocaml-variants[0m          [1;34m4.12.0[0m      pinned to version [1;34m4.12.0[0m at [04mgit+https://github.co[0m
[01mocamlfind[0m               [35m1.9.5[0m       A library manager for OCaml
[01;04mzarith[0m                  [35m1.12[0m        Implements arithmetic and logical operations over
+ opam remove -y coq-mathcomp-character coq-mathcomp-odd-order
[1;34m[NOTE][0m coq-mathcomp-odd-order and coq-mathcomp-character are not installed.

Nothing to do.
+ time opam reinstall --skip-updates -j 4 -y coq-mathcomp-field coq-mathcomp-solvable coq-mathcomp-algebra coq-mathcomp-fingroup coq-mathcomp-ssreflect
coq-mathcomp-field, coq-mathcomp-solvable, coq-mathcomp-algebra,
coq-mathcomp-fingroup and coq-mathcomp-ssreflect are not installed. Install them?
[Y/n] y
The following actions will be performed:
  [32m∗[0m install [01mcoq-mathcomp-ssreflect[0m 1.15.0
  [32m∗[0m install [01mcoq-mathcomp-fingroup[0m  1.15.0
  [32m∗[0m install [01mcoq-mathcomp-algebra[0m   1.15.0
  [32m∗[0m install [01mcoq-mathcomp-solvable[0m  1.15.0
  [32m∗[0m install [01mcoq-mathcomp-field[0m     1.15.0
===== [32m∗[0m 5 =====

[36m<><>[0m [01mProcessing actions[0m [36m<><><><><><><><><><><><><><><><><><><><><><><><><><><><>[0m
[KProcessing  1/15:[K[KProcessing  2/15:[K[KProcessing  3/15:[K[36m⬇[0m retrieved [01mcoq-mathcomp-algebra[0m.1.15.0  (cached)
[KProcessing  3/15:[K[KProcessing  4/15:[K[36m⬇[0m retrieved [01mcoq-mathcomp-field[0m.1.15.0  (cached)
[KProcessing  4/15:[K[KProcessing  5/15:[K[36m⬇[0m retrieved [01mcoq-mathcomp-fingroup[0m.1.15.0  (cached)
[KProcessing  5/15:[K[36m⬇[0m retrieved [01mcoq-mathcomp-solvable[0m.1.15.0  (cached)
[KProcessing  5/15:[K[36m⬇[0m retrieved [01mcoq-mathcomp-ssreflect[0m.1.15.0  (cached)
[KProcessing  6/15: [[32mcoq-mathcomp-ssreflect[0m: make 16][K[KProcessing  7/15: [[32mcoq-mathcomp-ssreflect[0m: make install][K[32m∗[0m installed [01mcoq-mathcomp-ssreflect[0m.1.15.0
[KProcessing  8/15: [[32mcoq-mathcomp-fingroup[0m: make 16][K[KProcessing  9/15: [[32mcoq-mathcomp-fingroup[0m: make install][K[32m∗[0m installed [01mcoq-mathcomp-fingroup[0m.1.15.0
[KProcessing 10/15: [[32mcoq-mathcomp-algebra[0m: make 16][K[KProcessing 11/15: [[32mcoq-mathcomp-algebra[0m: make install][K[32m∗[0m installed [01mcoq-mathcomp-algebra[0m.1.15.0
[KProcessing 12/15: [[32mcoq-mathcomp-solvable[0m: make 16][K[KProcessing 13/15: [[32mcoq-mathcomp-solvable[0m: make install][K[32m∗[0m installed [01mcoq-mathcomp-solvable[0m.1.15.0
[KProcessing 14/15: [[32mcoq-mathcomp-field[0m: make 16][K[KProcessing 15/15: [[32mcoq-mathcomp-field[0m: make install][K[32m∗[0m installed [01mcoq-mathcomp-field[0m.1.15.0
Done.
326.14user 18.26system 3:54.08elapsed 147%CPU (0avgtext+0avgdata 695688maxresident)k
16inputs+494792outputs (3781major+9808043minor)pagefaults 0swaps
+ throttle_control_end
++ cpufreqctl --throttle
./install.sh: ligne 101: cpufreqctl : commande introuvable
+ '[' -eq ']'
+ IS_THROTTLED=
+ mv /tmp/ocaml-stats-page-table-412-stats+optims.log coq-mathcomp.log.6-1
+ cd ..
+ date -R
Mon, 12 Sep 2022 07:18:51 +0200
+ false
+ unset OPAMSWITCH

Script done on 2022-09-12 07:18:51+02:00 [COMMAND_EXIT_CODE="0"]
