Script started on 2022-09-12 07:53:40+02:00 [TERM="xterm-256color" TTY="/dev/pts/1" COLUMNS="85" LINES="30"]
+ EPOCH=.8
+ LOGFILE=install.log.8
+ '[' -z 1 ']'
+ REPOS='mark-prefetching-412-stats page-table-412-stats+optims'
+ TRIALS=2
+ USE_CLANG=false
+ USE_MARCH=false
+ USE_ALIGN=false
+ REINSTALL=false
+ BENCH_REINSTALL=false
+ BENCH_GALLINA_OPAM=false
+ BENCH_MATHCOMP=true
+ BENCH_MATHCOMP_HEAVY=false
+ DRY=
+ J=4
+ THROTTLE_CMD='cpufreqctl --throttle'
+ TIME=time
+ GALLINA_C='coq coqide'
+ GALLINA_PKGS='coq-mathcomp-field coq-mathcomp-solvable
              coq-mathcomp-algebra coq-mathcomp-fingroup
              coq-mathcomp-ssreflect'
+ GALLINA_HEAVY_PKGS='coq-mathcomp-character coq-mathcomp-odd-order'
+ export OPAMVAR_ocamlas=as
+ OPAMVAR_ocamlas=as
+ MARCH=
+ false
+ false
+ ALIGN=
+ false
+ false
+ export 'OPAMVAR_ocamlcc=gcc  '
+ OPAMVAR_ocamlcc='gcc  '
+ unset OPAMSWITCH
+ rm '/tmp/ocaml-stats-*.log'
rm: impossible de supprimer '/tmp/ocaml-stats-*.log': Aucun fichier ou dossier de ce type
+ for i in $REPOS
+ cd repo-mark-prefetching-412-stats
++ opam env --switch=. --set-switch
+ eval 'OPAMSWITCH='\''/home/gm/Travail/github/ocaml/ocaml-large-pages-experiment/real_perfs2/repo-mark-prefetching-412-stats'\'';' export 'OPAMSWITCH;' 'OPAM_SWITCH_PREFIX='\''/home/gm/Travail/github/ocaml/ocaml-large-pages-experiment/real_perfs2/repo-mark-prefetching-412-stats/_opam'\'';' export 'OPAM_SWITCH_PREFIX;' 'CAML_LD_LIBRARY_PATH='\''/home/gm/Travail/github/ocaml/ocaml-large-pages-experiment/real_perfs2/repo-mark-prefetching-412-stats/_opam/lib/stublibs:/home/gm/Travail/github/ocaml/ocaml-large-pages-experiment/real_perfs2/repo-mark-prefetching-412-stats/_opam/lib/ocaml/stublibs:/home/gm/Travail/github/ocaml/ocaml-large-pages-experiment/real_perfs2/repo-mark-prefetching-412-stats/_opam/lib/ocaml'\'';' export 'CAML_LD_LIBRARY_PATH;' 'OCAML_TOPLEVEL_PATH='\''/home/gm/Travail/github/ocaml/ocaml-large-pages-experiment/real_perfs2/repo-mark-prefetching-412-stats/_opam/lib/toplevel'\'';' export 'OCAML_TOPLEVEL_PATH;' 'PKG_CONFIG_PATH='\''/home/gm/Travail/github/ocaml/ocaml-large-pages-experiment/real_perfs2/repo-mark-prefetching-412-stats/_opam/lib/pkgconfig'\'';' export 'PKG_CONFIG_PATH;' 'MANPATH='\'':/home/gm/Travail/github/ocaml/ocaml-large-pages-experiment/real_perfs2/repo-mark-prefetching-412-stats/_opam/man'\'';' export 'MANPATH;' 'PATH='\''/home/gm/Travail/github/ocaml/ocaml-large-pages-experiment/real_perfs2/repo-mark-prefetching-412-stats/_opam/bin:/home/gm/.cargo/bin:/home/gm/.local/bin:/usr/local/sbin:/usr/local/bin:/usr/sbin:/usr/bin:/sbin:/bin:/usr/games:/usr/local/games:/snap/bin:/snap/bin'\'';' export 'PATH;'
++ OPAMSWITCH=/home/gm/Travail/github/ocaml/ocaml-large-pages-experiment/real_perfs2/repo-mark-prefetching-412-stats
++ export OPAMSWITCH
++ OPAM_SWITCH_PREFIX=/home/gm/Travail/github/ocaml/ocaml-large-pages-experiment/real_perfs2/repo-mark-prefetching-412-stats/_opam
++ export OPAM_SWITCH_PREFIX
++ CAML_LD_LIBRARY_PATH=/home/gm/Travail/github/ocaml/ocaml-large-pages-experiment/real_perfs2/repo-mark-prefetching-412-stats/_opam/lib/stublibs:/home/gm/Travail/github/ocaml/ocaml-large-pages-experiment/real_perfs2/repo-mark-prefetching-412-stats/_opam/lib/ocaml/stublibs:/home/gm/Travail/github/ocaml/ocaml-large-pages-experiment/real_perfs2/repo-mark-prefetching-412-stats/_opam/lib/ocaml
++ export CAML_LD_LIBRARY_PATH
++ OCAML_TOPLEVEL_PATH=/home/gm/Travail/github/ocaml/ocaml-large-pages-experiment/real_perfs2/repo-mark-prefetching-412-stats/_opam/lib/toplevel
++ export OCAML_TOPLEVEL_PATH
++ PKG_CONFIG_PATH=/home/gm/Travail/github/ocaml/ocaml-large-pages-experiment/real_perfs2/repo-mark-prefetching-412-stats/_opam/lib/pkgconfig
++ export PKG_CONFIG_PATH
++ MANPATH=:/home/gm/Travail/github/ocaml/ocaml-large-pages-experiment/real_perfs2/repo-mark-prefetching-412-stats/_opam/man
++ export MANPATH
++ PATH=/home/gm/Travail/github/ocaml/ocaml-large-pages-experiment/real_perfs2/repo-mark-prefetching-412-stats/_opam/bin:/home/gm/.cargo/bin:/home/gm/.local/bin:/usr/local/sbin:/usr/local/bin:/usr/sbin:/usr/bin:/sbin:/bin:/usr/games:/usr/local/games:/snap/bin:/snap/bin
++ export PATH
+ opam list
# Packages matching: [36minstalled[0m
# Name                  # Installed # Synopsis
[01mbase-bigarray[0m           [35mbase[0m
[01mbase-threads[0m            [35mbase[0m
[01mbase-unix[0m               [35mbase[0m
[01mcairo2[0m                  [35m0.6.3[0m       Binding to Cairo, a 2D Vector Graphics Library
[01mconf-adwaita-icon-theme[0m [35m2[0m           Virtual package relying on adwaita-icon-theme
[01mconf-cairo[0m              [35m1[0m           Virtual package relying on a Cairo system install
[01mconf-findutils[0m          [35m1[0m           Virtual package relying on findutils
[01mconf-gmp[0m                [35m4[0m           Virtual package relying on a GMP lib system insta
[01mconf-gtk3[0m               [35m18[0m          Virtual package relying on GTK+ 3
[01mconf-gtksourceview3[0m     [35m0+2[0m         Virtual package relying on a GtkSourceView-3 syst
[01mconf-pkg-config[0m         [35m2[0m           Check if pkg-config is installed and create an op
[01;04mcoq[0m                     [35m8.16.0[0m      Formal proof management system
[01;04mcoq-mathcomp-algebra[0m    [35m1.15.0[0m      Mathematical Components Library on Algebra
[01;04mcoq-mathcomp-field[0m      [35m1.15.0[0m      Mathematical Components Library on Fields
[01;04mcoq-mathcomp-fingroup[0m   [35m1.15.0[0m      Mathematical Components Library on finite groups
[01;04mcoq-mathcomp-solvable[0m   [35m1.15.0[0m      Mathematical Components Library on finite groups 
[01;04mcoq-mathcomp-ssreflect[0m  [35m1.15.0[0m      Small Scale Reflection
[01;04mcoqide[0m                  [35m8.16.0[0m      IDE of the Coq formal proof management system
[01;04mdune[0m                    [35m3.4.1[0m       Fast, portable, and opinionated build system
[01mdune-configurator[0m       [35m2.7.0[0m       Helper library for gathering system configuration
[01mlablgtk3[0m                [35m3.1.2[0m       OCaml interface to GTK+3
[01;04mlablgtk3-sourceview3[0m    [35m3.1.2[0m       OCaml interface to GTK+ gtksourceview library
[01mocaml[0m                   [35m4.12.0[0m      The OCaml compiler (virtual package)
[01mocaml-config[0m            [35m2[0m           OCaml Switch Configuration
[01;04mocaml-variants[0m          [1;34m4.12.0[0m      pinned to version [1;34m4.12.0[0m at [04mgit+file:///home/gm/T[0m
[01mocamlfind[0m               [35m1.9.5[0m       A library manager for OCaml
[01;04mzarith[0m                  [35m1.12[0m        Implements arithmetic and logical operations over
+ opam remove -y coq num zarith
[1;34m[NOTE][0m num is not installed.

The following actions will be performed:
  [31m⊘[0m remove [01mcoqide[0m                 8.16.0 [uses coq]
  [31m⊘[0m remove [01mcoq-mathcomp-field[0m     1.15.0 [uses coq-mathcomp-solvable]
  [31m⊘[0m remove [01mcoq-mathcomp-solvable[0m  1.15.0 [uses coq-mathcomp-algebra]
  [31m⊘[0m remove [01mcoq-mathcomp-algebra[0m   1.15.0 [uses coq-mathcomp-fingroup]
  [31m⊘[0m remove [01mcoq-mathcomp-fingroup[0m  1.15.0 [uses coq-mathcomp-ssreflect]
  [31m⊘[0m remove [01mcoq-mathcomp-ssreflect[0m 1.15.0 [uses coq]
  [31m⊘[0m remove [01mcoq[0m                    8.16.0
  [31m⊘[0m remove [01mzarith[0m                 1.12
===== [31m⊘[0m 8 =====

[36m<><>[0m [01mProcessing actions[0m [36m<><><><><><><><><><><><><><><><><><><><><><><><><><><><>[0m
[31m⊘[0m removed   [01mcoq-mathcomp-field[0m.1.15.0
[31m⊘[0m removed   [01mcoq-mathcomp-solvable[0m.1.15.0
[31m⊘[0m removed   [01mcoq-mathcomp-algebra[0m.1.15.0
[31m⊘[0m removed   [01mcoq-mathcomp-fingroup[0m.1.15.0
[31m⊘[0m removed   [01mcoq-mathcomp-ssreflect[0m.1.15.0
[31m⊘[0m removed   [01mcoqide[0m.8.16.0
[31m⊘[0m removed   [01mcoq[0m.8.16.0
[31m⊘[0m removed   [01mzarith[0m.1.12
Done.
+ rm -rf _opam/lib/zarith
+ rm -rf '_opam/lib/stublibs/dllzarith.so*'
+ false
+ c=install
+ opam install -y ocaml-variants zarith lablgtk3-sourceview3 dune

[36m<><>[0m [01mSynchronising pinned packages[0m [36m><><><><><><><><><><><><><><><><><><><><><><>[0m
[KProcessing  1/1:[K[KProcessing  1/1: [[32mocaml-variants.4.12.0[0m: git][K[KProcessing  1/1: [[32mocaml-variants.4.12.0[0m: git][K[KProcessing  1/1: [[32mocaml-variants.4.12.0[0m: git][K[[32mocaml-variants.4.12.0[0m] synchronised (no changes)

[1;34m[NOTE][0m Package dune is already installed (current version is 3.4.1).
[1;34m[NOTE][0m Package lablgtk3-sourceview3 is already installed (current version is 3.1.2).
[1;34m[NOTE][0m Package ocaml-variants is already installed (current version is 4.12.0).
The following actions will be performed:
  [32m∗[0m install [01mzarith[0m 1.12

[36m<><>[0m [01mProcessing actions[0m [36m<><><><><><><><><><><><><><><><><><><><><><><><><><><><>[0m
[KProcessing  1/3:[K[36m⬇[0m retrieved [01mzarith[0m.1.12  (cached)
[KProcessing  2/3: [[32mzarith[0m: ./configure][K[KProcessing  2/3: [[32mzarith[0m: make][K[KProcessing  3/3: [[32mzarith[0m: make install][K[32m∗[0m installed [01mzarith[0m.1.12
Done.
+ rm /tmp/ocaml-stats-mark-prefetching-412-stats.log
+ cd ..
+ for i in $REPOS
+ cd repo-page-table-412-stats+optims
++ opam env --switch=. --set-switch
+ eval 'OPAMSWITCH='\''/home/gm/Travail/github/ocaml/ocaml-large-pages-experiment/real_perfs2/repo-page-table-412-stats+optims'\'';' export 'OPAMSWITCH;' 'OPAM_SWITCH_PREFIX='\''/home/gm/Travail/github/ocaml/ocaml-large-pages-experiment/real_perfs2/repo-page-table-412-stats+optims/_opam'\'';' export 'OPAM_SWITCH_PREFIX;' 'CAML_LD_LIBRARY_PATH='\''/home/gm/Travail/github/ocaml/ocaml-large-pages-experiment/real_perfs2/repo-page-table-412-stats+optims/_opam/lib/stublibs:/home/gm/Travail/github/ocaml/ocaml-large-pages-experiment/real_perfs2/repo-page-table-412-stats+optims/_opam/lib/ocaml/stublibs:/home/gm/Travail/github/ocaml/ocaml-large-pages-experiment/real_perfs2/repo-page-table-412-stats+optims/_opam/lib/ocaml'\'';' export 'CAML_LD_LIBRARY_PATH;' 'OCAML_TOPLEVEL_PATH='\''/home/gm/Travail/github/ocaml/ocaml-large-pages-experiment/real_perfs2/repo-page-table-412-stats+optims/_opam/lib/toplevel'\'';' export 'OCAML_TOPLEVEL_PATH;' 'PKG_CONFIG_PATH='\''/home/gm/Travail/github/ocaml/ocaml-large-pages-experiment/real_perfs2/repo-page-table-412-stats+optims/_opam/lib/pkgconfig'\'';' export 'PKG_CONFIG_PATH;' 'MANPATH='\'':/home/gm/Travail/github/ocaml/ocaml-large-pages-experiment/real_perfs2/repo-page-table-412-stats+optims/_opam/man'\'';' export 'MANPATH;' 'PATH='\''/home/gm/Travail/github/ocaml/ocaml-large-pages-experiment/real_perfs2/repo-page-table-412-stats+optims/_opam/bin:/home/gm/.cargo/bin:/home/gm/.local/bin:/usr/local/sbin:/usr/local/bin:/usr/sbin:/usr/bin:/sbin:/bin:/usr/games:/usr/local/games:/snap/bin:/snap/bin'\'';' export 'PATH;'
++ OPAMSWITCH=/home/gm/Travail/github/ocaml/ocaml-large-pages-experiment/real_perfs2/repo-page-table-412-stats+optims
++ export OPAMSWITCH
++ OPAM_SWITCH_PREFIX=/home/gm/Travail/github/ocaml/ocaml-large-pages-experiment/real_perfs2/repo-page-table-412-stats+optims/_opam
++ export OPAM_SWITCH_PREFIX
++ CAML_LD_LIBRARY_PATH=/home/gm/Travail/github/ocaml/ocaml-large-pages-experiment/real_perfs2/repo-page-table-412-stats+optims/_opam/lib/stublibs:/home/gm/Travail/github/ocaml/ocaml-large-pages-experiment/real_perfs2/repo-page-table-412-stats+optims/_opam/lib/ocaml/stublibs:/home/gm/Travail/github/ocaml/ocaml-large-pages-experiment/real_perfs2/repo-page-table-412-stats+optims/_opam/lib/ocaml
++ export CAML_LD_LIBRARY_PATH
++ OCAML_TOPLEVEL_PATH=/home/gm/Travail/github/ocaml/ocaml-large-pages-experiment/real_perfs2/repo-page-table-412-stats+optims/_opam/lib/toplevel
++ export OCAML_TOPLEVEL_PATH
++ PKG_CONFIG_PATH=/home/gm/Travail/github/ocaml/ocaml-large-pages-experiment/real_perfs2/repo-page-table-412-stats+optims/_opam/lib/pkgconfig
++ export PKG_CONFIG_PATH
++ MANPATH=:/home/gm/Travail/github/ocaml/ocaml-large-pages-experiment/real_perfs2/repo-page-table-412-stats+optims/_opam/man
++ export MANPATH
++ PATH=/home/gm/Travail/github/ocaml/ocaml-large-pages-experiment/real_perfs2/repo-page-table-412-stats+optims/_opam/bin:/home/gm/.cargo/bin:/home/gm/.local/bin:/usr/local/sbin:/usr/local/bin:/usr/sbin:/usr/bin:/sbin:/bin:/usr/games:/usr/local/games:/snap/bin:/snap/bin
++ export PATH
+ opam list
# Packages matching: [36minstalled[0m
# Name                  # Installed # Synopsis
[01mbase-bigarray[0m           [35mbase[0m
[01mbase-threads[0m            [35mbase[0m
[01mbase-unix[0m               [35mbase[0m
[01mcairo2[0m                  [35m0.6.3[0m       Binding to Cairo, a 2D Vector Graphics Library
[01mconf-adwaita-icon-theme[0m [35m2[0m           Virtual package relying on adwaita-icon-theme
[01mconf-cairo[0m              [35m1[0m           Virtual package relying on a Cairo system install
[01mconf-findutils[0m          [35m1[0m           Virtual package relying on findutils
[01mconf-gmp[0m                [35m4[0m           Virtual package relying on a GMP lib system insta
[01mconf-gtk3[0m               [35m18[0m          Virtual package relying on GTK+ 3
[01mconf-gtksourceview3[0m     [35m0+2[0m         Virtual package relying on a GtkSourceView-3 syst
[01mconf-pkg-config[0m         [35m2[0m           Check if pkg-config is installed and create an op
[01;04mcoq[0m                     [35m8.16.0[0m      Formal proof management system
[01;04mcoq-mathcomp-algebra[0m    [35m1.15.0[0m      Mathematical Components Library on Algebra
[01;04mcoq-mathcomp-field[0m      [35m1.15.0[0m      Mathematical Components Library on Fields
[01;04mcoq-mathcomp-fingroup[0m   [35m1.15.0[0m      Mathematical Components Library on finite groups
[01;04mcoq-mathcomp-solvable[0m   [35m1.15.0[0m      Mathematical Components Library on finite groups 
[01;04mcoq-mathcomp-ssreflect[0m  [35m1.15.0[0m      Small Scale Reflection
[01;04mcoqide[0m                  [35m8.16.0[0m      IDE of the Coq formal proof management system
[01;04mdune[0m                    [35m3.4.1[0m       Fast, portable, and opinionated build system
[01mdune-configurator[0m       [35m2.7.0[0m       Helper library for gathering system configuration
[01mlablgtk3[0m                [35m3.1.2[0m       OCaml interface to GTK+3
[01;04mlablgtk3-sourceview3[0m    [35m3.1.2[0m       OCaml interface to GTK+ gtksourceview library
[01mocaml[0m                   [35m4.12.0[0m      The OCaml compiler (virtual package)
[01mocaml-config[0m            [35m2[0m           OCaml Switch Configuration
[01;04mocaml-variants[0m          [1;34m4.12.0[0m      pinned to version [1;34m4.12.0[0m at [04mgit+https://github.co[0m
[01mocamlfind[0m               [35m1.9.5[0m       A library manager for OCaml
[01;04mzarith[0m                  [35m1.12[0m        Implements arithmetic and logical operations over
+ opam remove -y coq num zarith
[1;34m[NOTE][0m num is not installed.

The following actions will be performed:
  [31m⊘[0m remove [01mcoqide[0m                 8.16.0 [uses coq]
  [31m⊘[0m remove [01mcoq-mathcomp-field[0m     1.15.0 [uses coq-mathcomp-solvable]
  [31m⊘[0m remove [01mcoq-mathcomp-solvable[0m  1.15.0 [uses coq-mathcomp-algebra]
  [31m⊘[0m remove [01mcoq-mathcomp-algebra[0m   1.15.0 [uses coq-mathcomp-fingroup]
  [31m⊘[0m remove [01mcoq-mathcomp-fingroup[0m  1.15.0 [uses coq-mathcomp-ssreflect]
  [31m⊘[0m remove [01mcoq-mathcomp-ssreflect[0m 1.15.0 [uses coq]
  [31m⊘[0m remove [01mcoq[0m                    8.16.0
  [31m⊘[0m remove [01mzarith[0m                 1.12
===== [31m⊘[0m 8 =====

[36m<><>[0m [01mProcessing actions[0m [36m<><><><><><><><><><><><><><><><><><><><><><><><><><><><>[0m
[31m⊘[0m removed   [01mcoq-mathcomp-field[0m.1.15.0
[31m⊘[0m removed   [01mcoq-mathcomp-solvable[0m.1.15.0
[31m⊘[0m removed   [01mcoq-mathcomp-algebra[0m.1.15.0
[31m⊘[0m removed   [01mcoq-mathcomp-fingroup[0m.1.15.0
[31m⊘[0m removed   [01mcoq-mathcomp-ssreflect[0m.1.15.0
[31m⊘[0m removed   [01mcoqide[0m.8.16.0
[31m⊘[0m removed   [01mcoq[0m.8.16.0
[31m⊘[0m removed   [01mzarith[0m.1.12
Done.
+ rm -rf _opam/lib/zarith
+ rm -rf '_opam/lib/stublibs/dllzarith.so*'
+ false
+ c=install
+ opam install -y ocaml-variants zarith lablgtk3-sourceview3 dune

[36m<><>[0m [01mSynchronising pinned packages[0m [36m><><><><><><><><><><><><><><><><><><><><><><>[0m
[KProcessing  1/1: [[32mocaml-variants.4.12.0[0m: git][K[KProcessing  1/1: [[32mocaml-variants.4.12.0[0m: git][K[KProcessing  1/1: [[32mocaml-variants.4.12.0[0m: git][K[KProcessing  1/1: [[32mocaml-variants.4.12.0[0m: git][K[[32mocaml-variants.4.12.0[0m] synchronised (no changes)

[1;34m[NOTE][0m Package dune is already installed (current version is 3.4.1).
[1;34m[NOTE][0m Package lablgtk3-sourceview3 is already installed (current version is 3.1.2).
[1;34m[NOTE][0m Package ocaml-variants is already installed (current version is 4.12.0).
The following actions will be performed:
  [32m∗[0m install [01mzarith[0m 1.12

[36m<><>[0m [01mProcessing actions[0m [36m<><><><><><><><><><><><><><><><><><><><><><><><><><><><>[0m
[KProcessing  1/3:[K[36m⬇[0m retrieved [01mzarith[0m.1.12  (cached)
[KProcessing  2/3: [[32mzarith[0m: ./configure][K[KProcessing  2/3: [[32mzarith[0m: make][K[KProcessing  3/3: [[32mzarith[0m: make install][K[32m∗[0m installed [01mzarith[0m.1.12
Done.
+ rm /tmp/ocaml-stats-page-table-412-stats+optims.log
+ cd ..
++ seq 0 1
+ for n in $(seq 0 $((TRIALS - 1)))
+ TRIAL=-0
+ echo 'Iteration 0'
Iteration 0
+ date -R
Mon, 12 Sep 2022 07:54:04 +0200
+ false
+ false
+ true
+ for i in $REPOS
+ throttle_control_begin
+ IS_THROTTLED=
++ cpufreqctl --throttle
./install.sh: ligne 97: cpufreqctl : commande introuvable
+ THROTTLE=
+ cd repo-mark-prefetching-412-stats
++ opam env --switch=. --set-switch
+ eval 'OPAMSWITCH='\''/home/gm/Travail/github/ocaml/ocaml-large-pages-experiment/real_perfs2/repo-mark-prefetching-412-stats'\'';' export 'OPAMSWITCH;' 'OPAM_SWITCH_PREFIX='\''/home/gm/Travail/github/ocaml/ocaml-large-pages-experiment/real_perfs2/repo-mark-prefetching-412-stats/_opam'\'';' export 'OPAM_SWITCH_PREFIX;' 'CAML_LD_LIBRARY_PATH='\''/home/gm/Travail/github/ocaml/ocaml-large-pages-experiment/real_perfs2/repo-mark-prefetching-412-stats/_opam/lib/stublibs:/home/gm/Travail/github/ocaml/ocaml-large-pages-experiment/real_perfs2/repo-mark-prefetching-412-stats/_opam/lib/ocaml/stublibs:/home/gm/Travail/github/ocaml/ocaml-large-pages-experiment/real_perfs2/repo-mark-prefetching-412-stats/_opam/lib/ocaml'\'';' export 'CAML_LD_LIBRARY_PATH;' 'OCAML_TOPLEVEL_PATH='\''/home/gm/Travail/github/ocaml/ocaml-large-pages-experiment/real_perfs2/repo-mark-prefetching-412-stats/_opam/lib/toplevel'\'';' export 'OCAML_TOPLEVEL_PATH;' 'PKG_CONFIG_PATH='\''/home/gm/Travail/github/ocaml/ocaml-large-pages-experiment/real_perfs2/repo-mark-prefetching-412-stats/_opam/lib/pkgconfig'\'';' export 'PKG_CONFIG_PATH;' 'MANPATH='\'':/home/gm/Travail/github/ocaml/ocaml-large-pages-experiment/real_perfs2/repo-mark-prefetching-412-stats/_opam/man'\'';' export 'MANPATH;' 'PATH='\''/home/gm/Travail/github/ocaml/ocaml-large-pages-experiment/real_perfs2/repo-mark-prefetching-412-stats/_opam/bin:/home/gm/.cargo/bin:/home/gm/.local/bin:/usr/local/sbin:/usr/local/bin:/usr/sbin:/usr/bin:/sbin:/bin:/usr/games:/usr/local/games:/snap/bin:/snap/bin'\'';' export 'PATH;'
++ OPAMSWITCH=/home/gm/Travail/github/ocaml/ocaml-large-pages-experiment/real_perfs2/repo-mark-prefetching-412-stats
++ export OPAMSWITCH
++ OPAM_SWITCH_PREFIX=/home/gm/Travail/github/ocaml/ocaml-large-pages-experiment/real_perfs2/repo-mark-prefetching-412-stats/_opam
++ export OPAM_SWITCH_PREFIX
++ CAML_LD_LIBRARY_PATH=/home/gm/Travail/github/ocaml/ocaml-large-pages-experiment/real_perfs2/repo-mark-prefetching-412-stats/_opam/lib/stublibs:/home/gm/Travail/github/ocaml/ocaml-large-pages-experiment/real_perfs2/repo-mark-prefetching-412-stats/_opam/lib/ocaml/stublibs:/home/gm/Travail/github/ocaml/ocaml-large-pages-experiment/real_perfs2/repo-mark-prefetching-412-stats/_opam/lib/ocaml
++ export CAML_LD_LIBRARY_PATH
++ OCAML_TOPLEVEL_PATH=/home/gm/Travail/github/ocaml/ocaml-large-pages-experiment/real_perfs2/repo-mark-prefetching-412-stats/_opam/lib/toplevel
++ export OCAML_TOPLEVEL_PATH
++ PKG_CONFIG_PATH=/home/gm/Travail/github/ocaml/ocaml-large-pages-experiment/real_perfs2/repo-mark-prefetching-412-stats/_opam/lib/pkgconfig
++ export PKG_CONFIG_PATH
++ MANPATH=:/home/gm/Travail/github/ocaml/ocaml-large-pages-experiment/real_perfs2/repo-mark-prefetching-412-stats/_opam/man
++ export MANPATH
++ PATH=/home/gm/Travail/github/ocaml/ocaml-large-pages-experiment/real_perfs2/repo-mark-prefetching-412-stats/_opam/bin:/home/gm/.cargo/bin:/home/gm/.local/bin:/usr/local/sbin:/usr/local/bin:/usr/sbin:/usr/bin:/sbin:/bin:/usr/games:/usr/local/games:/snap/bin:/snap/bin
++ export PATH
+ opam list
# Packages matching: [36minstalled[0m
# Name                  # Installed # Synopsis
[01mbase-bigarray[0m           [35mbase[0m
[01mbase-threads[0m            [35mbase[0m
[01mbase-unix[0m               [35mbase[0m
[01mcairo2[0m                  [35m0.6.3[0m       Binding to Cairo, a 2D Vector Graphics Library
[01mconf-adwaita-icon-theme[0m [35m2[0m           Virtual package relying on adwaita-icon-theme
[01mconf-cairo[0m              [35m1[0m           Virtual package relying on a Cairo system install
[01mconf-findutils[0m          [35m1[0m           Virtual package relying on findutils
[01mconf-gmp[0m                [35m4[0m           Virtual package relying on a GMP lib system insta
[01mconf-gtk3[0m               [35m18[0m          Virtual package relying on GTK+ 3
[01mconf-gtksourceview3[0m     [35m0+2[0m         Virtual package relying on a GtkSourceView-3 syst
[01mconf-pkg-config[0m         [35m2[0m           Check if pkg-config is installed and create an op
[01;04mdune[0m                    [35m3.4.1[0m       Fast, portable, and opinionated build system
[01mdune-configurator[0m       [35m2.7.0[0m       Helper library for gathering system configuration
[01mlablgtk3[0m                [35m3.1.2[0m       OCaml interface to GTK+3
[01;04mlablgtk3-sourceview3[0m    [35m3.1.2[0m       OCaml interface to GTK+ gtksourceview library
[01mocaml[0m                   [35m4.12.0[0m      The OCaml compiler (virtual package)
[01mocaml-config[0m            [35m2[0m           OCaml Switch Configuration
[01;04mocaml-variants[0m          [1;34m4.12.0[0m      pinned to version [1;34m4.12.0[0m at [04mgit+file:///home/gm/T[0m
[01mocamlfind[0m               [35m1.9.5[0m       A library manager for OCaml
[01;04mzarith[0m                  [35m1.12[0m        Implements arithmetic and logical operations over
+ false
+ c=install
+ time opam install --skip-updates -j 4 -y coq coqide
The following actions will be performed:
  [32m∗[0m install [01mcoq[0m    8.16.0
  [32m∗[0m install [01mcoqide[0m 8.16.0
===== [32m∗[0m 2 =====

[36m<><>[0m [01mProcessing actions[0m [36m<><><><><><><><><><><><><><><><><><><><><><><><><><><><>[0m
[KProcessing  1/6:[K[KProcessing  2/6:[K[36m⬇[0m retrieved [01mcoq[0m.8.16.0  (cached)
[KProcessing  2/6:[K[KProcessing  3/6: [[32mcoq[0m: ./configure no][K[36m⬇[0m retrieved [01mcoqide[0m.8.16.0  (cached)
[KProcessing  3/6: [[32mcoq[0m: ./configure no][K[KProcessing  3/6: [[32mcoq[0m: make][K[KProcessing  4/6: [[32mcoq[0m: make install][K[32m∗[0m installed [01mcoq[0m.8.16.0
[KProcessing  5/6: [[32mcoqide[0m: ./configure no][K[KProcessing  5/6: [[32mcoqide[0m: dune build][K[32m∗[0m installed [01mcoqide[0m.8.16.0
Done.
719.07user 137.82system 2:54.16elapsed 492%CPU (0avgtext+0avgdata 642104maxresident)k
48inputs+4917024outputs (31022major+20137640minor)pagefaults 0swaps
+ throttle_control_end
++ cpufreqctl --throttle
./install.sh: ligne 101: cpufreqctl : commande introuvable
+ '[' -eq ']'
+ IS_THROTTLED=
+ mv /tmp/ocaml-stats-mark-prefetching-412-stats.log coq-opam.log.8-0
+ cd ..
+ for i in $REPOS
+ throttle_control_begin
+ IS_THROTTLED=
++ cpufreqctl --throttle
./install.sh: ligne 97: cpufreqctl : commande introuvable
+ THROTTLE=
+ cd repo-page-table-412-stats+optims
++ opam env --switch=. --set-switch
+ eval 'OPAMSWITCH='\''/home/gm/Travail/github/ocaml/ocaml-large-pages-experiment/real_perfs2/repo-page-table-412-stats+optims'\'';' export 'OPAMSWITCH;' 'OPAM_SWITCH_PREFIX='\''/home/gm/Travail/github/ocaml/ocaml-large-pages-experiment/real_perfs2/repo-page-table-412-stats+optims/_opam'\'';' export 'OPAM_SWITCH_PREFIX;' 'CAML_LD_LIBRARY_PATH='\''/home/gm/Travail/github/ocaml/ocaml-large-pages-experiment/real_perfs2/repo-page-table-412-stats+optims/_opam/lib/stublibs:/home/gm/Travail/github/ocaml/ocaml-large-pages-experiment/real_perfs2/repo-page-table-412-stats+optims/_opam/lib/ocaml/stublibs:/home/gm/Travail/github/ocaml/ocaml-large-pages-experiment/real_perfs2/repo-page-table-412-stats+optims/_opam/lib/ocaml'\'';' export 'CAML_LD_LIBRARY_PATH;' 'OCAML_TOPLEVEL_PATH='\''/home/gm/Travail/github/ocaml/ocaml-large-pages-experiment/real_perfs2/repo-page-table-412-stats+optims/_opam/lib/toplevel'\'';' export 'OCAML_TOPLEVEL_PATH;' 'PKG_CONFIG_PATH='\''/home/gm/Travail/github/ocaml/ocaml-large-pages-experiment/real_perfs2/repo-page-table-412-stats+optims/_opam/lib/pkgconfig'\'';' export 'PKG_CONFIG_PATH;' 'MANPATH='\'':/home/gm/Travail/github/ocaml/ocaml-large-pages-experiment/real_perfs2/repo-page-table-412-stats+optims/_opam/man'\'';' export 'MANPATH;' 'PATH='\''/home/gm/Travail/github/ocaml/ocaml-large-pages-experiment/real_perfs2/repo-page-table-412-stats+optims/_opam/bin:/home/gm/.cargo/bin:/home/gm/.local/bin:/usr/local/sbin:/usr/local/bin:/usr/sbin:/usr/bin:/sbin:/bin:/usr/games:/usr/local/games:/snap/bin:/snap/bin'\'';' export 'PATH;'
++ OPAMSWITCH=/home/gm/Travail/github/ocaml/ocaml-large-pages-experiment/real_perfs2/repo-page-table-412-stats+optims
++ export OPAMSWITCH
++ OPAM_SWITCH_PREFIX=/home/gm/Travail/github/ocaml/ocaml-large-pages-experiment/real_perfs2/repo-page-table-412-stats+optims/_opam
++ export OPAM_SWITCH_PREFIX
++ CAML_LD_LIBRARY_PATH=/home/gm/Travail/github/ocaml/ocaml-large-pages-experiment/real_perfs2/repo-page-table-412-stats+optims/_opam/lib/stublibs:/home/gm/Travail/github/ocaml/ocaml-large-pages-experiment/real_perfs2/repo-page-table-412-stats+optims/_opam/lib/ocaml/stublibs:/home/gm/Travail/github/ocaml/ocaml-large-pages-experiment/real_perfs2/repo-page-table-412-stats+optims/_opam/lib/ocaml
++ export CAML_LD_LIBRARY_PATH
++ OCAML_TOPLEVEL_PATH=/home/gm/Travail/github/ocaml/ocaml-large-pages-experiment/real_perfs2/repo-page-table-412-stats+optims/_opam/lib/toplevel
++ export OCAML_TOPLEVEL_PATH
++ PKG_CONFIG_PATH=/home/gm/Travail/github/ocaml/ocaml-large-pages-experiment/real_perfs2/repo-page-table-412-stats+optims/_opam/lib/pkgconfig
++ export PKG_CONFIG_PATH
++ MANPATH=:/home/gm/Travail/github/ocaml/ocaml-large-pages-experiment/real_perfs2/repo-page-table-412-stats+optims/_opam/man
++ export MANPATH
++ PATH=/home/gm/Travail/github/ocaml/ocaml-large-pages-experiment/real_perfs2/repo-page-table-412-stats+optims/_opam/bin:/home/gm/.cargo/bin:/home/gm/.local/bin:/usr/local/sbin:/usr/local/bin:/usr/sbin:/usr/bin:/sbin:/bin:/usr/games:/usr/local/games:/snap/bin:/snap/bin
++ export PATH
+ opam list
# Packages matching: [36minstalled[0m
# Name                  # Installed # Synopsis
[01mbase-bigarray[0m           [35mbase[0m
[01mbase-threads[0m            [35mbase[0m
[01mbase-unix[0m               [35mbase[0m
[01mcairo2[0m                  [35m0.6.3[0m       Binding to Cairo, a 2D Vector Graphics Library
[01mconf-adwaita-icon-theme[0m [35m2[0m           Virtual package relying on adwaita-icon-theme
[01mconf-cairo[0m              [35m1[0m           Virtual package relying on a Cairo system install
[01mconf-findutils[0m          [35m1[0m           Virtual package relying on findutils
[01mconf-gmp[0m                [35m4[0m           Virtual package relying on a GMP lib system insta
[01mconf-gtk3[0m               [35m18[0m          Virtual package relying on GTK+ 3
[01mconf-gtksourceview3[0m     [35m0+2[0m         Virtual package relying on a GtkSourceView-3 syst
[01mconf-pkg-config[0m         [35m2[0m           Check if pkg-config is installed and create an op
[01;04mdune[0m                    [35m3.4.1[0m       Fast, portable, and opinionated build system
[01mdune-configurator[0m       [35m2.7.0[0m       Helper library for gathering system configuration
[01mlablgtk3[0m                [35m3.1.2[0m       OCaml interface to GTK+3
[01;04mlablgtk3-sourceview3[0m    [35m3.1.2[0m       OCaml interface to GTK+ gtksourceview library
[01mocaml[0m                   [35m4.12.0[0m      The OCaml compiler (virtual package)
[01mocaml-config[0m            [35m2[0m           OCaml Switch Configuration
[01;04mocaml-variants[0m          [1;34m4.12.0[0m      pinned to version [1;34m4.12.0[0m at [04mgit+https://github.co[0m
[01mocamlfind[0m               [35m1.9.5[0m       A library manager for OCaml
[01;04mzarith[0m                  [35m1.12[0m        Implements arithmetic and logical operations over
+ false
+ c=install
+ time opam install --skip-updates -j 4 -y coq coqide
The following actions will be performed:
  [32m∗[0m install [01mcoq[0m    8.16.0
  [32m∗[0m install [01mcoqide[0m 8.16.0
===== [32m∗[0m 2 =====

[36m<><>[0m [01mProcessing actions[0m [36m<><><><><><><><><><><><><><><><><><><><><><><><><><><><>[0m
[KProcessing  1/6:[K[KProcessing  2/6:[K[36m⬇[0m retrieved [01mcoq[0m.8.16.0  (cached)
[KProcessing  2/6:[K[KProcessing  3/6: [[32mcoq[0m: ./configure no][K[36m⬇[0m retrieved [01mcoqide[0m.8.16.0  (cached)
[KProcessing  3/6: [[32mcoq[0m: ./configure no][K[KProcessing  3/6: [[32mcoq[0m: make][K[KProcessing  4/6: [[32mcoq[0m: make install][K[32m∗[0m installed [01mcoq[0m.8.16.0
[KProcessing  5/6: [[32mcoqide[0m: ./configure no][K[KProcessing  5/6: [[32mcoqide[0m: dune build][K[32m∗[0m installed [01mcoqide[0m.8.16.0
Done.
682.97user 135.55system 2:44.59elapsed 497%CPU (0avgtext+0avgdata 625360maxresident)k
24inputs+4922592outputs (37226major+15457808minor)pagefaults 0swaps
+ throttle_control_end
++ cpufreqctl --throttle
./install.sh: ligne 101: cpufreqctl : commande introuvable
+ '[' -eq ']'
+ IS_THROTTLED=
+ mv /tmp/ocaml-stats-page-table-412-stats+optims.log coq-opam.log.8-0
+ cd ..
+ date -R
Mon, 12 Sep 2022 07:59:43 +0200
+ true
+ for i in $REPOS
+ throttle_control_begin
+ IS_THROTTLED=
++ cpufreqctl --throttle
./install.sh: ligne 97: cpufreqctl : commande introuvable
+ THROTTLE=
+ cd repo-mark-prefetching-412-stats
++ opam env --switch=. --set-switch
+ eval 'OPAMSWITCH='\''/home/gm/Travail/github/ocaml/ocaml-large-pages-experiment/real_perfs2/repo-mark-prefetching-412-stats'\'';' export 'OPAMSWITCH;' 'OPAM_SWITCH_PREFIX='\''/home/gm/Travail/github/ocaml/ocaml-large-pages-experiment/real_perfs2/repo-mark-prefetching-412-stats/_opam'\'';' export 'OPAM_SWITCH_PREFIX;' 'CAML_LD_LIBRARY_PATH='\''/home/gm/Travail/github/ocaml/ocaml-large-pages-experiment/real_perfs2/repo-mark-prefetching-412-stats/_opam/lib/stublibs:/home/gm/Travail/github/ocaml/ocaml-large-pages-experiment/real_perfs2/repo-mark-prefetching-412-stats/_opam/lib/ocaml/stublibs:/home/gm/Travail/github/ocaml/ocaml-large-pages-experiment/real_perfs2/repo-mark-prefetching-412-stats/_opam/lib/ocaml'\'';' export 'CAML_LD_LIBRARY_PATH;' 'OCAML_TOPLEVEL_PATH='\''/home/gm/Travail/github/ocaml/ocaml-large-pages-experiment/real_perfs2/repo-mark-prefetching-412-stats/_opam/lib/toplevel'\'';' export 'OCAML_TOPLEVEL_PATH;' 'PKG_CONFIG_PATH='\''/home/gm/Travail/github/ocaml/ocaml-large-pages-experiment/real_perfs2/repo-mark-prefetching-412-stats/_opam/lib/pkgconfig'\'';' export 'PKG_CONFIG_PATH;' 'MANPATH='\'':/home/gm/Travail/github/ocaml/ocaml-large-pages-experiment/real_perfs2/repo-mark-prefetching-412-stats/_opam/man'\'';' export 'MANPATH;' 'PATH='\''/home/gm/Travail/github/ocaml/ocaml-large-pages-experiment/real_perfs2/repo-mark-prefetching-412-stats/_opam/bin:/home/gm/.cargo/bin:/home/gm/.local/bin:/usr/local/sbin:/usr/local/bin:/usr/sbin:/usr/bin:/sbin:/bin:/usr/games:/usr/local/games:/snap/bin:/snap/bin'\'';' export 'PATH;'
++ OPAMSWITCH=/home/gm/Travail/github/ocaml/ocaml-large-pages-experiment/real_perfs2/repo-mark-prefetching-412-stats
++ export OPAMSWITCH
++ OPAM_SWITCH_PREFIX=/home/gm/Travail/github/ocaml/ocaml-large-pages-experiment/real_perfs2/repo-mark-prefetching-412-stats/_opam
++ export OPAM_SWITCH_PREFIX
++ CAML_LD_LIBRARY_PATH=/home/gm/Travail/github/ocaml/ocaml-large-pages-experiment/real_perfs2/repo-mark-prefetching-412-stats/_opam/lib/stublibs:/home/gm/Travail/github/ocaml/ocaml-large-pages-experiment/real_perfs2/repo-mark-prefetching-412-stats/_opam/lib/ocaml/stublibs:/home/gm/Travail/github/ocaml/ocaml-large-pages-experiment/real_perfs2/repo-mark-prefetching-412-stats/_opam/lib/ocaml
++ export CAML_LD_LIBRARY_PATH
++ OCAML_TOPLEVEL_PATH=/home/gm/Travail/github/ocaml/ocaml-large-pages-experiment/real_perfs2/repo-mark-prefetching-412-stats/_opam/lib/toplevel
++ export OCAML_TOPLEVEL_PATH
++ PKG_CONFIG_PATH=/home/gm/Travail/github/ocaml/ocaml-large-pages-experiment/real_perfs2/repo-mark-prefetching-412-stats/_opam/lib/pkgconfig
++ export PKG_CONFIG_PATH
++ MANPATH=:/home/gm/Travail/github/ocaml/ocaml-large-pages-experiment/real_perfs2/repo-mark-prefetching-412-stats/_opam/man
++ export MANPATH
++ PATH=/home/gm/Travail/github/ocaml/ocaml-large-pages-experiment/real_perfs2/repo-mark-prefetching-412-stats/_opam/bin:/home/gm/.cargo/bin:/home/gm/.local/bin:/usr/local/sbin:/usr/local/bin:/usr/sbin:/usr/bin:/sbin:/bin:/usr/games:/usr/local/games:/snap/bin:/snap/bin
++ export PATH
+ opam list
# Packages matching: [36minstalled[0m
# Name                  # Installed # Synopsis
[01mbase-bigarray[0m           [35mbase[0m
[01mbase-threads[0m            [35mbase[0m
[01mbase-unix[0m               [35mbase[0m
[01mcairo2[0m                  [35m0.6.3[0m       Binding to Cairo, a 2D Vector Graphics Library
[01mconf-adwaita-icon-theme[0m [35m2[0m           Virtual package relying on adwaita-icon-theme
[01mconf-cairo[0m              [35m1[0m           Virtual package relying on a Cairo system install
[01mconf-findutils[0m          [35m1[0m           Virtual package relying on findutils
[01mconf-gmp[0m                [35m4[0m           Virtual package relying on a GMP lib system insta
[01mconf-gtk3[0m               [35m18[0m          Virtual package relying on GTK+ 3
[01mconf-gtksourceview3[0m     [35m0+2[0m         Virtual package relying on a GtkSourceView-3 syst
[01mconf-pkg-config[0m         [35m2[0m           Check if pkg-config is installed and create an op
[01;04mcoq[0m                     [35m8.16.0[0m      Formal proof management system
[01;04mcoqide[0m                  [35m8.16.0[0m      IDE of the Coq formal proof management system
[01;04mdune[0m                    [35m3.4.1[0m       Fast, portable, and opinionated build system
[01mdune-configurator[0m       [35m2.7.0[0m       Helper library for gathering system configuration
[01mlablgtk3[0m                [35m3.1.2[0m       OCaml interface to GTK+3
[01;04mlablgtk3-sourceview3[0m    [35m3.1.2[0m       OCaml interface to GTK+ gtksourceview library
[01mocaml[0m                   [35m4.12.0[0m      The OCaml compiler (virtual package)
[01mocaml-config[0m            [35m2[0m           OCaml Switch Configuration
[01;04mocaml-variants[0m          [1;34m4.12.0[0m      pinned to version [1;34m4.12.0[0m at [04mgit+file:///home/gm/T[0m
[01mocamlfind[0m               [35m1.9.5[0m       A library manager for OCaml
[01;04mzarith[0m                  [35m1.12[0m        Implements arithmetic and logical operations over
+ opam remove -y coq-mathcomp-character coq-mathcomp-odd-order
[1;34m[NOTE][0m coq-mathcomp-odd-order and coq-mathcomp-character are not installed.

Nothing to do.
+ time opam reinstall --skip-updates -j 4 -y coq-mathcomp-field coq-mathcomp-solvable coq-mathcomp-algebra coq-mathcomp-fingroup coq-mathcomp-ssreflect
coq-mathcomp-field, coq-mathcomp-solvable, coq-mathcomp-algebra,
coq-mathcomp-fingroup and coq-mathcomp-ssreflect are not installed. Install them?
[Y/n] y
The following actions will be performed:
  [32m∗[0m install [01mcoq-mathcomp-ssreflect[0m 1.15.0
  [32m∗[0m install [01mcoq-mathcomp-fingroup[0m  1.15.0
  [32m∗[0m install [01mcoq-mathcomp-algebra[0m   1.15.0
  [32m∗[0m install [01mcoq-mathcomp-solvable[0m  1.15.0
  [32m∗[0m install [01mcoq-mathcomp-field[0m     1.15.0
===== [32m∗[0m 5 =====

[36m<><>[0m [01mProcessing actions[0m [36m<><><><><><><><><><><><><><><><><><><><><><><><><><><><>[0m
[KProcessing  1/15:[K[KProcessing  2/15:[K[KProcessing  3/15:[K[36m⬇[0m retrieved [01mcoq-mathcomp-algebra[0m.1.15.0  (cached)
[KProcessing  3/15:[K[KProcessing  4/15:[K[36m⬇[0m retrieved [01mcoq-mathcomp-field[0m.1.15.0  (cached)
[KProcessing  4/15:[K[KProcessing  5/15:[K[36m⬇[0m retrieved [01mcoq-mathcomp-fingroup[0m.1.15.0  (cached)
[KProcessing  5/15:[K[36m⬇[0m retrieved [01mcoq-mathcomp-solvable[0m.1.15.0  (cached)
[KProcessing  5/15:[K[36m⬇[0m retrieved [01mcoq-mathcomp-ssreflect[0m.1.15.0  (cached)
[KProcessing  6/15: [[32mcoq-mathcomp-ssreflect[0m: make 16][K[KProcessing  7/15: [[32mcoq-mathcomp-ssreflect[0m: make install][K[32m∗[0m installed [01mcoq-mathcomp-ssreflect[0m.1.15.0
[KProcessing  8/15: [[32mcoq-mathcomp-fingroup[0m: make 16][K[KProcessing  9/15: [[32mcoq-mathcomp-fingroup[0m: make install][K[32m∗[0m installed [01mcoq-mathcomp-fingroup[0m.1.15.0
[KProcessing 10/15: [[32mcoq-mathcomp-algebra[0m: make 16][K[KProcessing 11/15: [[32mcoq-mathcomp-algebra[0m: make install][K[32m∗[0m installed [01mcoq-mathcomp-algebra[0m.1.15.0
[KProcessing 12/15: [[32mcoq-mathcomp-solvable[0m: make 16][K[KProcessing 13/15: [[32mcoq-mathcomp-solvable[0m: make install][K[32m∗[0m installed [01mcoq-mathcomp-solvable[0m.1.15.0
[KProcessing 14/15: [[32mcoq-mathcomp-field[0m: make 16][K[KProcessing 15/15: [[32mcoq-mathcomp-field[0m: make install][K[32m∗[0m installed [01mcoq-mathcomp-field[0m.1.15.0
Done.
319.80user 12.29system 3:48.65elapsed 145%CPU (0avgtext+0avgdata 700772maxresident)k
0inputs+494896outputs (3682major+2175599minor)pagefaults 0swaps
+ throttle_control_end
++ cpufreqctl --throttle
./install.sh: ligne 101: cpufreqctl : commande introuvable
+ '[' -eq ']'
+ IS_THROTTLED=
+ mv /tmp/ocaml-stats-mark-prefetching-412-stats.log coq-mathcomp.log.8-0
+ cd ..
+ for i in $REPOS
+ throttle_control_begin
+ IS_THROTTLED=
++ cpufreqctl --throttle
./install.sh: ligne 97: cpufreqctl : commande introuvable
+ THROTTLE=
+ cd repo-page-table-412-stats+optims
++ opam env --switch=. --set-switch
+ eval 'OPAMSWITCH='\''/home/gm/Travail/github/ocaml/ocaml-large-pages-experiment/real_perfs2/repo-page-table-412-stats+optims'\'';' export 'OPAMSWITCH;' 'OPAM_SWITCH_PREFIX='\''/home/gm/Travail/github/ocaml/ocaml-large-pages-experiment/real_perfs2/repo-page-table-412-stats+optims/_opam'\'';' export 'OPAM_SWITCH_PREFIX;' 'CAML_LD_LIBRARY_PATH='\''/home/gm/Travail/github/ocaml/ocaml-large-pages-experiment/real_perfs2/repo-page-table-412-stats+optims/_opam/lib/stublibs:/home/gm/Travail/github/ocaml/ocaml-large-pages-experiment/real_perfs2/repo-page-table-412-stats+optims/_opam/lib/ocaml/stublibs:/home/gm/Travail/github/ocaml/ocaml-large-pages-experiment/real_perfs2/repo-page-table-412-stats+optims/_opam/lib/ocaml'\'';' export 'CAML_LD_LIBRARY_PATH;' 'OCAML_TOPLEVEL_PATH='\''/home/gm/Travail/github/ocaml/ocaml-large-pages-experiment/real_perfs2/repo-page-table-412-stats+optims/_opam/lib/toplevel'\'';' export 'OCAML_TOPLEVEL_PATH;' 'PKG_CONFIG_PATH='\''/home/gm/Travail/github/ocaml/ocaml-large-pages-experiment/real_perfs2/repo-page-table-412-stats+optims/_opam/lib/pkgconfig'\'';' export 'PKG_CONFIG_PATH;' 'MANPATH='\'':/home/gm/Travail/github/ocaml/ocaml-large-pages-experiment/real_perfs2/repo-page-table-412-stats+optims/_opam/man'\'';' export 'MANPATH;' 'PATH='\''/home/gm/Travail/github/ocaml/ocaml-large-pages-experiment/real_perfs2/repo-page-table-412-stats+optims/_opam/bin:/home/gm/.cargo/bin:/home/gm/.local/bin:/usr/local/sbin:/usr/local/bin:/usr/sbin:/usr/bin:/sbin:/bin:/usr/games:/usr/local/games:/snap/bin:/snap/bin'\'';' export 'PATH;'
++ OPAMSWITCH=/home/gm/Travail/github/ocaml/ocaml-large-pages-experiment/real_perfs2/repo-page-table-412-stats+optims
++ export OPAMSWITCH
++ OPAM_SWITCH_PREFIX=/home/gm/Travail/github/ocaml/ocaml-large-pages-experiment/real_perfs2/repo-page-table-412-stats+optims/_opam
++ export OPAM_SWITCH_PREFIX
++ CAML_LD_LIBRARY_PATH=/home/gm/Travail/github/ocaml/ocaml-large-pages-experiment/real_perfs2/repo-page-table-412-stats+optims/_opam/lib/stublibs:/home/gm/Travail/github/ocaml/ocaml-large-pages-experiment/real_perfs2/repo-page-table-412-stats+optims/_opam/lib/ocaml/stublibs:/home/gm/Travail/github/ocaml/ocaml-large-pages-experiment/real_perfs2/repo-page-table-412-stats+optims/_opam/lib/ocaml
++ export CAML_LD_LIBRARY_PATH
++ OCAML_TOPLEVEL_PATH=/home/gm/Travail/github/ocaml/ocaml-large-pages-experiment/real_perfs2/repo-page-table-412-stats+optims/_opam/lib/toplevel
++ export OCAML_TOPLEVEL_PATH
++ PKG_CONFIG_PATH=/home/gm/Travail/github/ocaml/ocaml-large-pages-experiment/real_perfs2/repo-page-table-412-stats+optims/_opam/lib/pkgconfig
++ export PKG_CONFIG_PATH
++ MANPATH=:/home/gm/Travail/github/ocaml/ocaml-large-pages-experiment/real_perfs2/repo-page-table-412-stats+optims/_opam/man
++ export MANPATH
++ PATH=/home/gm/Travail/github/ocaml/ocaml-large-pages-experiment/real_perfs2/repo-page-table-412-stats+optims/_opam/bin:/home/gm/.cargo/bin:/home/gm/.local/bin:/usr/local/sbin:/usr/local/bin:/usr/sbin:/usr/bin:/sbin:/bin:/usr/games:/usr/local/games:/snap/bin:/snap/bin
++ export PATH
+ opam list
# Packages matching: [36minstalled[0m
# Name                  # Installed # Synopsis
[01mbase-bigarray[0m           [35mbase[0m
[01mbase-threads[0m            [35mbase[0m
[01mbase-unix[0m               [35mbase[0m
[01mcairo2[0m                  [35m0.6.3[0m       Binding to Cairo, a 2D Vector Graphics Library
[01mconf-adwaita-icon-theme[0m [35m2[0m           Virtual package relying on adwaita-icon-theme
[01mconf-cairo[0m              [35m1[0m           Virtual package relying on a Cairo system install
[01mconf-findutils[0m          [35m1[0m           Virtual package relying on findutils
[01mconf-gmp[0m                [35m4[0m           Virtual package relying on a GMP lib system insta
[01mconf-gtk3[0m               [35m18[0m          Virtual package relying on GTK+ 3
[01mconf-gtksourceview3[0m     [35m0+2[0m         Virtual package relying on a GtkSourceView-3 syst
[01mconf-pkg-config[0m         [35m2[0m           Check if pkg-config is installed and create an op
[01;04mcoq[0m                     [35m8.16.0[0m      Formal proof management system
[01;04mcoqide[0m                  [35m8.16.0[0m      IDE of the Coq formal proof management system
[01;04mdune[0m                    [35m3.4.1[0m       Fast, portable, and opinionated build system
[01mdune-configurator[0m       [35m2.7.0[0m       Helper library for gathering system configuration
[01mlablgtk3[0m                [35m3.1.2[0m       OCaml interface to GTK+3
[01;04mlablgtk3-sourceview3[0m    [35m3.1.2[0m       OCaml interface to GTK+ gtksourceview library
[01mocaml[0m                   [35m4.12.0[0m      The OCaml compiler (virtual package)
[01mocaml-config[0m            [35m2[0m           OCaml Switch Configuration
[01;04mocaml-variants[0m          [1;34m4.12.0[0m      pinned to version [1;34m4.12.0[0m at [04mgit+https://github.co[0m
[01mocamlfind[0m               [35m1.9.5[0m       A library manager for OCaml
[01;04mzarith[0m                  [35m1.12[0m        Implements arithmetic and logical operations over
+ opam remove -y coq-mathcomp-character coq-mathcomp-odd-order
[1;34m[NOTE][0m coq-mathcomp-odd-order and coq-mathcomp-character are not installed.

Nothing to do.
+ time opam reinstall --skip-updates -j 4 -y coq-mathcomp-field coq-mathcomp-solvable coq-mathcomp-algebra coq-mathcomp-fingroup coq-mathcomp-ssreflect
coq-mathcomp-field, coq-mathcomp-solvable, coq-mathcomp-algebra,
coq-mathcomp-fingroup and coq-mathcomp-ssreflect are not installed. Install them?
[Y/n] y
The following actions will be performed:
  [32m∗[0m install [01mcoq-mathcomp-ssreflect[0m 1.15.0
  [32m∗[0m install [01mcoq-mathcomp-fingroup[0m  1.15.0
  [32m∗[0m install [01mcoq-mathcomp-algebra[0m   1.15.0
  [32m∗[0m install [01mcoq-mathcomp-solvable[0m  1.15.0
  [32m∗[0m install [01mcoq-mathcomp-field[0m     1.15.0
===== [32m∗[0m 5 =====

[36m<><>[0m [01mProcessing actions[0m [36m<><><><><><><><><><><><><><><><><><><><><><><><><><><><>[0m
[KProcessing  1/15:[K[KProcessing  2/15:[K[KProcessing  3/15:[K[36m⬇[0m retrieved [01mcoq-mathcomp-algebra[0m.1.15.0  (cached)
[KProcessing  3/15:[K[KProcessing  4/15:[K[36m⬇[0m retrieved [01mcoq-mathcomp-field[0m.1.15.0  (cached)
[KProcessing  4/15:[K[KProcessing  5/15:[K[36m⬇[0m retrieved [01mcoq-mathcomp-fingroup[0m.1.15.0  (cached)
[KProcessing  5/15:[K[36m⬇[0m retrieved [01mcoq-mathcomp-solvable[0m.1.15.0  (cached)
[KProcessing  5/15:[K[36m⬇[0m retrieved [01mcoq-mathcomp-ssreflect[0m.1.15.0  (cached)
[KProcessing  6/15: [[32mcoq-mathcomp-ssreflect[0m: make 16][K[KProcessing  7/15: [[32mcoq-mathcomp-ssreflect[0m: make install][K[32m∗[0m installed [01mcoq-mathcomp-ssreflect[0m.1.15.0
[KProcessing  8/15: [[32mcoq-mathcomp-fingroup[0m: make 16][K[KProcessing  9/15: [[32mcoq-mathcomp-fingroup[0m: make install][K[32m∗[0m installed [01mcoq-mathcomp-fingroup[0m.1.15.0
[KProcessing 10/15: [[32mcoq-mathcomp-algebra[0m: make 16][K[KProcessing 11/15: [[32mcoq-mathcomp-algebra[0m: make install][K[32m∗[0m installed [01mcoq-mathcomp-algebra[0m.1.15.0
[KProcessing 12/15: [[32mcoq-mathcomp-solvable[0m: make 16][K[KProcessing 13/15: [[32mcoq-mathcomp-solvable[0m: make install][K[32m∗[0m installed [01mcoq-mathcomp-solvable[0m.1.15.0
[KProcessing 14/15: [[32mcoq-mathcomp-field[0m: make 16][K[KProcessing 15/15: [[32mcoq-mathcomp-field[0m: make install][K[32m∗[0m installed [01mcoq-mathcomp-field[0m.1.15.0
Done.
310.61user 12.14system 3:41.42elapsed 145%CPU (0avgtext+0avgdata 698272maxresident)k
0inputs+494880outputs (3375major+1540217minor)pagefaults 0swaps
+ throttle_control_end
++ cpufreqctl --throttle
./install.sh: ligne 101: cpufreqctl : commande introuvable
+ '[' -eq ']'
+ IS_THROTTLED=
+ mv /tmp/ocaml-stats-page-table-412-stats+optims.log coq-mathcomp.log.8-0
+ cd ..
+ date -R
Mon, 12 Sep 2022 08:07:16 +0200
+ false
+ for n in $(seq 0 $((TRIALS - 1)))
+ TRIAL=-1
+ echo 'Iteration 1'
Iteration 1
+ date -R
Mon, 12 Sep 2022 08:07:16 +0200
+ false
+ false
+ true
+ for i in $REPOS
+ throttle_control_begin
+ IS_THROTTLED=
++ cpufreqctl --throttle
./install.sh: ligne 97: cpufreqctl : commande introuvable
+ THROTTLE=
+ cd repo-mark-prefetching-412-stats
++ opam env --switch=. --set-switch
+ eval 'OPAMSWITCH='\''/home/gm/Travail/github/ocaml/ocaml-large-pages-experiment/real_perfs2/repo-mark-prefetching-412-stats'\'';' export 'OPAMSWITCH;' 'OPAM_SWITCH_PREFIX='\''/home/gm/Travail/github/ocaml/ocaml-large-pages-experiment/real_perfs2/repo-mark-prefetching-412-stats/_opam'\'';' export 'OPAM_SWITCH_PREFIX;' 'CAML_LD_LIBRARY_PATH='\''/home/gm/Travail/github/ocaml/ocaml-large-pages-experiment/real_perfs2/repo-mark-prefetching-412-stats/_opam/lib/stublibs:/home/gm/Travail/github/ocaml/ocaml-large-pages-experiment/real_perfs2/repo-mark-prefetching-412-stats/_opam/lib/ocaml/stublibs:/home/gm/Travail/github/ocaml/ocaml-large-pages-experiment/real_perfs2/repo-mark-prefetching-412-stats/_opam/lib/ocaml'\'';' export 'CAML_LD_LIBRARY_PATH;' 'OCAML_TOPLEVEL_PATH='\''/home/gm/Travail/github/ocaml/ocaml-large-pages-experiment/real_perfs2/repo-mark-prefetching-412-stats/_opam/lib/toplevel'\'';' export 'OCAML_TOPLEVEL_PATH;' 'PKG_CONFIG_PATH='\''/home/gm/Travail/github/ocaml/ocaml-large-pages-experiment/real_perfs2/repo-mark-prefetching-412-stats/_opam/lib/pkgconfig'\'';' export 'PKG_CONFIG_PATH;' 'MANPATH='\'':/home/gm/Travail/github/ocaml/ocaml-large-pages-experiment/real_perfs2/repo-mark-prefetching-412-stats/_opam/man'\'';' export 'MANPATH;' 'PATH='\''/home/gm/Travail/github/ocaml/ocaml-large-pages-experiment/real_perfs2/repo-mark-prefetching-412-stats/_opam/bin:/home/gm/.cargo/bin:/home/gm/.local/bin:/usr/local/sbin:/usr/local/bin:/usr/sbin:/usr/bin:/sbin:/bin:/usr/games:/usr/local/games:/snap/bin:/snap/bin'\'';' export 'PATH;'
++ OPAMSWITCH=/home/gm/Travail/github/ocaml/ocaml-large-pages-experiment/real_perfs2/repo-mark-prefetching-412-stats
++ export OPAMSWITCH
++ OPAM_SWITCH_PREFIX=/home/gm/Travail/github/ocaml/ocaml-large-pages-experiment/real_perfs2/repo-mark-prefetching-412-stats/_opam
++ export OPAM_SWITCH_PREFIX
++ CAML_LD_LIBRARY_PATH=/home/gm/Travail/github/ocaml/ocaml-large-pages-experiment/real_perfs2/repo-mark-prefetching-412-stats/_opam/lib/stublibs:/home/gm/Travail/github/ocaml/ocaml-large-pages-experiment/real_perfs2/repo-mark-prefetching-412-stats/_opam/lib/ocaml/stublibs:/home/gm/Travail/github/ocaml/ocaml-large-pages-experiment/real_perfs2/repo-mark-prefetching-412-stats/_opam/lib/ocaml
++ export CAML_LD_LIBRARY_PATH
++ OCAML_TOPLEVEL_PATH=/home/gm/Travail/github/ocaml/ocaml-large-pages-experiment/real_perfs2/repo-mark-prefetching-412-stats/_opam/lib/toplevel
++ export OCAML_TOPLEVEL_PATH
++ PKG_CONFIG_PATH=/home/gm/Travail/github/ocaml/ocaml-large-pages-experiment/real_perfs2/repo-mark-prefetching-412-stats/_opam/lib/pkgconfig
++ export PKG_CONFIG_PATH
++ MANPATH=:/home/gm/Travail/github/ocaml/ocaml-large-pages-experiment/real_perfs2/repo-mark-prefetching-412-stats/_opam/man
++ export MANPATH
++ PATH=/home/gm/Travail/github/ocaml/ocaml-large-pages-experiment/real_perfs2/repo-mark-prefetching-412-stats/_opam/bin:/home/gm/.cargo/bin:/home/gm/.local/bin:/usr/local/sbin:/usr/local/bin:/usr/sbin:/usr/bin:/sbin:/bin:/usr/games:/usr/local/games:/snap/bin:/snap/bin
++ export PATH
+ opam list
# Packages matching: [36minstalled[0m
# Name                  # Installed # Synopsis
[01mbase-bigarray[0m           [35mbase[0m
[01mbase-threads[0m            [35mbase[0m
[01mbase-unix[0m               [35mbase[0m
[01mcairo2[0m                  [35m0.6.3[0m       Binding to Cairo, a 2D Vector Graphics Library
[01mconf-adwaita-icon-theme[0m [35m2[0m           Virtual package relying on adwaita-icon-theme
[01mconf-cairo[0m              [35m1[0m           Virtual package relying on a Cairo system install
[01mconf-findutils[0m          [35m1[0m           Virtual package relying on findutils
[01mconf-gmp[0m                [35m4[0m           Virtual package relying on a GMP lib system insta
[01mconf-gtk3[0m               [35m18[0m          Virtual package relying on GTK+ 3
[01mconf-gtksourceview3[0m     [35m0+2[0m         Virtual package relying on a GtkSourceView-3 syst
[01mconf-pkg-config[0m         [35m2[0m           Check if pkg-config is installed and create an op
[01;04mcoq[0m                     [35m8.16.0[0m      Formal proof management system
[01;04mcoq-mathcomp-algebra[0m    [35m1.15.0[0m      Mathematical Components Library on Algebra
[01;04mcoq-mathcomp-field[0m      [35m1.15.0[0m      Mathematical Components Library on Fields
[01;04mcoq-mathcomp-fingroup[0m   [35m1.15.0[0m      Mathematical Components Library on finite groups
[01;04mcoq-mathcomp-solvable[0m   [35m1.15.0[0m      Mathematical Components Library on finite groups 
[01;04mcoq-mathcomp-ssreflect[0m  [35m1.15.0[0m      Small Scale Reflection
[01;04mcoqide[0m                  [35m8.16.0[0m      IDE of the Coq formal proof management system
[01;04mdune[0m                    [35m3.4.1[0m       Fast, portable, and opinionated build system
[01mdune-configurator[0m       [35m2.7.0[0m       Helper library for gathering system configuration
[01mlablgtk3[0m                [35m3.1.2[0m       OCaml interface to GTK+3
[01;04mlablgtk3-sourceview3[0m    [35m3.1.2[0m       OCaml interface to GTK+ gtksourceview library
[01mocaml[0m                   [35m4.12.0[0m      The OCaml compiler (virtual package)
[01mocaml-config[0m            [35m2[0m           OCaml Switch Configuration
[01;04mocaml-variants[0m          [1;34m4.12.0[0m      pinned to version [1;34m4.12.0[0m at [04mgit+file:///home/gm/T[0m
[01mocamlfind[0m               [35m1.9.5[0m       A library manager for OCaml
[01;04mzarith[0m                  [35m1.12[0m        Implements arithmetic and logical operations over
+ false
+ c=install
+ time opam install --skip-updates -j 4 -y coq coqide
[1;34m[NOTE][0m Package coqide is already installed (current version is 8.16.0).
[1;34m[NOTE][0m Package coq is already installed (current version is 8.16.0).
0.91user 0.05system 0:00.96elapsed 99%CPU (0avgtext+0avgdata 173516maxresident)k
0inputs+6072outputs (0major+16398minor)pagefaults 0swaps
+ throttle_control_end
++ cpufreqctl --throttle
./install.sh: ligne 101: cpufreqctl : commande introuvable
+ '[' -eq ']'
+ IS_THROTTLED=
+ mv /tmp/ocaml-stats-mark-prefetching-412-stats.log coq-opam.log.8-1
mv: impossible d'évaluer '/tmp/ocaml-stats-mark-prefetching-412-stats.log': Aucun fichier ou dossier de ce type
+ cd ..
+ for i in $REPOS
+ throttle_control_begin
+ IS_THROTTLED=
++ cpufreqctl --throttle
./install.sh: ligne 97: cpufreqctl : commande introuvable
+ THROTTLE=
+ cd repo-page-table-412-stats+optims
++ opam env --switch=. --set-switch
+ eval 'OPAMSWITCH='\''/home/gm/Travail/github/ocaml/ocaml-large-pages-experiment/real_perfs2/repo-page-table-412-stats+optims'\'';' export 'OPAMSWITCH;' 'OPAM_SWITCH_PREFIX='\''/home/gm/Travail/github/ocaml/ocaml-large-pages-experiment/real_perfs2/repo-page-table-412-stats+optims/_opam'\'';' export 'OPAM_SWITCH_PREFIX;' 'CAML_LD_LIBRARY_PATH='\''/home/gm/Travail/github/ocaml/ocaml-large-pages-experiment/real_perfs2/repo-page-table-412-stats+optims/_opam/lib/stublibs:/home/gm/Travail/github/ocaml/ocaml-large-pages-experiment/real_perfs2/repo-page-table-412-stats+optims/_opam/lib/ocaml/stublibs:/home/gm/Travail/github/ocaml/ocaml-large-pages-experiment/real_perfs2/repo-page-table-412-stats+optims/_opam/lib/ocaml'\'';' export 'CAML_LD_LIBRARY_PATH;' 'OCAML_TOPLEVEL_PATH='\''/home/gm/Travail/github/ocaml/ocaml-large-pages-experiment/real_perfs2/repo-page-table-412-stats+optims/_opam/lib/toplevel'\'';' export 'OCAML_TOPLEVEL_PATH;' 'PKG_CONFIG_PATH='\''/home/gm/Travail/github/ocaml/ocaml-large-pages-experiment/real_perfs2/repo-page-table-412-stats+optims/_opam/lib/pkgconfig'\'';' export 'PKG_CONFIG_PATH;' 'MANPATH='\'':/home/gm/Travail/github/ocaml/ocaml-large-pages-experiment/real_perfs2/repo-page-table-412-stats+optims/_opam/man'\'';' export 'MANPATH;' 'PATH='\''/home/gm/Travail/github/ocaml/ocaml-large-pages-experiment/real_perfs2/repo-page-table-412-stats+optims/_opam/bin:/home/gm/.cargo/bin:/home/gm/.local/bin:/usr/local/sbin:/usr/local/bin:/usr/sbin:/usr/bin:/sbin:/bin:/usr/games:/usr/local/games:/snap/bin:/snap/bin'\'';' export 'PATH;'
++ OPAMSWITCH=/home/gm/Travail/github/ocaml/ocaml-large-pages-experiment/real_perfs2/repo-page-table-412-stats+optims
++ export OPAMSWITCH
++ OPAM_SWITCH_PREFIX=/home/gm/Travail/github/ocaml/ocaml-large-pages-experiment/real_perfs2/repo-page-table-412-stats+optims/_opam
++ export OPAM_SWITCH_PREFIX
++ CAML_LD_LIBRARY_PATH=/home/gm/Travail/github/ocaml/ocaml-large-pages-experiment/real_perfs2/repo-page-table-412-stats+optims/_opam/lib/stublibs:/home/gm/Travail/github/ocaml/ocaml-large-pages-experiment/real_perfs2/repo-page-table-412-stats+optims/_opam/lib/ocaml/stublibs:/home/gm/Travail/github/ocaml/ocaml-large-pages-experiment/real_perfs2/repo-page-table-412-stats+optims/_opam/lib/ocaml
++ export CAML_LD_LIBRARY_PATH
++ OCAML_TOPLEVEL_PATH=/home/gm/Travail/github/ocaml/ocaml-large-pages-experiment/real_perfs2/repo-page-table-412-stats+optims/_opam/lib/toplevel
++ export OCAML_TOPLEVEL_PATH
++ PKG_CONFIG_PATH=/home/gm/Travail/github/ocaml/ocaml-large-pages-experiment/real_perfs2/repo-page-table-412-stats+optims/_opam/lib/pkgconfig
++ export PKG_CONFIG_PATH
++ MANPATH=:/home/gm/Travail/github/ocaml/ocaml-large-pages-experiment/real_perfs2/repo-page-table-412-stats+optims/_opam/man
++ export MANPATH
++ PATH=/home/gm/Travail/github/ocaml/ocaml-large-pages-experiment/real_perfs2/repo-page-table-412-stats+optims/_opam/bin:/home/gm/.cargo/bin:/home/gm/.local/bin:/usr/local/sbin:/usr/local/bin:/usr/sbin:/usr/bin:/sbin:/bin:/usr/games:/usr/local/games:/snap/bin:/snap/bin
++ export PATH
+ opam list
# Packages matching: [36minstalled[0m
# Name                  # Installed # Synopsis
[01mbase-bigarray[0m           [35mbase[0m
[01mbase-threads[0m            [35mbase[0m
[01mbase-unix[0m               [35mbase[0m
[01mcairo2[0m                  [35m0.6.3[0m       Binding to Cairo, a 2D Vector Graphics Library
[01mconf-adwaita-icon-theme[0m [35m2[0m           Virtual package relying on adwaita-icon-theme
[01mconf-cairo[0m              [35m1[0m           Virtual package relying on a Cairo system install
[01mconf-findutils[0m          [35m1[0m           Virtual package relying on findutils
[01mconf-gmp[0m                [35m4[0m           Virtual package relying on a GMP lib system insta
[01mconf-gtk3[0m               [35m18[0m          Virtual package relying on GTK+ 3
[01mconf-gtksourceview3[0m     [35m0+2[0m         Virtual package relying on a GtkSourceView-3 syst
[01mconf-pkg-config[0m         [35m2[0m           Check if pkg-config is installed and create an op
[01;04mcoq[0m                     [35m8.16.0[0m      Formal proof management system
[01;04mcoq-mathcomp-algebra[0m    [35m1.15.0[0m      Mathematical Components Library on Algebra
[01;04mcoq-mathcomp-field[0m      [35m1.15.0[0m      Mathematical Components Library on Fields
[01;04mcoq-mathcomp-fingroup[0m   [35m1.15.0[0m      Mathematical Components Library on finite groups
[01;04mcoq-mathcomp-solvable[0m   [35m1.15.0[0m      Mathematical Components Library on finite groups 
[01;04mcoq-mathcomp-ssreflect[0m  [35m1.15.0[0m      Small Scale Reflection
[01;04mcoqide[0m                  [35m8.16.0[0m      IDE of the Coq formal proof management system
[01;04mdune[0m                    [35m3.4.1[0m       Fast, portable, and opinionated build system
[01mdune-configurator[0m       [35m2.7.0[0m       Helper library for gathering system configuration
[01mlablgtk3[0m                [35m3.1.2[0m       OCaml interface to GTK+3
[01;04mlablgtk3-sourceview3[0m    [35m3.1.2[0m       OCaml interface to GTK+ gtksourceview library
[01mocaml[0m                   [35m4.12.0[0m      The OCaml compiler (virtual package)
[01mocaml-config[0m            [35m2[0m           OCaml Switch Configuration
[01;04mocaml-variants[0m          [1;34m4.12.0[0m      pinned to version [1;34m4.12.0[0m at [04mgit+https://github.co[0m
[01mocamlfind[0m               [35m1.9.5[0m       A library manager for OCaml
[01;04mzarith[0m                  [35m1.12[0m        Implements arithmetic and logical operations over
+ false
+ c=install
+ time opam install --skip-updates -j 4 -y coq coqide
[1;34m[NOTE][0m Package coqide is already installed (current version is 8.16.0).
[1;34m[NOTE][0m Package coq is already installed (current version is 8.16.0).
0.89user 0.06system 0:00.95elapsed 100%CPU (0avgtext+0avgdata 172480maxresident)k
0inputs+6072outputs (0major+16973minor)pagefaults 0swaps
+ throttle_control_end
++ cpufreqctl --throttle
./install.sh: ligne 101: cpufreqctl : commande introuvable
+ '[' -eq ']'
+ IS_THROTTLED=
+ mv /tmp/ocaml-stats-page-table-412-stats+optims.log coq-opam.log.8-1
mv: impossible d'évaluer '/tmp/ocaml-stats-page-table-412-stats+optims.log': Aucun fichier ou dossier de ce type
+ cd ..
+ date -R
Mon, 12 Sep 2022 08:07:19 +0200
+ true
+ for i in $REPOS
+ throttle_control_begin
+ IS_THROTTLED=
++ cpufreqctl --throttle
./install.sh: ligne 97: cpufreqctl : commande introuvable
+ THROTTLE=
+ cd repo-mark-prefetching-412-stats
++ opam env --switch=. --set-switch
+ eval 'OPAMSWITCH='\''/home/gm/Travail/github/ocaml/ocaml-large-pages-experiment/real_perfs2/repo-mark-prefetching-412-stats'\'';' export 'OPAMSWITCH;' 'OPAM_SWITCH_PREFIX='\''/home/gm/Travail/github/ocaml/ocaml-large-pages-experiment/real_perfs2/repo-mark-prefetching-412-stats/_opam'\'';' export 'OPAM_SWITCH_PREFIX;' 'CAML_LD_LIBRARY_PATH='\''/home/gm/Travail/github/ocaml/ocaml-large-pages-experiment/real_perfs2/repo-mark-prefetching-412-stats/_opam/lib/stublibs:/home/gm/Travail/github/ocaml/ocaml-large-pages-experiment/real_perfs2/repo-mark-prefetching-412-stats/_opam/lib/ocaml/stublibs:/home/gm/Travail/github/ocaml/ocaml-large-pages-experiment/real_perfs2/repo-mark-prefetching-412-stats/_opam/lib/ocaml'\'';' export 'CAML_LD_LIBRARY_PATH;' 'OCAML_TOPLEVEL_PATH='\''/home/gm/Travail/github/ocaml/ocaml-large-pages-experiment/real_perfs2/repo-mark-prefetching-412-stats/_opam/lib/toplevel'\'';' export 'OCAML_TOPLEVEL_PATH;' 'PKG_CONFIG_PATH='\''/home/gm/Travail/github/ocaml/ocaml-large-pages-experiment/real_perfs2/repo-mark-prefetching-412-stats/_opam/lib/pkgconfig'\'';' export 'PKG_CONFIG_PATH;' 'MANPATH='\'':/home/gm/Travail/github/ocaml/ocaml-large-pages-experiment/real_perfs2/repo-mark-prefetching-412-stats/_opam/man'\'';' export 'MANPATH;' 'PATH='\''/home/gm/Travail/github/ocaml/ocaml-large-pages-experiment/real_perfs2/repo-mark-prefetching-412-stats/_opam/bin:/home/gm/.cargo/bin:/home/gm/.local/bin:/usr/local/sbin:/usr/local/bin:/usr/sbin:/usr/bin:/sbin:/bin:/usr/games:/usr/local/games:/snap/bin:/snap/bin'\'';' export 'PATH;'
++ OPAMSWITCH=/home/gm/Travail/github/ocaml/ocaml-large-pages-experiment/real_perfs2/repo-mark-prefetching-412-stats
++ export OPAMSWITCH
++ OPAM_SWITCH_PREFIX=/home/gm/Travail/github/ocaml/ocaml-large-pages-experiment/real_perfs2/repo-mark-prefetching-412-stats/_opam
++ export OPAM_SWITCH_PREFIX
++ CAML_LD_LIBRARY_PATH=/home/gm/Travail/github/ocaml/ocaml-large-pages-experiment/real_perfs2/repo-mark-prefetching-412-stats/_opam/lib/stublibs:/home/gm/Travail/github/ocaml/ocaml-large-pages-experiment/real_perfs2/repo-mark-prefetching-412-stats/_opam/lib/ocaml/stublibs:/home/gm/Travail/github/ocaml/ocaml-large-pages-experiment/real_perfs2/repo-mark-prefetching-412-stats/_opam/lib/ocaml
++ export CAML_LD_LIBRARY_PATH
++ OCAML_TOPLEVEL_PATH=/home/gm/Travail/github/ocaml/ocaml-large-pages-experiment/real_perfs2/repo-mark-prefetching-412-stats/_opam/lib/toplevel
++ export OCAML_TOPLEVEL_PATH
++ PKG_CONFIG_PATH=/home/gm/Travail/github/ocaml/ocaml-large-pages-experiment/real_perfs2/repo-mark-prefetching-412-stats/_opam/lib/pkgconfig
++ export PKG_CONFIG_PATH
++ MANPATH=:/home/gm/Travail/github/ocaml/ocaml-large-pages-experiment/real_perfs2/repo-mark-prefetching-412-stats/_opam/man
++ export MANPATH
++ PATH=/home/gm/Travail/github/ocaml/ocaml-large-pages-experiment/real_perfs2/repo-mark-prefetching-412-stats/_opam/bin:/home/gm/.cargo/bin:/home/gm/.local/bin:/usr/local/sbin:/usr/local/bin:/usr/sbin:/usr/bin:/sbin:/bin:/usr/games:/usr/local/games:/snap/bin:/snap/bin
++ export PATH
+ opam list
# Packages matching: [36minstalled[0m
# Name                  # Installed # Synopsis
[01mbase-bigarray[0m           [35mbase[0m
[01mbase-threads[0m            [35mbase[0m
[01mbase-unix[0m               [35mbase[0m
[01mcairo2[0m                  [35m0.6.3[0m       Binding to Cairo, a 2D Vector Graphics Library
[01mconf-adwaita-icon-theme[0m [35m2[0m           Virtual package relying on adwaita-icon-theme
[01mconf-cairo[0m              [35m1[0m           Virtual package relying on a Cairo system install
[01mconf-findutils[0m          [35m1[0m           Virtual package relying on findutils
[01mconf-gmp[0m                [35m4[0m           Virtual package relying on a GMP lib system insta
[01mconf-gtk3[0m               [35m18[0m          Virtual package relying on GTK+ 3
[01mconf-gtksourceview3[0m     [35m0+2[0m         Virtual package relying on a GtkSourceView-3 syst
[01mconf-pkg-config[0m         [35m2[0m           Check if pkg-config is installed and create an op
[01;04mcoq[0m                     [35m8.16.0[0m      Formal proof management system
[01;04mcoq-mathcomp-algebra[0m    [35m1.15.0[0m      Mathematical Components Library on Algebra
[01;04mcoq-mathcomp-field[0m      [35m1.15.0[0m      Mathematical Components Library on Fields
[01;04mcoq-mathcomp-fingroup[0m   [35m1.15.0[0m      Mathematical Components Library on finite groups
[01;04mcoq-mathcomp-solvable[0m   [35m1.15.0[0m      Mathematical Components Library on finite groups 
[01;04mcoq-mathcomp-ssreflect[0m  [35m1.15.0[0m      Small Scale Reflection
[01;04mcoqide[0m                  [35m8.16.0[0m      IDE of the Coq formal proof management system
[01;04mdune[0m                    [35m3.4.1[0m       Fast, portable, and opinionated build system
[01mdune-configurator[0m       [35m2.7.0[0m       Helper library for gathering system configuration
[01mlablgtk3[0m                [35m3.1.2[0m       OCaml interface to GTK+3
[01;04mlablgtk3-sourceview3[0m    [35m3.1.2[0m       OCaml interface to GTK+ gtksourceview library
[01mocaml[0m                   [35m4.12.0[0m      The OCaml compiler (virtual package)
[01mocaml-config[0m            [35m2[0m           OCaml Switch Configuration
[01;04mocaml-variants[0m          [1;34m4.12.0[0m      pinned to version [1;34m4.12.0[0m at [04mgit+file:///home/gm/T[0m
[01mocamlfind[0m               [35m1.9.5[0m       A library manager for OCaml
[01;04mzarith[0m                  [35m1.12[0m        Implements arithmetic and logical operations over
+ opam remove -y coq-mathcomp-character coq-mathcomp-odd-order
[1;34m[NOTE][0m coq-mathcomp-odd-order and coq-mathcomp-character are not installed.

Nothing to do.
+ time opam reinstall --skip-updates -j 4 -y coq-mathcomp-field coq-mathcomp-solvable coq-mathcomp-algebra coq-mathcomp-fingroup coq-mathcomp-ssreflect
The following actions will be performed:
  [33m↻[0m recompile [01mcoq-mathcomp-ssreflect[0m 1.15.0
  [33m↻[0m recompile [01mcoq-mathcomp-fingroup[0m  1.15.0
  [33m↻[0m recompile [01mcoq-mathcomp-algebra[0m   1.15.0
  [33m↻[0m recompile [01mcoq-mathcomp-solvable[0m  1.15.0
  [33m↻[0m recompile [01mcoq-mathcomp-field[0m     1.15.0
===== [33m↻[0m 5 =====

[36m<><>[0m [01mProcessing actions[0m [36m<><><><><><><><><><><><><><><><><><><><><><><><><><><><>[0m
[KProcessing  1/20:[K[KProcessing  2/20:[K[KProcessing  3/20:[K[36m⬇[0m retrieved [01mcoq-mathcomp-algebra[0m.1.15.0  (cached)
[KProcessing  3/20:[K[KProcessing  4/20:[K[36m⬇[0m retrieved [01mcoq-mathcomp-field[0m.1.15.0  (cached)
[KProcessing  4/20:[K[KProcessing  5/20:[K[36m⬇[0m retrieved [01mcoq-mathcomp-fingroup[0m.1.15.0  (cached)
[KProcessing  5/20:[K[36m⬇[0m retrieved [01mcoq-mathcomp-solvable[0m.1.15.0  (cached)
[KProcessing  5/20:[K[36m⬇[0m retrieved [01mcoq-mathcomp-ssreflect[0m.1.15.0  (cached)
[KProcessing  6/20: [[32mcoq-mathcomp-ssreflect[0m: make 16][K[31m⊘[0m removed   [01mcoq-mathcomp-field[0m.1.15.0
[31m⊘[0m removed   [01mcoq-mathcomp-solvable[0m.1.15.0
[31m⊘[0m removed   [01mcoq-mathcomp-algebra[0m.1.15.0
[31m⊘[0m removed   [01mcoq-mathcomp-fingroup[0m.1.15.0
[31m⊘[0m removed   [01mcoq-mathcomp-ssreflect[0m.1.15.0
[KProcessing 12/20: [[32mcoq-mathcomp-ssreflect[0m: make install][K[32m∗[0m installed [01mcoq-mathcomp-ssreflect[0m.1.15.0
[KProcessing 13/20: [[32mcoq-mathcomp-fingroup[0m: make 16][K[KProcessing 14/20: [[32mcoq-mathcomp-fingroup[0m: make install][K[32m∗[0m installed [01mcoq-mathcomp-fingroup[0m.1.15.0
[KProcessing 15/20: [[32mcoq-mathcomp-algebra[0m: make 16][K[KProcessing 16/20: [[32mcoq-mathcomp-algebra[0m: make install][K[32m∗[0m installed [01mcoq-mathcomp-algebra[0m.1.15.0
[KProcessing 17/20: [[32mcoq-mathcomp-solvable[0m: make 16][K[KProcessing 18/20: [[32mcoq-mathcomp-solvable[0m: make install][K[32m∗[0m installed [01mcoq-mathcomp-solvable[0m.1.15.0
[KProcessing 19/20: [[32mcoq-mathcomp-field[0m: make 16][K[KProcessing 20/20: [[32mcoq-mathcomp-field[0m: make install][K[32m∗[0m installed [01mcoq-mathcomp-field[0m.1.15.0
Done.
320.55user 12.59system 3:47.86elapsed 146%CPU (0avgtext+0avgdata 703376maxresident)k
0inputs+495040outputs (3955major+2179908minor)pagefaults 0swaps
+ throttle_control_end
++ cpufreqctl --throttle
./install.sh: ligne 101: cpufreqctl : commande introuvable
+ '[' -eq ']'
+ IS_THROTTLED=
+ mv /tmp/ocaml-stats-mark-prefetching-412-stats.log coq-mathcomp.log.8-1
+ cd ..
+ for i in $REPOS
+ throttle_control_begin
+ IS_THROTTLED=
++ cpufreqctl --throttle
./install.sh: ligne 97: cpufreqctl : commande introuvable
+ THROTTLE=
+ cd repo-page-table-412-stats+optims
++ opam env --switch=. --set-switch
+ eval 'OPAMSWITCH='\''/home/gm/Travail/github/ocaml/ocaml-large-pages-experiment/real_perfs2/repo-page-table-412-stats+optims'\'';' export 'OPAMSWITCH;' 'OPAM_SWITCH_PREFIX='\''/home/gm/Travail/github/ocaml/ocaml-large-pages-experiment/real_perfs2/repo-page-table-412-stats+optims/_opam'\'';' export 'OPAM_SWITCH_PREFIX;' 'CAML_LD_LIBRARY_PATH='\''/home/gm/Travail/github/ocaml/ocaml-large-pages-experiment/real_perfs2/repo-page-table-412-stats+optims/_opam/lib/stublibs:/home/gm/Travail/github/ocaml/ocaml-large-pages-experiment/real_perfs2/repo-page-table-412-stats+optims/_opam/lib/ocaml/stublibs:/home/gm/Travail/github/ocaml/ocaml-large-pages-experiment/real_perfs2/repo-page-table-412-stats+optims/_opam/lib/ocaml'\'';' export 'CAML_LD_LIBRARY_PATH;' 'OCAML_TOPLEVEL_PATH='\''/home/gm/Travail/github/ocaml/ocaml-large-pages-experiment/real_perfs2/repo-page-table-412-stats+optims/_opam/lib/toplevel'\'';' export 'OCAML_TOPLEVEL_PATH;' 'PKG_CONFIG_PATH='\''/home/gm/Travail/github/ocaml/ocaml-large-pages-experiment/real_perfs2/repo-page-table-412-stats+optims/_opam/lib/pkgconfig'\'';' export 'PKG_CONFIG_PATH;' 'MANPATH='\'':/home/gm/Travail/github/ocaml/ocaml-large-pages-experiment/real_perfs2/repo-page-table-412-stats+optims/_opam/man'\'';' export 'MANPATH;' 'PATH='\''/home/gm/Travail/github/ocaml/ocaml-large-pages-experiment/real_perfs2/repo-page-table-412-stats+optims/_opam/bin:/home/gm/.cargo/bin:/home/gm/.local/bin:/usr/local/sbin:/usr/local/bin:/usr/sbin:/usr/bin:/sbin:/bin:/usr/games:/usr/local/games:/snap/bin:/snap/bin'\'';' export 'PATH;'
++ OPAMSWITCH=/home/gm/Travail/github/ocaml/ocaml-large-pages-experiment/real_perfs2/repo-page-table-412-stats+optims
++ export OPAMSWITCH
++ OPAM_SWITCH_PREFIX=/home/gm/Travail/github/ocaml/ocaml-large-pages-experiment/real_perfs2/repo-page-table-412-stats+optims/_opam
++ export OPAM_SWITCH_PREFIX
++ CAML_LD_LIBRARY_PATH=/home/gm/Travail/github/ocaml/ocaml-large-pages-experiment/real_perfs2/repo-page-table-412-stats+optims/_opam/lib/stublibs:/home/gm/Travail/github/ocaml/ocaml-large-pages-experiment/real_perfs2/repo-page-table-412-stats+optims/_opam/lib/ocaml/stublibs:/home/gm/Travail/github/ocaml/ocaml-large-pages-experiment/real_perfs2/repo-page-table-412-stats+optims/_opam/lib/ocaml
++ export CAML_LD_LIBRARY_PATH
++ OCAML_TOPLEVEL_PATH=/home/gm/Travail/github/ocaml/ocaml-large-pages-experiment/real_perfs2/repo-page-table-412-stats+optims/_opam/lib/toplevel
++ export OCAML_TOPLEVEL_PATH
++ PKG_CONFIG_PATH=/home/gm/Travail/github/ocaml/ocaml-large-pages-experiment/real_perfs2/repo-page-table-412-stats+optims/_opam/lib/pkgconfig
++ export PKG_CONFIG_PATH
++ MANPATH=:/home/gm/Travail/github/ocaml/ocaml-large-pages-experiment/real_perfs2/repo-page-table-412-stats+optims/_opam/man
++ export MANPATH
++ PATH=/home/gm/Travail/github/ocaml/ocaml-large-pages-experiment/real_perfs2/repo-page-table-412-stats+optims/_opam/bin:/home/gm/.cargo/bin:/home/gm/.local/bin:/usr/local/sbin:/usr/local/bin:/usr/sbin:/usr/bin:/sbin:/bin:/usr/games:/usr/local/games:/snap/bin:/snap/bin
++ export PATH
+ opam list
# Packages matching: [36minstalled[0m
# Name                  # Installed # Synopsis
[01mbase-bigarray[0m           [35mbase[0m
[01mbase-threads[0m            [35mbase[0m
[01mbase-unix[0m               [35mbase[0m
[01mcairo2[0m                  [35m0.6.3[0m       Binding to Cairo, a 2D Vector Graphics Library
[01mconf-adwaita-icon-theme[0m [35m2[0m           Virtual package relying on adwaita-icon-theme
[01mconf-cairo[0m              [35m1[0m           Virtual package relying on a Cairo system install
[01mconf-findutils[0m          [35m1[0m           Virtual package relying on findutils
[01mconf-gmp[0m                [35m4[0m           Virtual package relying on a GMP lib system insta
[01mconf-gtk3[0m               [35m18[0m          Virtual package relying on GTK+ 3
[01mconf-gtksourceview3[0m     [35m0+2[0m         Virtual package relying on a GtkSourceView-3 syst
[01mconf-pkg-config[0m         [35m2[0m           Check if pkg-config is installed and create an op
[01;04mcoq[0m                     [35m8.16.0[0m      Formal proof management system
[01;04mcoq-mathcomp-algebra[0m    [35m1.15.0[0m      Mathematical Components Library on Algebra
[01;04mcoq-mathcomp-field[0m      [35m1.15.0[0m      Mathematical Components Library on Fields
[01;04mcoq-mathcomp-fingroup[0m   [35m1.15.0[0m      Mathematical Components Library on finite groups
[01;04mcoq-mathcomp-solvable[0m   [35m1.15.0[0m      Mathematical Components Library on finite groups 
[01;04mcoq-mathcomp-ssreflect[0m  [35m1.15.0[0m      Small Scale Reflection
[01;04mcoqide[0m                  [35m8.16.0[0m      IDE of the Coq formal proof management system
[01;04mdune[0m                    [35m3.4.1[0m       Fast, portable, and opinionated build system
[01mdune-configurator[0m       [35m2.7.0[0m       Helper library for gathering system configuration
[01mlablgtk3[0m                [35m3.1.2[0m       OCaml interface to GTK+3
[01;04mlablgtk3-sourceview3[0m    [35m3.1.2[0m       OCaml interface to GTK+ gtksourceview library
[01mocaml[0m                   [35m4.12.0[0m      The OCaml compiler (virtual package)
[01mocaml-config[0m            [35m2[0m           OCaml Switch Configuration
[01;04mocaml-variants[0m          [1;34m4.12.0[0m      pinned to version [1;34m4.12.0[0m at [04mgit+https://github.co[0m
[01mocamlfind[0m               [35m1.9.5[0m       A library manager for OCaml
[01;04mzarith[0m                  [35m1.12[0m        Implements arithmetic and logical operations over
+ opam remove -y coq-mathcomp-character coq-mathcomp-odd-order
[1;34m[NOTE][0m coq-mathcomp-odd-order and coq-mathcomp-character are not installed.

Nothing to do.
+ time opam reinstall --skip-updates -j 4 -y coq-mathcomp-field coq-mathcomp-solvable coq-mathcomp-algebra coq-mathcomp-fingroup coq-mathcomp-ssreflect
The following actions will be performed:
  [33m↻[0m recompile [01mcoq-mathcomp-ssreflect[0m 1.15.0
  [33m↻[0m recompile [01mcoq-mathcomp-fingroup[0m  1.15.0
  [33m↻[0m recompile [01mcoq-mathcomp-algebra[0m   1.15.0
  [33m↻[0m recompile [01mcoq-mathcomp-solvable[0m  1.15.0
  [33m↻[0m recompile [01mcoq-mathcomp-field[0m     1.15.0
===== [33m↻[0m 5 =====

[36m<><>[0m [01mProcessing actions[0m [36m<><><><><><><><><><><><><><><><><><><><><><><><><><><><>[0m
[KProcessing  1/20:[K[KProcessing  2/20:[K[KProcessing  3/20:[K[36m⬇[0m retrieved [01mcoq-mathcomp-algebra[0m.1.15.0  (cached)
[KProcessing  3/20:[K[KProcessing  4/20:[K[36m⬇[0m retrieved [01mcoq-mathcomp-field[0m.1.15.0  (cached)
[KProcessing  4/20:[K[KProcessing  5/20:[K[36m⬇[0m retrieved [01mcoq-mathcomp-fingroup[0m.1.15.0  (cached)
[KProcessing  5/20:[K[36m⬇[0m retrieved [01mcoq-mathcomp-solvable[0m.1.15.0  (cached)
[KProcessing  5/20:[K[36m⬇[0m retrieved [01mcoq-mathcomp-ssreflect[0m.1.15.0  (cached)
[KProcessing  6/20: [[32mcoq-mathcomp-ssreflect[0m: make 16][K[31m⊘[0m removed   [01mcoq-mathcomp-field[0m.1.15.0
[31m⊘[0m removed   [01mcoq-mathcomp-solvable[0m.1.15.0
[31m⊘[0m removed   [01mcoq-mathcomp-algebra[0m.1.15.0
[31m⊘[0m removed   [01mcoq-mathcomp-fingroup[0m.1.15.0
[31m⊘[0m removed   [01mcoq-mathcomp-ssreflect[0m.1.15.0
[KProcessing 12/20: [[32mcoq-mathcomp-ssreflect[0m: make install][K[32m∗[0m installed [01mcoq-mathcomp-ssreflect[0m.1.15.0
[KProcessing 13/20: [[32mcoq-mathcomp-fingroup[0m: make 16][K[KProcessing 14/20: [[32mcoq-mathcomp-fingroup[0m: make install][K[32m∗[0m installed [01mcoq-mathcomp-fingroup[0m.1.15.0
[KProcessing 15/20: [[32mcoq-mathcomp-algebra[0m: make 16][K[KProcessing 16/20: [[32mcoq-mathcomp-algebra[0m: make install][K[32m∗[0m installed [01mcoq-mathcomp-algebra[0m.1.15.0
[KProcessing 17/20: [[32mcoq-mathcomp-solvable[0m: make 16][K[KProcessing 18/20: [[32mcoq-mathcomp-solvable[0m: make install][K[32m∗[0m installed [01mcoq-mathcomp-solvable[0m.1.15.0
[KProcessing 19/20: [[32mcoq-mathcomp-field[0m: make 16][K[KProcessing 20/20: [[32mcoq-mathcomp-field[0m: make install][K[32m∗[0m installed [01mcoq-mathcomp-field[0m.1.15.0
Done.
308.91user 12.20system 3:40.44elapsed 145%CPU (0avgtext+0avgdata 699884maxresident)k
0inputs+494952outputs (4035major+1540915minor)pagefaults 0swaps
+ throttle_control_end
++ cpufreqctl --throttle
./install.sh: ligne 101: cpufreqctl : commande introuvable
+ '[' -eq ']'
+ IS_THROTTLED=
+ mv /tmp/ocaml-stats-page-table-412-stats+optims.log coq-mathcomp.log.8-1
+ cd ..
+ date -R
Mon, 12 Sep 2022 08:14:50 +0200
+ false
+ unset OPAMSWITCH

Script done on 2022-09-12 08:14:50+02:00 [COMMAND_EXIT_CODE="0"]
