<?xml version="1.0" encoding="UTF-8"?>
<!DOCTYPE svg PUBLIC "-//W3C//DTD SVG 1.1//EN" "http://www.w3.org/Graphics/SVG/1.1/DTD/svg11.dtd">
<svg width="160mm" height="129mm" viewBox="0 0 16000 12900" version="1.1" xmlns="http://www.w3.org/2000/svg" xmlns:xlink="http://www.w3.org/1999/xlink" stroke-width="28.222" stroke-linejoin="round" xml:space="preserve">
 <path fill="rgb(255,255,255)" stroke="none" d="M 7979,12923 L -13,12923 -13,-13 15971,-13 15971,12923 7979,12923 Z"/>
 <path fill="none" stroke="rgb(179,179,179)" stroke-linejoin="round" d="M 7558,7943 L 4219,7943 4219,1617 10896,1617 10896,7943 7558,7943 Z"/>
 <path fill="none" stroke="rgb(179,179,179)" stroke-linejoin="round" d="M 10896,7942 L 4219,7942"/>
 <path fill="none" stroke="rgb(179,179,179)" stroke-linejoin="round" d="M 10896,7309 L 4219,7309"/>
 <path fill="none" stroke="rgb(179,179,179)" stroke-linejoin="round" d="M 10896,6676 L 4219,6676"/>
 <path fill="none" stroke="rgb(179,179,179)" stroke-linejoin="round" d="M 10896,6044 L 4219,6044"/>
 <path fill="none" stroke="rgb(179,179,179)" stroke-linejoin="round" d="M 10896,5412 L 4219,5412"/>
 <path fill="none" stroke="rgb(179,179,179)" stroke-linejoin="round" d="M 10896,4779 L 4219,4779"/>
 <path fill="none" stroke="rgb(179,179,179)" stroke-linejoin="round" d="M 10896,4146 L 4219,4146"/>
 <path fill="none" stroke="rgb(179,179,179)" stroke-linejoin="round" d="M 10896,3514 L 4219,3514"/>
 <path fill="none" stroke="rgb(179,179,179)" stroke-linejoin="round" d="M 10896,2881 L 4219,2881"/>
 <path fill="none" stroke="rgb(179,179,179)" stroke-linejoin="round" d="M 10896,2248 L 4219,2248"/>
 <path fill="none" stroke="rgb(179,179,179)" stroke-linejoin="round" d="M 10896,1616 L 4219,1616"/>
 <path fill="none" stroke="rgb(179,179,179)" stroke-linejoin="round" d="M 4219,8092 L 4219,7942"/>
 <path fill="none" stroke="rgb(179,179,179)" stroke-linejoin="round" d="M 4219,8092 L 4219,7942"/>
 <path fill="none" stroke="rgb(179,179,179)" stroke-linejoin="round" d="M 5554,8092 L 5554,7942"/>
 <path fill="none" stroke="rgb(179,179,179)" stroke-linejoin="round" d="M 5554,8092 L 5554,7942"/>
 <path fill="none" stroke="rgb(179,179,179)" stroke-linejoin="round" d="M 6890,8092 L 6890,7942"/>
 <path fill="none" stroke="rgb(179,179,179)" stroke-linejoin="round" d="M 6890,8092 L 6890,7942"/>
 <path fill="none" stroke="rgb(179,179,179)" stroke-linejoin="round" d="M 8224,8092 L 8224,7942"/>
 <path fill="none" stroke="rgb(179,179,179)" stroke-linejoin="round" d="M 8224,8092 L 8224,7942"/>
 <path fill="none" stroke="rgb(179,179,179)" stroke-linejoin="round" d="M 9560,8092 L 9560,7942"/>
 <path fill="none" stroke="rgb(179,179,179)" stroke-linejoin="round" d="M 9560,8092 L 9560,7942"/>
 <path fill="none" stroke="rgb(179,179,179)" stroke-linejoin="round" d="M 10896,8092 L 10896,7942"/>
 <path fill="none" stroke="rgb(179,179,179)" stroke-linejoin="round" d="M 10896,8092 L 10896,7942"/>
 <path fill="none" stroke="rgb(179,179,179)" stroke-linejoin="round" d="M 4219,7942 L 10896,7942"/>
 <path fill="none" stroke="rgb(179,179,179)" stroke-linejoin="round" d="M 4069,7942 L 4219,7942"/>
 <path fill="none" stroke="rgb(179,179,179)" stroke-linejoin="round" d="M 4069,7942 L 4219,7942"/>
 <path fill="none" stroke="rgb(179,179,179)" stroke-linejoin="round" d="M 4069,7309 L 4219,7309"/>
 <path fill="none" stroke="rgb(179,179,179)" stroke-linejoin="round" d="M 4069,7309 L 4219,7309"/>
 <path fill="none" stroke="rgb(179,179,179)" stroke-linejoin="round" d="M 4069,6676 L 4219,6676"/>
 <path fill="none" stroke="rgb(179,179,179)" stroke-linejoin="round" d="M 4069,6676 L 4219,6676"/>
 <path fill="none" stroke="rgb(179,179,179)" stroke-linejoin="round" d="M 4069,6044 L 4219,6044"/>
 <path fill="none" stroke="rgb(179,179,179)" stroke-linejoin="round" d="M 4069,6044 L 4219,6044"/>
 <path fill="none" stroke="rgb(179,179,179)" stroke-linejoin="round" d="M 4069,5412 L 4219,5412"/>
 <path fill="none" stroke="rgb(179,179,179)" stroke-linejoin="round" d="M 4069,5412 L 4219,5412"/>
 <path fill="none" stroke="rgb(179,179,179)" stroke-linejoin="round" d="M 4069,4779 L 4219,4779"/>
 <path fill="none" stroke="rgb(179,179,179)" stroke-linejoin="round" d="M 4069,4779 L 4219,4779"/>
 <path fill="none" stroke="rgb(179,179,179)" stroke-linejoin="round" d="M 4069,4146 L 4219,4146"/>
 <path fill="none" stroke="rgb(179,179,179)" stroke-linejoin="round" d="M 4069,4146 L 4219,4146"/>
 <path fill="none" stroke="rgb(179,179,179)" stroke-linejoin="round" d="M 4069,3514 L 4219,3514"/>
 <path fill="none" stroke="rgb(179,179,179)" stroke-linejoin="round" d="M 4069,3514 L 4219,3514"/>
 <path fill="none" stroke="rgb(179,179,179)" stroke-linejoin="round" d="M 4069,2881 L 4219,2881"/>
 <path fill="none" stroke="rgb(179,179,179)" stroke-linejoin="round" d="M 4069,2881 L 4219,2881"/>
 <path fill="none" stroke="rgb(179,179,179)" stroke-linejoin="round" d="M 4069,2248 L 4219,2248"/>
 <path fill="none" stroke="rgb(179,179,179)" stroke-linejoin="round" d="M 4069,2248 L 4219,2248"/>
 <path fill="none" stroke="rgb(179,179,179)" stroke-linejoin="round" d="M 4069,1616 L 4219,1616"/>
 <path fill="none" stroke="rgb(179,179,179)" stroke-linejoin="round" d="M 4069,1616 L 4219,1616"/>
 <path fill="none" stroke="rgb(179,179,179)" stroke-linejoin="round" d="M 4219,7942 L 4219,1616"/>
 <path fill="rgb(255,255,109)" stroke="none" d="M 9693,7942 L 9961,7942 9961,4587 9693,4587 9693,7942 Z"/>
 <path fill="none" stroke="rgb(0,0,0)" stroke-linejoin="round" d="M 9693,7942 L 9961,7942 9961,4587 9693,4587 9693,7942 Z"/>
 <path fill="rgb(255,255,109)" stroke="none" d="M 8358,7942 L 8625,7942 8625,4986 8358,4986 8358,7942 Z"/>
 <path fill="none" stroke="rgb(0,0,0)" stroke-linejoin="round" d="M 8358,7942 L 8625,7942 8625,4986 8358,4986 8358,7942 Z"/>
 <path fill="rgb(255,255,109)" stroke="none" d="M 7023,7942 L 7290,7942 7290,5864 7023,5864 7023,7942 Z"/>
 <path fill="none" stroke="rgb(0,0,0)" stroke-linejoin="round" d="M 7023,7942 L 7290,7942 7290,5864 7023,5864 7023,7942 Z"/>
 <path fill="rgb(255,255,109)" stroke="none" d="M 5688,7942 L 5955,7942 5955,4537 5688,4537 5688,7942 Z"/>
 <path fill="none" stroke="rgb(0,0,0)" stroke-linejoin="round" d="M 5688,7942 L 5955,7942 5955,4537 5688,4537 5688,7942 Z"/>
 <path fill="rgb(255,255,109)" stroke="none" d="M 4352,7942 L 4619,7942 4619,5307 4352,5307 4352,7942 Z"/>
 <path fill="none" stroke="rgb(0,0,0)" stroke-linejoin="round" d="M 4352,7942 L 4619,7942 4619,5307 4352,5307 4352,7942 Z"/>
 <path fill="rgb(255,222,89)" stroke="none" d="M 9961,7942 L 10228,7942 10228,3748 9961,3748 9961,7942 Z"/>
 <path fill="none" stroke="rgb(0,0,0)" stroke-linejoin="round" d="M 9961,7942 L 10228,7942 10228,3748 9961,3748 9961,7942 Z"/>
 <path fill="rgb(255,222,89)" stroke="none" d="M 8625,7942 L 8892,7942 8892,3457 8625,3457 8625,7942 Z"/>
 <path fill="none" stroke="rgb(0,0,0)" stroke-linejoin="round" d="M 8625,7942 L 8892,7942 8892,3457 8625,3457 8625,7942 Z"/>
 <path fill="rgb(255,222,89)" stroke="none" d="M 7290,7942 L 7558,7942 7558,4641 7290,4641 7290,7942 Z"/>
 <path fill="none" stroke="rgb(0,0,0)" stroke-linejoin="round" d="M 7290,7942 L 7558,7942 7558,4641 7290,4641 7290,7942 Z"/>
 <path fill="rgb(255,222,89)" stroke="none" d="M 5955,7942 L 6222,7942 6222,2242 5955,2242 5955,7942 Z"/>
 <path fill="none" stroke="rgb(0,0,0)" stroke-linejoin="round" d="M 5955,7942 L 6222,7942 6222,2242 5955,2242 5955,7942 Z"/>
 <path fill="rgb(255,222,89)" stroke="none" d="M 4619,7942 L 4886,7942 4886,3405 4619,3405 4619,7942 Z"/>
 <path fill="none" stroke="rgb(0,0,0)" stroke-linejoin="round" d="M 4619,7942 L 4886,7942 4886,3405 4619,3405 4619,7942 Z"/>
 <path fill="rgb(255,151,47)" stroke="none" d="M 10228,7942 L 10495,7942 10495,4742 10228,4742 10228,7942 Z"/>
 <path fill="none" stroke="rgb(0,0,0)" stroke-linejoin="round" d="M 10228,7942 L 10495,7942 10495,4742 10228,4742 10228,7942 Z"/>
 <path fill="rgb(255,151,47)" stroke="none" d="M 8892,7942 L 9159,7942 9159,3945 8892,3945 8892,7942 Z"/>
 <path fill="none" stroke="rgb(0,0,0)" stroke-linejoin="round" d="M 8892,7942 L 9159,7942 9159,3945 8892,3945 8892,7942 Z"/>
 <path fill="rgb(255,151,47)" stroke="none" d="M 7558,7942 L 7825,7942 7825,5375 7558,5375 7558,7942 Z"/>
 <path fill="none" stroke="rgb(0,0,0)" stroke-linejoin="round" d="M 7558,7942 L 7825,7942 7825,5375 7558,5375 7558,7942 Z"/>
 <path fill="rgb(255,151,47)" stroke="none" d="M 6222,7942 L 6489,7942 6489,4986 6222,4986 6222,7942 Z"/>
 <path fill="none" stroke="rgb(0,0,0)" stroke-linejoin="round" d="M 6222,7942 L 6489,7942 6489,4986 6222,4986 6222,7942 Z"/>
 <path fill="rgb(255,151,47)" stroke="none" d="M 4886,7942 L 5153,7942 5153,2985 4886,2985 4886,7942 Z"/>
 <path fill="none" stroke="rgb(0,0,0)" stroke-linejoin="round" d="M 4886,7942 L 5153,7942 5153,2985 4886,2985 4886,7942 Z"/>
 <path fill="rgb(255,123,89)" stroke="none" d="M 10495,7942 L 10762,7942 10762,4416 10495,4416 10495,7942 Z"/>
 <path fill="none" stroke="rgb(0,0,0)" stroke-linejoin="round" d="M 10495,7942 L 10762,7942 10762,4416 10495,4416 10495,7942 Z"/>
 <path fill="rgb(255,123,89)" stroke="none" d="M 9159,7942 L 9426,7942 9426,2697 9159,2697 9159,7942 Z"/>
 <path fill="none" stroke="rgb(0,0,0)" stroke-linejoin="round" d="M 9159,7942 L 9426,7942 9426,2697 9159,2697 9159,7942 Z"/>
 <path fill="rgb(255,123,89)" stroke="none" d="M 7825,7942 L 8091,7942 8091,5324 7825,5324 7825,7942 Z"/>
 <path fill="none" stroke="rgb(0,0,0)" stroke-linejoin="round" d="M 7825,7942 L 8091,7942 8091,5324 7825,5324 7825,7942 Z"/>
 <path fill="rgb(255,123,89)" stroke="none" d="M 6489,7942 L 6756,7942 6756,3801 6489,3801 6489,7942 Z"/>
 <path fill="none" stroke="rgb(0,0,0)" stroke-linejoin="round" d="M 6489,7942 L 6756,7942 6756,3801 6489,3801 6489,7942 Z"/>
 <path fill="rgb(255,123,89)" stroke="none" d="M 5153,7942 L 5421,7942 5421,2296 5153,2296 5153,7942 Z"/>
 <path fill="none" stroke="rgb(0,0,0)" stroke-linejoin="round" d="M 5153,7942 L 5421,7942 5421,2296 5153,2296 5153,7942 Z"/>
 <path fill="none" stroke="rgb(0,0,0)" stroke-linejoin="round" d="M 4486,5420 L 4486,5307 4486,5194"/>
 <path fill="none" stroke="rgb(0,0,0)" stroke-linejoin="round" d="M 4586,5420 L 4386,5420"/>
 <path fill="none" stroke="rgb(0,0,0)" stroke-linejoin="round" d="M 4386,5194 L 4586,5194"/>
 <path fill="none" stroke="rgb(0,0,0)" stroke-linejoin="round" d="M 5821,4564 L 5821,4537 5821,4510"/>
 <path fill="none" stroke="rgb(0,0,0)" stroke-linejoin="round" d="M 5921,4564 L 5721,4564"/>
 <path fill="none" stroke="rgb(0,0,0)" stroke-linejoin="round" d="M 5721,4510 L 5921,4510"/>
 <path fill="none" stroke="rgb(0,0,0)" stroke-linejoin="round" d="M 7157,5947 L 7157,5864 7157,5782"/>
 <path fill="none" stroke="rgb(0,0,0)" stroke-linejoin="round" d="M 7257,5947 L 7057,5947"/>
 <path fill="none" stroke="rgb(0,0,0)" stroke-linejoin="round" d="M 7057,5782 L 7257,5782"/>
 <path fill="none" stroke="rgb(0,0,0)" stroke-linejoin="round" d="M 8491,5066 L 8491,4986 8491,4906"/>
 <path fill="none" stroke="rgb(0,0,0)" stroke-linejoin="round" d="M 8591,5066 L 8391,5066"/>
 <path fill="none" stroke="rgb(0,0,0)" stroke-linejoin="round" d="M 8391,4906 L 8591,4906"/>
 <path fill="none" stroke="rgb(0,0,0)" stroke-linejoin="round" d="M 9827,4651 L 9827,4587 9827,4522"/>
 <path fill="none" stroke="rgb(0,0,0)" stroke-linejoin="round" d="M 9927,4651 L 9727,4651"/>
 <path fill="none" stroke="rgb(0,0,0)" stroke-linejoin="round" d="M 9727,4522 L 9927,4522"/>
 <path fill="none" stroke="rgb(0,0,0)" stroke-linejoin="round" d="M 4753,3498 L 4753,3405 4753,3313"/>
 <path fill="none" stroke="rgb(0,0,0)" stroke-linejoin="round" d="M 4853,3498 L 4653,3498"/>
 <path fill="none" stroke="rgb(0,0,0)" stroke-linejoin="round" d="M 4653,3313 L 4853,3313"/>
 <path fill="none" stroke="rgb(0,0,0)" stroke-linejoin="round" d="M 6088,2358 L 6088,2242 6088,2127"/>
 <path fill="none" stroke="rgb(0,0,0)" stroke-linejoin="round" d="M 6188,2358 L 5988,2358"/>
 <path fill="none" stroke="rgb(0,0,0)" stroke-linejoin="round" d="M 5988,2127 L 6188,2127"/>
 <path fill="none" stroke="rgb(0,0,0)" stroke-linejoin="round" d="M 7424,4757 L 7424,4641 7424,4525"/>
 <path fill="none" stroke="rgb(0,0,0)" stroke-linejoin="round" d="M 7524,4757 L 7324,4757"/>
 <path fill="none" stroke="rgb(0,0,0)" stroke-linejoin="round" d="M 7324,4525 L 7524,4525"/>
 <path fill="none" stroke="rgb(0,0,0)" stroke-linejoin="round" d="M 8759,3539 L 8759,3457 8759,3374"/>
 <path fill="none" stroke="rgb(0,0,0)" stroke-linejoin="round" d="M 8859,3539 L 8659,3539"/>
 <path fill="none" stroke="rgb(0,0,0)" stroke-linejoin="round" d="M 8659,3374 L 8859,3374"/>
 <path fill="none" stroke="rgb(0,0,0)" stroke-linejoin="round" d="M 10094,3870 L 10094,3748 10094,3626"/>
 <path fill="none" stroke="rgb(0,0,0)" stroke-linejoin="round" d="M 10194,3870 L 9994,3870"/>
 <path fill="none" stroke="rgb(0,0,0)" stroke-linejoin="round" d="M 9994,3626 L 10194,3626"/>
 <path fill="none" stroke="rgb(0,0,0)" stroke-linejoin="round" d="M 5020,3113 L 5020,2985 5020,2858"/>
 <path fill="none" stroke="rgb(0,0,0)" stroke-linejoin="round" d="M 5120,3113 L 4920,3113"/>
 <path fill="none" stroke="rgb(0,0,0)" stroke-linejoin="round" d="M 4920,2858 L 5120,2858"/>
 <path fill="none" stroke="rgb(0,0,0)" stroke-linejoin="round" d="M 6355,5032 L 6355,4986 6355,4940"/>
 <path fill="none" stroke="rgb(0,0,0)" stroke-linejoin="round" d="M 6455,5032 L 6255,5032"/>
 <path fill="none" stroke="rgb(0,0,0)" stroke-linejoin="round" d="M 6255,4940 L 6455,4940"/>
 <path fill="none" stroke="rgb(0,0,0)" stroke-linejoin="round" d="M 7691,5454 L 7691,5375 7691,5295"/>
 <path fill="none" stroke="rgb(0,0,0)" stroke-linejoin="round" d="M 7791,5454 L 7591,5454"/>
 <path fill="none" stroke="rgb(0,0,0)" stroke-linejoin="round" d="M 7591,5295 L 7791,5295"/>
 <path fill="none" stroke="rgb(0,0,0)" stroke-linejoin="round" d="M 9026,3998 L 9026,3945 9026,3892"/>
 <path fill="none" stroke="rgb(0,0,0)" stroke-linejoin="round" d="M 9126,3998 L 8926,3998"/>
 <path fill="none" stroke="rgb(0,0,0)" stroke-linejoin="round" d="M 8926,3892 L 9126,3892"/>
 <path fill="none" stroke="rgb(0,0,0)" stroke-linejoin="round" d="M 10361,4867 L 10361,4742 10361,4616"/>
 <path fill="none" stroke="rgb(0,0,0)" stroke-linejoin="round" d="M 10461,4867 L 10261,4867"/>
 <path fill="none" stroke="rgb(0,0,0)" stroke-linejoin="round" d="M 10261,4616 L 10461,4616"/>
 <path fill="none" stroke="rgb(0,0,0)" stroke-linejoin="round" d="M 5287,2398 L 5287,2296 5287,2194"/>
 <path fill="none" stroke="rgb(0,0,0)" stroke-linejoin="round" d="M 5387,2398 L 5187,2398"/>
 <path fill="none" stroke="rgb(0,0,0)" stroke-linejoin="round" d="M 5187,2194 L 5387,2194"/>
 <path fill="none" stroke="rgb(0,0,0)" stroke-linejoin="round" d="M 6623,3870 L 6623,3801 6623,3733"/>
 <path fill="none" stroke="rgb(0,0,0)" stroke-linejoin="round" d="M 6723,3870 L 6523,3870"/>
 <path fill="none" stroke="rgb(0,0,0)" stroke-linejoin="round" d="M 6523,3733 L 6723,3733"/>
 <path fill="none" stroke="rgb(0,0,0)" stroke-linejoin="round" d="M 7958,5411 L 7958,5324 7958,5238"/>
 <path fill="none" stroke="rgb(0,0,0)" stroke-linejoin="round" d="M 8057,5411 L 7858,5411"/>
 <path fill="none" stroke="rgb(0,0,0)" stroke-linejoin="round" d="M 7858,5238 L 8057,5238"/>
 <path fill="none" stroke="rgb(0,0,0)" stroke-linejoin="round" d="M 9293,2734 L 9293,2697 9293,2660"/>
 <path fill="none" stroke="rgb(0,0,0)" stroke-linejoin="round" d="M 9393,2734 L 9193,2734"/>
 <path fill="none" stroke="rgb(0,0,0)" stroke-linejoin="round" d="M 9193,2660 L 9393,2660"/>
 <path fill="none" stroke="rgb(0,0,0)" stroke-linejoin="round" d="M 10628,4461 L 10628,4416 10628,4371"/>
 <path fill="none" stroke="rgb(0,0,0)" stroke-linejoin="round" d="M 10728,4461 L 10528,4461"/>
 <path fill="none" stroke="rgb(0,0,0)" stroke-linejoin="round" d="M 10528,4371 L 10728,4371"/>
 <text class="SVGTextShape" transform="rotate(-44.9 1527 11859)"><tspan class="TextParagraph" font-family="Liberation Sans, sans-serif" font-size="353px" font-weight="400"><tspan class="TextPosition" x="1527" y="11859"><tspan fill="rgb(0,0,0)" stroke="none" style="white-space: pre">mark-prefetching-412-stats+nnp</tspan></tspan></tspan></text>
 <text class="SVGTextShape" transform="rotate(-44.9 2675 12047)"><tspan class="TextParagraph" font-family="Liberation Sans, sans-serif" font-size="353px" font-weight="400"><tspan class="TextPosition" x="2675" y="12047"><tspan fill="rgb(0,0,0)" stroke="none" style="white-space: pre">page-table-412-stats+optims+nnp</tspan></tspan></tspan></text>
 <text class="SVGTextShape" transform="rotate(-44.9 4553 11505)"><tspan class="TextParagraph" font-family="Liberation Sans, sans-serif" font-size="353px" font-weight="400"><tspan class="TextPosition" x="4553" y="11505"><tspan fill="rgb(0,0,0)" stroke="none" style="white-space: pre">page-table-412-stats+optims</tspan></tspan></tspan></text>
 <text class="SVGTextShape" transform="rotate(-44.9 5103 12291)"><tspan class="TextParagraph" font-family="Liberation Sans, sans-serif" font-size="353px" font-weight="400"><tspan class="TextPosition" x="5103" y="12291"><tspan fill="rgb(0,0,0)" stroke="none" style="white-space: pre">page-table-412-stats+forward_optim</tspan></tspan></tspan></text>
 <text class="SVGTextShape" transform="rotate(-44.9 6121 12609)"><tspan class="TextParagraph" font-family="Liberation Sans, sans-serif" font-size="353px" font-weight="400"><tspan class="TextPosition" x="6121" y="12609"><tspan fill="rgb(0,0,0)" stroke="none" style="white-space: pre">mark-prefetching-412-stats+optim+nnp</tspan></tspan></tspan></text>
 <text class="SVGTextShape"><tspan class="TextParagraph" font-family="Liberation Sans, sans-serif" font-size="353px" font-weight="400"><tspan class="TextPosition" x="3308" y="8063"><tspan fill="rgb(0,0,0)" stroke="none" style="white-space: pre">4.15</tspan></tspan></tspan></text>
 <text class="SVGTextShape"><tspan class="TextParagraph" font-family="Liberation Sans, sans-serif" font-size="353px" font-weight="400"><tspan class="TextPosition" x="3308" y="7430"><tspan fill="rgb(0,0,0)" stroke="none" style="white-space: pre">4.20</tspan></tspan></tspan></text>
 <text class="SVGTextShape"><tspan class="TextParagraph" font-family="Liberation Sans, sans-serif" font-size="353px" font-weight="400"><tspan class="TextPosition" x="3308" y="6797"><tspan fill="rgb(0,0,0)" stroke="none" style="white-space: pre">4.25</tspan></tspan></tspan></text>
 <text class="SVGTextShape"><tspan class="TextParagraph" font-family="Liberation Sans, sans-serif" font-size="353px" font-weight="400"><tspan class="TextPosition" x="3308" y="6164"><tspan fill="rgb(0,0,0)" stroke="none" style="white-space: pre">4.30</tspan></tspan></tspan></text>
 <text class="SVGTextShape"><tspan class="TextParagraph" font-family="Liberation Sans, sans-serif" font-size="353px" font-weight="400"><tspan class="TextPosition" x="3308" y="5532"><tspan fill="rgb(0,0,0)" stroke="none" style="white-space: pre">4.35</tspan></tspan></tspan></text>
 <text class="SVGTextShape"><tspan class="TextParagraph" font-family="Liberation Sans, sans-serif" font-size="353px" font-weight="400"><tspan class="TextPosition" x="3308" y="4899"><tspan fill="rgb(0,0,0)" stroke="none" style="white-space: pre">4.40</tspan></tspan></tspan></text>
 <text class="SVGTextShape"><tspan class="TextParagraph" font-family="Liberation Sans, sans-serif" font-size="353px" font-weight="400"><tspan class="TextPosition" x="3308" y="4266"><tspan fill="rgb(0,0,0)" stroke="none" style="white-space: pre">4.45</tspan></tspan></tspan></text>
 <text class="SVGTextShape"><tspan class="TextParagraph" font-family="Liberation Sans, sans-serif" font-size="353px" font-weight="400"><tspan class="TextPosition" x="3308" y="3634"><tspan fill="rgb(0,0,0)" stroke="none" style="white-space: pre">4.50</tspan></tspan></tspan></text>
 <text class="SVGTextShape"><tspan class="TextParagraph" font-family="Liberation Sans, sans-serif" font-size="353px" font-weight="400"><tspan class="TextPosition" x="3308" y="3001"><tspan fill="rgb(0,0,0)" stroke="none" style="white-space: pre">4.55</tspan></tspan></tspan></text>
 <text class="SVGTextShape"><tspan class="TextParagraph" font-family="Liberation Sans, sans-serif" font-size="353px" font-weight="400"><tspan class="TextPosition" x="3308" y="2368"><tspan fill="rgb(0,0,0)" stroke="none" style="white-space: pre">4.60</tspan></tspan></tspan></text>
 <text class="SVGTextShape"><tspan class="TextParagraph" font-family="Liberation Sans, sans-serif" font-size="353px" font-weight="400"><tspan class="TextPosition" x="3308" y="1736"><tspan fill="rgb(0,0,0)" stroke="none" style="white-space: pre">4.65</tspan></tspan></tspan></text>
 <text class="SVGTextShape"><tspan class="TextParagraph" font-family="Liberation Sans, sans-serif" font-size="459px" font-weight="400"><tspan class="TextPosition" x="4447" y="916"><tspan fill="rgb(0,0,0)" stroke="none" style="white-space: pre">Coq compilation, 4 compiler options</tspan></tspan></tspan></text>
 <path fill="rgb(255,255,109)" stroke="none" d="M 11443,5614 L 11337,5614 11337,5403 11548,5403 11548,5614 11443,5614 Z"/>
 <path fill="none" stroke="rgb(0,0,0)" stroke-linejoin="round" d="M 11443,5614 L 11337,5614 11337,5403 11548,5403 11548,5614 11443,5614 Z"/>
 <path fill="rgb(255,222,89)" stroke="none" d="M 11443,6112 L 11337,6112 11337,5901 11548,5901 11548,6112 11443,6112 Z"/>
 <path fill="none" stroke="rgb(0,0,0)" stroke-linejoin="round" d="M 11443,6112 L 11337,6112 11337,5901 11548,5901 11548,6112 11443,6112 Z"/>
 <path fill="rgb(255,151,47)" stroke="none" d="M 11443,6609 L 11337,6609 11337,6399 11548,6399 11548,6609 11443,6609 Z"/>
 <path fill="none" stroke="rgb(0,0,0)" stroke-linejoin="round" d="M 11443,6609 L 11337,6609 11337,6399 11548,6399 11548,6609 11443,6609 Z"/>
 <path fill="rgb(255,123,89)" stroke="none" d="M 11443,7107 L 11337,7107 11337,6896 11548,6896 11548,7107 11443,7107 Z"/>
 <path fill="none" stroke="rgb(0,0,0)" stroke-linejoin="round" d="M 11443,7107 L 11337,7107 11337,6896 11548,6896 11548,7107 11443,7107 Z"/>
 <text class="SVGTextShape"><tspan class="TextParagraph" font-family="Liberation Sans, sans-serif" font-size="353px" font-weight="400"><tspan class="TextPosition" x="11648" y="5628"><tspan fill="rgb(0,0,0)" stroke="none" style="white-space: pre">gcc</tspan></tspan></tspan></text>
 <text class="SVGTextShape"><tspan class="TextParagraph" font-family="Liberation Sans, sans-serif" font-size="353px" font-weight="400"><tspan class="TextPosition" x="11648" y="6126"><tspan fill="rgb(0,0,0)" stroke="none" style="white-space: pre">gcc -march=native -O3</tspan></tspan></tspan></text>
 <text class="SVGTextShape"><tspan class="TextParagraph" font-family="Liberation Sans, sans-serif" font-size="353px" font-weight="400"><tspan class="TextPosition" x="11648" y="6623"><tspan fill="rgb(0,0,0)" stroke="none" style="white-space: pre">clang</tspan></tspan></tspan></text>
 <text class="SVGTextShape"><tspan class="TextParagraph" font-family="Liberation Sans, sans-serif" font-size="353px" font-weight="400"><tspan class="TextPosition" x="11648" y="7121"><tspan fill="rgb(0,0,0)" stroke="none" style="white-space: pre">clang -march=native -fslp-</tspan></tspan><tspan class="TextPosition" x="11648" y="7518"><tspan fill="rgb(0,0,0)" stroke="none" style="white-space: pre">vectorize</tspan></tspan></tspan></text>
 <text class="SVGTextShape" transform="rotate(-90 824 9118)"><tspan class="TextParagraph" font-family="Liberation Sans, sans-serif" font-size="318px" font-weight="400"><tspan class="TextPosition" x="824" y="9118"><tspan fill="rgb(0,0,0)" stroke="none" style="white-space: pre">pace (ns/w) — lower is better</tspan></tspan></tspan></text>
</svg>