Package coq-stdlib does not exist, create as a NEW package? [Y/n] y
[coq-stdlib.dev: rsync]
[coq-stdlib.dev] synchronised from file:///home/gitlab-runner/builds/6WQk5HVP/0/coq/coq/_bench/coq
coq-stdlib is now pinned to file:///home/gitlab-runner/builds/6WQk5HVP/0/coq/coq/_bench/coq (version dev)

The following actions will be performed:
  ∗ install coq-stdlib dev*

<><> Processing actions <><><><><><><><><><><><><><><><><><><><><><><><><><><><>
∗ installed coq-stdlib.dev
Done.
