The following actions will be performed:
  ∗ install coq-flocq dev

<><> Gathering sources ><><><><><><><><><><><><><><><><><><><><><><><><><><><><>
Processing  1/1: [coq-flocq.dev: git]
[coq-flocq.dev] synchronised from git+https://gitlab.inria.fr/flocq/flocq.git#master

<><> Processing actions <><><><><><><><><><><><><><><><><><><><><><><><><><><><>
Processing  1/2: [coq-flocq: autoconf]
+ /usr/bin/autoconf  (CWD=/home/gitlab-runner/builds/6WQk5HVP/0/coq/coq/_bench/opam.OLD/ocaml-base-compiler.4.12.0/.opam-switch/build/coq-flocq.dev)
- configure.in:5: warning: prefer named diversions
Processing  1/2: [coq-flocq: ./configure]
+ /home/gitlab-runner/builds/6WQk5HVP/0/coq/coq/_bench/opam.OLD/ocaml-base-compiler.4.12.0/.opam-switch/build/coq-flocq.dev/./configure  (CWD=/home/gitlab-runner/builds/6WQk5HVP/0/coq/coq/_bench/opam.OLD/ocaml-base-compiler.4.12.0/.opam-switch/build/coq-flocq.dev)
- checking for coqc... /home/gitlab-runner/builds/6WQk5HVP/0/coq/coq/_bench/opam.OLD/ocaml-base-compiler.4.12.0/bin/coqc
- checking Coq version... 8.14
- checking for coqdep... /home/gitlab-runner/builds/6WQk5HVP/0/coq/coq/_bench/opam.OLD/ocaml-base-compiler.4.12.0/bin/coqdep
- checking for coqdoc... /home/gitlab-runner/builds/6WQk5HVP/0/coq/coq/_bench/opam.OLD/ocaml-base-compiler.4.12.0/bin/coqdoc
- checking for g++... g++
- checking whether the C++ compiler works... yes
- checking for C++ compiler default output file name... a.out
- checking for suffix of executables... 
- checking whether we are cross compiling... no
- checking for suffix of object files... o
- checking whether we are using the GNU C++ compiler... yes
- checking whether g++ accepts -g... yes
- configure: building remake...
- /tmp/ccLLtPeN.o: In function `main':
- remake.cpp:(.text.startup+0x769): warning: the use of `tempnam' is dangerous, better use `mkstemp'
- configure: creating ./config.status
- config.status: creating Remakefile
- config.status: creating src/Version.v
Processing  1/2: [coq-flocq: ./remake]
+ /home/gitlab-runner/builds/6WQk5HVP/0/coq/coq/_bench/opam.OLD/ocaml-base-compiler.4.12.0/.opam-switch/build/coq-flocq.dev/./remake "-j1" (CWD=/home/gitlab-runner/builds/6WQk5HVP/0/coq/coq/_bench/opam.OLD/ocaml-base-compiler.4.12.0/.opam-switch/build/coq-flocq.dev)
- Building src/Version.vo
- Finished src/Version.vo
- Building src/Core/Raux.vo
- Building src/Core/Zaux.vo
- Finished src/Core/Zaux.vo
- Finished src/Core/Raux.vo
- Building src/Core/Defs.vo
- Finished src/Core/Defs.vo
- Building src/Core/Digits.vo
- Finished src/Core/Digits.vo
- Building src/Core/Float_prop.vo
- Finished src/Core/Float_prop.vo
- Building src/Core/FIX.vo
- Building src/Core/Generic_fmt.vo
- Building src/Core/Round_pred.vo
- Finished src/Core/Round_pred.vo
- Finished src/Core/Generic_fmt.vo
- Building src/Core/Round_NE.vo
- Building src/Core/Ulp.vo
- Finished src/Core/Ulp.vo
- Finished src/Core/Round_NE.vo
- Finished src/Core/FIX.vo
- Building src/Core/FLT.vo
- Building src/Core/FLX.vo
- Finished src/Core/FLX.vo
- Finished src/Core/FLT.vo
- Building src/Core/FTZ.vo
- Finished src/Core/FTZ.vo
- Building src/Core/Core.vo
- Finished src/Core/Core.vo
- Building src/Calc/Bracket.vo
- Finished src/Calc/Bracket.vo
- Building src/Calc/Div.vo
- Finished src/Calc/Div.vo
- Building src/Calc/Operations.vo
- Finished src/Calc/Operations.vo
- Building src/Calc/Plus.vo
- Building src/Calc/Round.vo
- Finished src/Calc/Round.vo
- Finished src/Calc/Plus.vo
- Building src/Calc/Sqrt.vo
- Finished src/Calc/Sqrt.vo
- Building src/Prop/Div_sqrt_error.vo
- Building src/Prop/Mult_error.vo
- Building src/Prop/Plus_error.vo
- Building src/Prop/Relative.vo
- Finished src/Prop/Relative.vo
- Finished src/Prop/Plus_error.vo
- Finished src/Prop/Mult_error.vo
- Building src/Prop/Sterbenz.vo
- Finished src/Prop/Sterbenz.vo
- Finished src/Prop/Div_sqrt_error.vo
- Building src/Prop/Round_odd.vo
- Finished src/Prop/Round_odd.vo
- Building src/Prop/Double_rounding.vo
- Finished src/Prop/Double_rounding.vo
- Building src/IEEE754/BinarySingleNaN.vo
- Finished src/IEEE754/BinarySingleNaN.vo
- Building src/IEEE754/Binary.vo
- Finished src/IEEE754/Binary.vo
- Building src/IEEE754/Bits.vo
- File "./src/IEEE754/Bits.v", line 185, characters 0-79:
- Warning:
- The syntax [at ... with ...] is deprecated. Use [with ... at ...] instead.
- [conversion_at_with,deprecated]
- Finished src/IEEE754/Bits.vo
- Building src/IEEE754/PrimFloat.vo
- File "./src/IEEE754/PrimFloat.v", line 524, characters 3-9:
- Warning: Notation "_ == _" is deprecated since 8.13. use infix =? instead
- [deprecated-notation,deprecated]
- File "./src/IEEE754/PrimFloat.v", line 534, characters 3-8:
- Warning: Notation "_ < _" is deprecated since 8.13. use infix <? instead
- [deprecated-notation,deprecated]
- File "./src/IEEE754/PrimFloat.v", line 544, characters 3-9:
- Warning: Notation "_ <= _" is deprecated since 8.13. use infix <=? instead
- [deprecated-notation,deprecated]
- Finished src/IEEE754/PrimFloat.vo
- Building src/Pff/Pff.vo
- File "./src/Pff/Pff.v", line 1088, characters 0-30:
- Warning:
- New coercion path [Z.of_nat; IZR] : nat >-> R is ambiguous with existing 
- [INR] : nat >-> R. [ambiguous-paths,typechecker]
- File "./src/Pff/Pff.v", line 1293, characters 0-16:
- Warning:
- New coercion path [Z.of_nat; IZR] : nat >-> R is ambiguous with existing 
- [INR] : nat >-> R. [ambiguous-paths,typechecker]
- Finished src/Pff/Pff.vo
- Building src/Pff/Pff2FlocqAux.vo
- File "./src/Pff/Pff2FlocqAux.v", line 23, characters 0-24:
- Warning:
- New coercion path [Z.of_nat; IZR] : nat >-> R is ambiguous with existing 
- [INR] : nat >-> R. [ambiguous-paths,typechecker]
- Finished src/Pff/Pff2FlocqAux.vo
- Building src/Pff/Pff2Flocq.vo
- File "./src/Pff/Pff2Flocq.v", line 23, characters 0-32:
- Warning:
- New coercion path [Z.of_nat; IZR] : nat >-> R is ambiguous with existing 
- [INR] : nat >-> R. [ambiguous-paths,typechecker]
- Finished src/Pff/Pff2Flocq.vo
- Building all
- Finished all
λ compiled  coq-flocq.dev
Processing  2/2: [coq-flocq: ./remake install]
+ /home/gitlab-runner/builds/6WQk5HVP/0/coq/coq/_bench/opam.OLD/ocaml-base-compiler.4.12.0/.opam-switch/build/coq-flocq.dev/./remake "install" (CWD=/home/gitlab-runner/builds/6WQk5HVP/0/coq/coq/_bench/opam.OLD/ocaml-base-compiler.4.12.0/.opam-switch/build/coq-flocq.dev)
- Building install
- Finished install
∗ installed coq-flocq.dev
Done.
